Verision1/03_verif/SubModule/LOPD_UNIT/LOPD_8BIT/Verilator/tb_LOPD_8bit.vcd
$version Generated by VerilatedVcd $end
$timescale 1ps $end
 $scope module TOP $end
  $scope module tb_LOPD_8bit $end
   $var wire 32 2 SIZE_DATA [31:0] $end
   $var wire 32 3 SIZE_POS [31:0] $end
   $var wire 8 # i_data [7:0] $end
   $var wire 3 $ o_pos_one [2:0] $end
   $var wire 1 % o_zero_flag $end
   $var wire 3 & w_expect_pos [2:0] $end
   $var wire 1 ' w_expect_zero $end
   $var wire 32 ( test_count [31:0] $end
   $var wire 32 ) test_pass [31:0] $end
   $scope module DUT $end
    $var wire 8 # i_data [7:0] $end
    $var wire 3 $ o_pos_one [2:0] $end
    $var wire 1 % o_zero_flag $end
    $var wire 1 * w_zero_flag_0 $end
    $var wire 2 + w_pos_one_0 [1:0] $end
    $var wire 1 , w_zero_flag_1 $end
    $var wire 2 - w_pos_one_1 [1:0] $end
    $var wire 3 . w_o_pos_one [2:0] $end
    $scope module LOPD_4bit_unit_0 $end
     $var wire 4 / i_data [3:0] $end
     $var wire 2 + o_pos_one [1:0] $end
     $var wire 1 * o_zero_flag $end
    $upscope $end
    $scope module LOPD_4bit_unit_1 $end
     $var wire 4 0 i_data [3:0] $end
     $var wire 2 - o_pos_one [1:0] $end
     $var wire 1 , o_zero_flag $end
    $upscope $end
   $upscope $end
   $scope module unnamedblk1 $end
    $var wire 32 1 i [31:0] $end
   $upscope $end
  $upscope $end
 $upscope $end
$enddefinitions $end


#0
b00000000 #
b000 $
1%
b000 &
0'
b00000000000000000000000000000000 (
b00000000000000000000000000000000 )
1*
b00 +
1,
b00 -
b100 .
b0000 /
b0000 0
b00000000000000000000000000000000 1
b00000000000000000000000000001000 2
b00000000000000000000000000000011 3
#1000
b00000001 #
b111 $
0%
1'
b00000000000000000000000000000001 (
b00000000000000000000000000000001 )
0*
b11 +
b111 .
b0001 /
b00000000000000000000000000000001 1
#2000
b00000010 #
b110 $
b111 &
0'
b00000000000000000000000000000010 (
b00000000000000000000000000000010 )
b10 +
b110 .
b0010 /
b00000000000000000000000000000010 1
#3000
b00000011 #
b110 &
b00000000000000000000000000000011 (
b00000000000000000000000000000011 )
b0011 /
b00000000000000000000000000000011 1
#4000
b00000100 #
b101 $
b00000000000000000000000000000100 (
b00000000000000000000000000000100 )
b01 +
b101 .
b0100 /
b00000000000000000000000000000100 1
#5000
b00000101 #
b101 &
b00000000000000000000000000000101 (
b00000000000000000000000000000101 )
b0101 /
b00000000000000000000000000000101 1
#6000
b00000110 #
b00000000000000000000000000000110 (
b00000000000000000000000000000110 )
b0110 /
b00000000000000000000000000000110 1
#7000
b00000111 #
b00000000000000000000000000000111 (
b00000000000000000000000000000111 )
b0111 /
b00000000000000000000000000000111 1
#8000
b00001000 #
b100 $
b00000000000000000000000000001000 (
b00000000000000000000000000001000 )
b00 +
b100 .
b1000 /
b00000000000000000000000000001000 1
#9000
b00001001 #
b100 &
b00000000000000000000000000001001 (
b00000000000000000000000000001001 )
b1001 /
b00000000000000000000000000001001 1
#10000
b00001010 #
b00000000000000000000000000001010 (
b00000000000000000000000000001010 )
b1010 /
b00000000000000000000000000001010 1
#11000
b00001011 #
b00000000000000000000000000001011 (
b00000000000000000000000000001011 )
b1011 /
b00000000000000000000000000001011 1
#12000
b00001100 #
b00000000000000000000000000001100 (
b00000000000000000000000000001100 )
b1100 /
b00000000000000000000000000001100 1
#13000
b00001101 #
b00000000000000000000000000001101 (
b00000000000000000000000000001101 )
b1101 /
b00000000000000000000000000001101 1
#14000
b00001110 #
b00000000000000000000000000001110 (
b00000000000000000000000000001110 )
b1110 /
b00000000000000000000000000001110 1
#15000
b00001111 #
b00000000000000000000000000001111 (
b00000000000000000000000000001111 )
b1111 /
b00000000000000000000000000001111 1
#16000
b00010000 #
b011 $
b00000000000000000000000000010000 (
b00000000000000000000000000010000 )
1*
0,
b11 -
b011 .
b0000 /
b0001 0
b00000000000000000000000000010000 1
#17000
b00010001 #
b011 &
b00000000000000000000000000010001 (
b00000000000000000000000000010001 )
0*
b11 +
b0001 /
b00000000000000000000000000010001 1
#18000
b00010010 #
b00000000000000000000000000010010 (
b00000000000000000000000000010010 )
b10 +
b0010 /
b00000000000000000000000000010010 1
#19000
b00010011 #
b00000000000000000000000000010011 (
b00000000000000000000000000010011 )
b0011 /
b00000000000000000000000000010011 1
#20000
b00010100 #
b00000000000000000000000000010100 (
b00000000000000000000000000010100 )
b01 +
b0100 /
b00000000000000000000000000010100 1
#21000
b00010101 #
b00000000000000000000000000010101 (
b00000000000000000000000000010101 )
b0101 /
b00000000000000000000000000010101 1
#22000
b00010110 #
b00000000000000000000000000010110 (
b00000000000000000000000000010110 )
b0110 /
b00000000000000000000000000010110 1
#23000
b00010111 #
b00000000000000000000000000010111 (
b00000000000000000000000000010111 )
b0111 /
b00000000000000000000000000010111 1
#24000
b00011000 #
b00000000000000000000000000011000 (
b00000000000000000000000000011000 )
b00 +
b1000 /
b00000000000000000000000000011000 1
#25000
b00011001 #
b00000000000000000000000000011001 (
b00000000000000000000000000011001 )
b1001 /
b00000000000000000000000000011001 1
#26000
b00011010 #
b00000000000000000000000000011010 (
b00000000000000000000000000011010 )
b1010 /
b00000000000000000000000000011010 1
#27000
b00011011 #
b00000000000000000000000000011011 (
b00000000000000000000000000011011 )
b1011 /
b00000000000000000000000000011011 1
#28000
b00011100 #
b00000000000000000000000000011100 (
b00000000000000000000000000011100 )
b1100 /
b00000000000000000000000000011100 1
#29000
b00011101 #
b00000000000000000000000000011101 (
b00000000000000000000000000011101 )
b1101 /
b00000000000000000000000000011101 1
#30000
b00011110 #
b00000000000000000000000000011110 (
b00000000000000000000000000011110 )
b1110 /
b00000000000000000000000000011110 1
#31000
b00011111 #
b00000000000000000000000000011111 (
b00000000000000000000000000011111 )
b1111 /
b00000000000000000000000000011111 1
#32000
b00100000 #
b010 $
b00000000000000000000000000100000 (
b00000000000000000000000000100000 )
1*
b10 -
b010 .
b0000 /
b0010 0
b00000000000000000000000000100000 1
#33000
b00100001 #
b010 &
b00000000000000000000000000100001 (
b00000000000000000000000000100001 )
0*
b11 +
b0001 /
b00000000000000000000000000100001 1
#34000
b00100010 #
b00000000000000000000000000100010 (
b00000000000000000000000000100010 )
b10 +
b0010 /
b00000000000000000000000000100010 1
#35000
b00100011 #
b00000000000000000000000000100011 (
b00000000000000000000000000100011 )
b0011 /
b00000000000000000000000000100011 1
#36000
b00100100 #
b00000000000000000000000000100100 (
b00000000000000000000000000100100 )
b01 +
b0100 /
b00000000000000000000000000100100 1
#37000
b00100101 #
b00000000000000000000000000100101 (
b00000000000000000000000000100101 )
b0101 /
b00000000000000000000000000100101 1
#38000
b00100110 #
b00000000000000000000000000100110 (
b00000000000000000000000000100110 )
b0110 /
b00000000000000000000000000100110 1
#39000
b00100111 #
b00000000000000000000000000100111 (
b00000000000000000000000000100111 )
b0111 /
b00000000000000000000000000100111 1
#40000
b00101000 #
b00000000000000000000000000101000 (
b00000000000000000000000000101000 )
b00 +
b1000 /
b00000000000000000000000000101000 1
#41000
b00101001 #
b00000000000000000000000000101001 (
b00000000000000000000000000101001 )
b1001 /
b00000000000000000000000000101001 1
#42000
b00101010 #
b00000000000000000000000000101010 (
b00000000000000000000000000101010 )
b1010 /
b00000000000000000000000000101010 1
#43000
b00101011 #
b00000000000000000000000000101011 (
b00000000000000000000000000101011 )
b1011 /
b00000000000000000000000000101011 1
#44000
b00101100 #
b00000000000000000000000000101100 (
b00000000000000000000000000101100 )
b1100 /
b00000000000000000000000000101100 1
#45000
b00101101 #
b00000000000000000000000000101101 (
b00000000000000000000000000101101 )
b1101 /
b00000000000000000000000000101101 1
#46000
b00101110 #
b00000000000000000000000000101110 (
b00000000000000000000000000101110 )
b1110 /
b00000000000000000000000000101110 1
#47000
b00101111 #
b00000000000000000000000000101111 (
b00000000000000000000000000101111 )
b1111 /
b00000000000000000000000000101111 1
#48000
b00110000 #
b00000000000000000000000000110000 (
b00000000000000000000000000110000 )
1*
b0000 /
b0011 0
b00000000000000000000000000110000 1
#49000
b00110001 #
b00000000000000000000000000110001 (
b00000000000000000000000000110001 )
0*
b11 +
b0001 /
b00000000000000000000000000110001 1
#50000
b00110010 #
b00000000000000000000000000110010 (
b00000000000000000000000000110010 )
b10 +
b0010 /
b00000000000000000000000000110010 1
#51000
b00110011 #
b00000000000000000000000000110011 (
b00000000000000000000000000110011 )
b0011 /
b00000000000000000000000000110011 1
#52000
b00110100 #
b00000000000000000000000000110100 (
b00000000000000000000000000110100 )
b01 +
b0100 /
b00000000000000000000000000110100 1
#53000
b00110101 #
b00000000000000000000000000110101 (
b00000000000000000000000000110101 )
b0101 /
b00000000000000000000000000110101 1
#54000
b00110110 #
b00000000000000000000000000110110 (
b00000000000000000000000000110110 )
b0110 /
b00000000000000000000000000110110 1
#55000
b00110111 #
b00000000000000000000000000110111 (
b00000000000000000000000000110111 )
b0111 /
b00000000000000000000000000110111 1
#56000
b00111000 #
b00000000000000000000000000111000 (
b00000000000000000000000000111000 )
b00 +
b1000 /
b00000000000000000000000000111000 1
#57000
b00111001 #
b00000000000000000000000000111001 (
b00000000000000000000000000111001 )
b1001 /
b00000000000000000000000000111001 1
#58000
b00111010 #
b00000000000000000000000000111010 (
b00000000000000000000000000111010 )
b1010 /
b00000000000000000000000000111010 1
#59000
b00111011 #
b00000000000000000000000000111011 (
b00000000000000000000000000111011 )
b1011 /
b00000000000000000000000000111011 1
#60000
b00111100 #
b00000000000000000000000000111100 (
b00000000000000000000000000111100 )
b1100 /
b00000000000000000000000000111100 1
#61000
b00111101 #
b00000000000000000000000000111101 (
b00000000000000000000000000111101 )
b1101 /
b00000000000000000000000000111101 1
#62000
b00111110 #
b00000000000000000000000000111110 (
b00000000000000000000000000111110 )
b1110 /
b00000000000000000000000000111110 1
#63000
b00111111 #
b00000000000000000000000000111111 (
b00000000000000000000000000111111 )
b1111 /
b00000000000000000000000000111111 1
#64000
b01000000 #
b001 $
b00000000000000000000000001000000 (
b00000000000000000000000001000000 )
1*
b01 -
b001 .
b0000 /
b0100 0
b00000000000000000000000001000000 1
#65000
b01000001 #
b001 &
b00000000000000000000000001000001 (
b00000000000000000000000001000001 )
0*
b11 +
b0001 /
b00000000000000000000000001000001 1
#66000
b01000010 #
b00000000000000000000000001000010 (
b00000000000000000000000001000010 )
b10 +
b0010 /
b00000000000000000000000001000010 1
#67000
b01000011 #
b00000000000000000000000001000011 (
b00000000000000000000000001000011 )
b0011 /
b00000000000000000000000001000011 1
#68000
b01000100 #
b00000000000000000000000001000100 (
b00000000000000000000000001000100 )
b01 +
b0100 /
b00000000000000000000000001000100 1
#69000
b01000101 #
b00000000000000000000000001000101 (
b00000000000000000000000001000101 )
b0101 /
b00000000000000000000000001000101 1
#70000
b01000110 #
b00000000000000000000000001000110 (
b00000000000000000000000001000110 )
b0110 /
b00000000000000000000000001000110 1
#71000
b01000111 #
b00000000000000000000000001000111 (
b00000000000000000000000001000111 )
b0111 /
b00000000000000000000000001000111 1
#72000
b01001000 #
b00000000000000000000000001001000 (
b00000000000000000000000001001000 )
b00 +
b1000 /
b00000000000000000000000001001000 1
#73000
b01001001 #
b00000000000000000000000001001001 (
b00000000000000000000000001001001 )
b1001 /
b00000000000000000000000001001001 1
#74000
b01001010 #
b00000000000000000000000001001010 (
b00000000000000000000000001001010 )
b1010 /
b00000000000000000000000001001010 1
#75000
b01001011 #
b00000000000000000000000001001011 (
b00000000000000000000000001001011 )
b1011 /
b00000000000000000000000001001011 1
#76000
b01001100 #
b00000000000000000000000001001100 (
b00000000000000000000000001001100 )
b1100 /
b00000000000000000000000001001100 1
#77000
b01001101 #
b00000000000000000000000001001101 (
b00000000000000000000000001001101 )
b1101 /
b00000000000000000000000001001101 1
#78000
b01001110 #
b00000000000000000000000001001110 (
b00000000000000000000000001001110 )
b1110 /
b00000000000000000000000001001110 1
#79000
b01001111 #
b00000000000000000000000001001111 (
b00000000000000000000000001001111 )
b1111 /
b00000000000000000000000001001111 1
#80000
b01010000 #
b00000000000000000000000001010000 (
b00000000000000000000000001010000 )
1*
b0000 /
b0101 0
b00000000000000000000000001010000 1
#81000
b01010001 #
b00000000000000000000000001010001 (
b00000000000000000000000001010001 )
0*
b11 +
b0001 /
b00000000000000000000000001010001 1
#82000
b01010010 #
b00000000000000000000000001010010 (
b00000000000000000000000001010010 )
b10 +
b0010 /
b00000000000000000000000001010010 1
#83000
b01010011 #
b00000000000000000000000001010011 (
b00000000000000000000000001010011 )
b0011 /
b00000000000000000000000001010011 1
#84000
b01010100 #
b00000000000000000000000001010100 (
b00000000000000000000000001010100 )
b01 +
b0100 /
b00000000000000000000000001010100 1
#85000
b01010101 #
b00000000000000000000000001010101 (
b00000000000000000000000001010101 )
b0101 /
b00000000000000000000000001010101 1
#86000
b01010110 #
b00000000000000000000000001010110 (
b00000000000000000000000001010110 )
b0110 /
b00000000000000000000000001010110 1
#87000
b01010111 #
b00000000000000000000000001010111 (
b00000000000000000000000001010111 )
b0111 /
b00000000000000000000000001010111 1
#88000
b01011000 #
b00000000000000000000000001011000 (
b00000000000000000000000001011000 )
b00 +
b1000 /
b00000000000000000000000001011000 1
#89000
b01011001 #
b00000000000000000000000001011001 (
b00000000000000000000000001011001 )
b1001 /
b00000000000000000000000001011001 1
#90000
b01011010 #
b00000000000000000000000001011010 (
b00000000000000000000000001011010 )
b1010 /
b00000000000000000000000001011010 1
#91000
b01011011 #
b00000000000000000000000001011011 (
b00000000000000000000000001011011 )
b1011 /
b00000000000000000000000001011011 1
#92000
b01011100 #
b00000000000000000000000001011100 (
b00000000000000000000000001011100 )
b1100 /
b00000000000000000000000001011100 1
#93000
b01011101 #
b00000000000000000000000001011101 (
b00000000000000000000000001011101 )
b1101 /
b00000000000000000000000001011101 1
#94000
b01011110 #
b00000000000000000000000001011110 (
b00000000000000000000000001011110 )
b1110 /
b00000000000000000000000001011110 1
#95000
b01011111 #
b00000000000000000000000001011111 (
b00000000000000000000000001011111 )
b1111 /
b00000000000000000000000001011111 1
#96000
b01100000 #
b00000000000000000000000001100000 (
b00000000000000000000000001100000 )
1*
b0000 /
b0110 0
b00000000000000000000000001100000 1
#97000
b01100001 #
b00000000000000000000000001100001 (
b00000000000000000000000001100001 )
0*
b11 +
b0001 /
b00000000000000000000000001100001 1
#98000
b01100010 #
b00000000000000000000000001100010 (
b00000000000000000000000001100010 )
b10 +
b0010 /
b00000000000000000000000001100010 1
#99000
b01100011 #
b00000000000000000000000001100011 (
b00000000000000000000000001100011 )
b0011 /
b00000000000000000000000001100011 1
#100000
b01100100 #
b00000000000000000000000001100100 (
b00000000000000000000000001100100 )
b01 +
b0100 /
b00000000000000000000000001100100 1
#101000
b01100101 #
b00000000000000000000000001100101 (
b00000000000000000000000001100101 )
b0101 /
b00000000000000000000000001100101 1
#102000
b01100110 #
b00000000000000000000000001100110 (
b00000000000000000000000001100110 )
b0110 /
b00000000000000000000000001100110 1
#103000
b01100111 #
b00000000000000000000000001100111 (
b00000000000000000000000001100111 )
b0111 /
b00000000000000000000000001100111 1
#104000
b01101000 #
b00000000000000000000000001101000 (
b00000000000000000000000001101000 )
b00 +
b1000 /
b00000000000000000000000001101000 1
#105000
b01101001 #
b00000000000000000000000001101001 (
b00000000000000000000000001101001 )
b1001 /
b00000000000000000000000001101001 1
#106000
b01101010 #
b00000000000000000000000001101010 (
b00000000000000000000000001101010 )
b1010 /
b00000000000000000000000001101010 1
#107000
b01101011 #
b00000000000000000000000001101011 (
b00000000000000000000000001101011 )
b1011 /
b00000000000000000000000001101011 1
#108000
b01101100 #
b00000000000000000000000001101100 (
b00000000000000000000000001101100 )
b1100 /
b00000000000000000000000001101100 1
#109000
b01101101 #
b00000000000000000000000001101101 (
b00000000000000000000000001101101 )
b1101 /
b00000000000000000000000001101101 1
#110000
b01101110 #
b00000000000000000000000001101110 (
b00000000000000000000000001101110 )
b1110 /
b00000000000000000000000001101110 1
#111000
b01101111 #
b00000000000000000000000001101111 (
b00000000000000000000000001101111 )
b1111 /
b00000000000000000000000001101111 1
#112000
b01110000 #
b00000000000000000000000001110000 (
b00000000000000000000000001110000 )
1*
b0000 /
b0111 0
b00000000000000000000000001110000 1
#113000
b01110001 #
b00000000000000000000000001110001 (
b00000000000000000000000001110001 )
0*
b11 +
b0001 /
b00000000000000000000000001110001 1
#114000
b01110010 #
b00000000000000000000000001110010 (
b00000000000000000000000001110010 )
b10 +
b0010 /
b00000000000000000000000001110010 1
#115000
b01110011 #
b00000000000000000000000001110011 (
b00000000000000000000000001110011 )
b0011 /
b00000000000000000000000001110011 1
#116000
b01110100 #
b00000000000000000000000001110100 (
b00000000000000000000000001110100 )
b01 +
b0100 /
b00000000000000000000000001110100 1
#117000
b01110101 #
b00000000000000000000000001110101 (
b00000000000000000000000001110101 )
b0101 /
b00000000000000000000000001110101 1
#118000
b01110110 #
b00000000000000000000000001110110 (
b00000000000000000000000001110110 )
b0110 /
b00000000000000000000000001110110 1
#119000
b01110111 #
b00000000000000000000000001110111 (
b00000000000000000000000001110111 )
b0111 /
b00000000000000000000000001110111 1
#120000
b01111000 #
b00000000000000000000000001111000 (
b00000000000000000000000001111000 )
b00 +
b1000 /
b00000000000000000000000001111000 1
#121000
b01111001 #
b00000000000000000000000001111001 (
b00000000000000000000000001111001 )
b1001 /
b00000000000000000000000001111001 1
#122000
b01111010 #
b00000000000000000000000001111010 (
b00000000000000000000000001111010 )
b1010 /
b00000000000000000000000001111010 1
#123000
b01111011 #
b00000000000000000000000001111011 (
b00000000000000000000000001111011 )
b1011 /
b00000000000000000000000001111011 1
#124000
b01111100 #
b00000000000000000000000001111100 (
b00000000000000000000000001111100 )
b1100 /
b00000000000000000000000001111100 1
#125000
b01111101 #
b00000000000000000000000001111101 (
b00000000000000000000000001111101 )
b1101 /
b00000000000000000000000001111101 1
#126000
b01111110 #
b00000000000000000000000001111110 (
b00000000000000000000000001111110 )
b1110 /
b00000000000000000000000001111110 1
#127000
b01111111 #
b00000000000000000000000001111111 (
b00000000000000000000000001111111 )
b1111 /
b00000000000000000000000001111111 1
#128000
b10000000 #
b000 $
b00000000000000000000000010000000 (
b00000000000000000000000010000000 )
1*
b00 -
b000 .
b0000 /
b1000 0
b00000000000000000000000010000000 1
#129000
b10000001 #
b000 &
b00000000000000000000000010000001 (
b00000000000000000000000010000001 )
0*
b11 +
b0001 /
b00000000000000000000000010000001 1
#130000
b10000010 #
b00000000000000000000000010000010 (
b00000000000000000000000010000010 )
b10 +
b0010 /
b00000000000000000000000010000010 1
#131000
b10000011 #
b00000000000000000000000010000011 (
b00000000000000000000000010000011 )
b0011 /
b00000000000000000000000010000011 1
#132000
b10000100 #
b00000000000000000000000010000100 (
b00000000000000000000000010000100 )
b01 +
b0100 /
b00000000000000000000000010000100 1
#133000
b10000101 #
b00000000000000000000000010000101 (
b00000000000000000000000010000101 )
b0101 /
b00000000000000000000000010000101 1
#134000
b10000110 #
b00000000000000000000000010000110 (
b00000000000000000000000010000110 )
b0110 /
b00000000000000000000000010000110 1
#135000
b10000111 #
b00000000000000000000000010000111 (
b00000000000000000000000010000111 )
b0111 /
b00000000000000000000000010000111 1
#136000
b10001000 #
b00000000000000000000000010001000 (
b00000000000000000000000010001000 )
b00 +
b1000 /
b00000000000000000000000010001000 1
#137000
b10001001 #
b00000000000000000000000010001001 (
b00000000000000000000000010001001 )
b1001 /
b00000000000000000000000010001001 1
#138000
b10001010 #
b00000000000000000000000010001010 (
b00000000000000000000000010001010 )
b1010 /
b00000000000000000000000010001010 1
#139000
b10001011 #
b00000000000000000000000010001011 (
b00000000000000000000000010001011 )
b1011 /
b00000000000000000000000010001011 1
#140000
b10001100 #
b00000000000000000000000010001100 (
b00000000000000000000000010001100 )
b1100 /
b00000000000000000000000010001100 1
#141000
b10001101 #
b00000000000000000000000010001101 (
b00000000000000000000000010001101 )
b1101 /
b00000000000000000000000010001101 1
#142000
b10001110 #
b00000000000000000000000010001110 (
b00000000000000000000000010001110 )
b1110 /
b00000000000000000000000010001110 1
#143000
b10001111 #
b00000000000000000000000010001111 (
b00000000000000000000000010001111 )
b1111 /
b00000000000000000000000010001111 1
#144000
b10010000 #
b00000000000000000000000010010000 (
b00000000000000000000000010010000 )
1*
b0000 /
b1001 0
b00000000000000000000000010010000 1
#145000
b10010001 #
b00000000000000000000000010010001 (
b00000000000000000000000010010001 )
0*
b11 +
b0001 /
b00000000000000000000000010010001 1
#146000
b10010010 #
b00000000000000000000000010010010 (
b00000000000000000000000010010010 )
b10 +
b0010 /
b00000000000000000000000010010010 1
#147000
b10010011 #
b00000000000000000000000010010011 (
b00000000000000000000000010010011 )
b0011 /
b00000000000000000000000010010011 1
#148000
b10010100 #
b00000000000000000000000010010100 (
b00000000000000000000000010010100 )
b01 +
b0100 /
b00000000000000000000000010010100 1
#149000
b10010101 #
b00000000000000000000000010010101 (
b00000000000000000000000010010101 )
b0101 /
b00000000000000000000000010010101 1
#150000
b10010110 #
b00000000000000000000000010010110 (
b00000000000000000000000010010110 )
b0110 /
b00000000000000000000000010010110 1
#151000
b10010111 #
b00000000000000000000000010010111 (
b00000000000000000000000010010111 )
b0111 /
b00000000000000000000000010010111 1
#152000
b10011000 #
b00000000000000000000000010011000 (
b00000000000000000000000010011000 )
b00 +
b1000 /
b00000000000000000000000010011000 1
#153000
b10011001 #
b00000000000000000000000010011001 (
b00000000000000000000000010011001 )
b1001 /
b00000000000000000000000010011001 1
#154000
b10011010 #
b00000000000000000000000010011010 (
b00000000000000000000000010011010 )
b1010 /
b00000000000000000000000010011010 1
#155000
b10011011 #
b00000000000000000000000010011011 (
b00000000000000000000000010011011 )
b1011 /
b00000000000000000000000010011011 1
#156000
b10011100 #
b00000000000000000000000010011100 (
b00000000000000000000000010011100 )
b1100 /
b00000000000000000000000010011100 1
#157000
b10011101 #
b00000000000000000000000010011101 (
b00000000000000000000000010011101 )
b1101 /
b00000000000000000000000010011101 1
#158000
b10011110 #
b00000000000000000000000010011110 (
b00000000000000000000000010011110 )
b1110 /
b00000000000000000000000010011110 1
#159000
b10011111 #
b00000000000000000000000010011111 (
b00000000000000000000000010011111 )
b1111 /
b00000000000000000000000010011111 1
#160000
b10100000 #
b00000000000000000000000010100000 (
b00000000000000000000000010100000 )
1*
b0000 /
b1010 0
b00000000000000000000000010100000 1
#161000
b10100001 #
b00000000000000000000000010100001 (
b00000000000000000000000010100001 )
0*
b11 +
b0001 /
b00000000000000000000000010100001 1
#162000
b10100010 #
b00000000000000000000000010100010 (
b00000000000000000000000010100010 )
b10 +
b0010 /
b00000000000000000000000010100010 1
#163000
b10100011 #
b00000000000000000000000010100011 (
b00000000000000000000000010100011 )
b0011 /
b00000000000000000000000010100011 1
#164000
b10100100 #
b00000000000000000000000010100100 (
b00000000000000000000000010100100 )
b01 +
b0100 /
b00000000000000000000000010100100 1
#165000
b10100101 #
b00000000000000000000000010100101 (
b00000000000000000000000010100101 )
b0101 /
b00000000000000000000000010100101 1
#166000
b10100110 #
b00000000000000000000000010100110 (
b00000000000000000000000010100110 )
b0110 /
b00000000000000000000000010100110 1
#167000
b10100111 #
b00000000000000000000000010100111 (
b00000000000000000000000010100111 )
b0111 /
b00000000000000000000000010100111 1
#168000
b10101000 #
b00000000000000000000000010101000 (
b00000000000000000000000010101000 )
b00 +
b1000 /
b00000000000000000000000010101000 1
#169000
b10101001 #
b00000000000000000000000010101001 (
b00000000000000000000000010101001 )
b1001 /
b00000000000000000000000010101001 1
#170000
b10101010 #
b00000000000000000000000010101010 (
b00000000000000000000000010101010 )
b1010 /
b00000000000000000000000010101010 1
#171000
b10101011 #
b00000000000000000000000010101011 (
b00000000000000000000000010101011 )
b1011 /
b00000000000000000000000010101011 1
#172000
b10101100 #
b00000000000000000000000010101100 (
b00000000000000000000000010101100 )
b1100 /
b00000000000000000000000010101100 1
#173000
b10101101 #
b00000000000000000000000010101101 (
b00000000000000000000000010101101 )
b1101 /
b00000000000000000000000010101101 1
#174000
b10101110 #
b00000000000000000000000010101110 (
b00000000000000000000000010101110 )
b1110 /
b00000000000000000000000010101110 1
#175000
b10101111 #
b00000000000000000000000010101111 (
b00000000000000000000000010101111 )
b1111 /
b00000000000000000000000010101111 1
#176000
b10110000 #
b00000000000000000000000010110000 (
b00000000000000000000000010110000 )
1*
b0000 /
b1011 0
b00000000000000000000000010110000 1
#177000
b10110001 #
b00000000000000000000000010110001 (
b00000000000000000000000010110001 )
0*
b11 +
b0001 /
b00000000000000000000000010110001 1
#178000
b10110010 #
b00000000000000000000000010110010 (
b00000000000000000000000010110010 )
b10 +
b0010 /
b00000000000000000000000010110010 1
#179000
b10110011 #
b00000000000000000000000010110011 (
b00000000000000000000000010110011 )
b0011 /
b00000000000000000000000010110011 1
#180000
b10110100 #
b00000000000000000000000010110100 (
b00000000000000000000000010110100 )
b01 +
b0100 /
b00000000000000000000000010110100 1
#181000
b10110101 #
b00000000000000000000000010110101 (
b00000000000000000000000010110101 )
b0101 /
b00000000000000000000000010110101 1
#182000
b10110110 #
b00000000000000000000000010110110 (
b00000000000000000000000010110110 )
b0110 /
b00000000000000000000000010110110 1
#183000
b10110111 #
b00000000000000000000000010110111 (
b00000000000000000000000010110111 )
b0111 /
b00000000000000000000000010110111 1
#184000
b10111000 #
b00000000000000000000000010111000 (
b00000000000000000000000010111000 )
b00 +
b1000 /
b00000000000000000000000010111000 1
#185000
b10111001 #
b00000000000000000000000010111001 (
b00000000000000000000000010111001 )
b1001 /
b00000000000000000000000010111001 1
#186000
b10111010 #
b00000000000000000000000010111010 (
b00000000000000000000000010111010 )
b1010 /
b00000000000000000000000010111010 1
#187000
b10111011 #
b00000000000000000000000010111011 (
b00000000000000000000000010111011 )
b1011 /
b00000000000000000000000010111011 1
#188000
b10111100 #
b00000000000000000000000010111100 (
b00000000000000000000000010111100 )
b1100 /
b00000000000000000000000010111100 1
#189000
b10111101 #
b00000000000000000000000010111101 (
b00000000000000000000000010111101 )
b1101 /
b00000000000000000000000010111101 1
#190000
b10111110 #
b00000000000000000000000010111110 (
b00000000000000000000000010111110 )
b1110 /
b00000000000000000000000010111110 1
#191000
b10111111 #
b00000000000000000000000010111111 (
b00000000000000000000000010111111 )
b1111 /
b00000000000000000000000010111111 1
#192000
b11000000 #
b00000000000000000000000011000000 (
b00000000000000000000000011000000 )
1*
b0000 /
b1100 0
b00000000000000000000000011000000 1
#193000
b11000001 #
b00000000000000000000000011000001 (
b00000000000000000000000011000001 )
0*
b11 +
b0001 /
b00000000000000000000000011000001 1
#194000
b11000010 #
b00000000000000000000000011000010 (
b00000000000000000000000011000010 )
b10 +
b0010 /
b00000000000000000000000011000010 1
#195000
b11000011 #
b00000000000000000000000011000011 (
b00000000000000000000000011000011 )
b0011 /
b00000000000000000000000011000011 1
#196000
b11000100 #
b00000000000000000000000011000100 (
b00000000000000000000000011000100 )
b01 +
b0100 /
b00000000000000000000000011000100 1
#197000
b11000101 #
b00000000000000000000000011000101 (
b00000000000000000000000011000101 )
b0101 /
b00000000000000000000000011000101 1
#198000
b11000110 #
b00000000000000000000000011000110 (
b00000000000000000000000011000110 )
b0110 /
b00000000000000000000000011000110 1
#199000
b11000111 #
b00000000000000000000000011000111 (
b00000000000000000000000011000111 )
b0111 /
b00000000000000000000000011000111 1
#200000
b11001000 #
b00000000000000000000000011001000 (
b00000000000000000000000011001000 )
b00 +
b1000 /
b00000000000000000000000011001000 1
#201000
b11001001 #
b00000000000000000000000011001001 (
b00000000000000000000000011001001 )
b1001 /
b00000000000000000000000011001001 1
#202000
b11001010 #
b00000000000000000000000011001010 (
b00000000000000000000000011001010 )
b1010 /
b00000000000000000000000011001010 1
#203000
b11001011 #
b00000000000000000000000011001011 (
b00000000000000000000000011001011 )
b1011 /
b00000000000000000000000011001011 1
#204000
b11001100 #
b00000000000000000000000011001100 (
b00000000000000000000000011001100 )
b1100 /
b00000000000000000000000011001100 1
#205000
b11001101 #
b00000000000000000000000011001101 (
b00000000000000000000000011001101 )
b1101 /
b00000000000000000000000011001101 1
#206000
b11001110 #
b00000000000000000000000011001110 (
b00000000000000000000000011001110 )
b1110 /
b00000000000000000000000011001110 1
#207000
b11001111 #
b00000000000000000000000011001111 (
b00000000000000000000000011001111 )
b1111 /
b00000000000000000000000011001111 1
#208000
b11010000 #
b00000000000000000000000011010000 (
b00000000000000000000000011010000 )
1*
b0000 /
b1101 0
b00000000000000000000000011010000 1
#209000
b11010001 #
b00000000000000000000000011010001 (
b00000000000000000000000011010001 )
0*
b11 +
b0001 /
b00000000000000000000000011010001 1
#210000
b11010010 #
b00000000000000000000000011010010 (
b00000000000000000000000011010010 )
b10 +
b0010 /
b00000000000000000000000011010010 1
#211000
b11010011 #
b00000000000000000000000011010011 (
b00000000000000000000000011010011 )
b0011 /
b00000000000000000000000011010011 1
#212000
b11010100 #
b00000000000000000000000011010100 (
b00000000000000000000000011010100 )
b01 +
b0100 /
b00000000000000000000000011010100 1
#213000
b11010101 #
b00000000000000000000000011010101 (
b00000000000000000000000011010101 )
b0101 /
b00000000000000000000000011010101 1
#214000
b11010110 #
b00000000000000000000000011010110 (
b00000000000000000000000011010110 )
b0110 /
b00000000000000000000000011010110 1
#215000
b11010111 #
b00000000000000000000000011010111 (
b00000000000000000000000011010111 )
b0111 /
b00000000000000000000000011010111 1
#216000
b11011000 #
b00000000000000000000000011011000 (
b00000000000000000000000011011000 )
b00 +
b1000 /
b00000000000000000000000011011000 1
#217000
b11011001 #
b00000000000000000000000011011001 (
b00000000000000000000000011011001 )
b1001 /
b00000000000000000000000011011001 1
