Verision1/03_verif/SubModule/CLA/CLA_8BIT/tb_CLA_8bit.vcd
$date
	Mon Nov  3 18:51:48 2025
$end
$version
	Questa Intel Starter FPGA Edition Version 2024.3
$end
$timescale
	1ps
$end

$scope module tb_CLA_8bit $end
$var reg 1 ! i_clk $end
$var reg 1 " i_rst_n $end
$var reg 8 # i_data_a [7:0] $end
$var reg 8 $ i_data_b [7:0] $end
$var reg 1 % i_carry $end
$var reg 8 & o_sum [7:0] $end
$var reg 1 ' o_carry $end
$var reg 9 ( w_expect [8:0] $end
$var integer 32 ) test_count $end
$var integer 32 * test_pass $end

$scope function f_CLA_expected $end
$upscope $end

$scope task Display_Result $end
$upscope $end

$scope module DUT $end
$var reg 8 + o_sum [7:0] $end
$var reg 1 , o_carry $end
$var reg 2 - w_P [1:0] $end
$var reg 2 . w_G [1:0] $end
$var reg 1 / w_C $end

$scope module CLA_4BIT_UNIT_0 $end
$var reg 4 0 sum [3:0] $end
$var reg 1 1 o_p $end
$var reg 1 2 o_g $end
$var reg 4 3 w_g [3:0] $end
$var reg 4 4 w_p [3:0] $end
$var reg 4 5 w_c [3:0] $end
$upscope $end

$scope module CLA_4BIT_UNIT_1 $end
$var reg 4 6 sum [3:0] $end
$var reg 1 7 o_p $end
$var reg 1 8 o_g $end
$var reg 4 9 w_g [3:0] $end
$var reg 4 : w_p [3:0] $end
$var reg 4 ; w_c [3:0] $end
$upscope $end
$upscope $end
$upscope $end
$enddefinitions $end
#0
$dumpvars
0!
0"
b0 #
b0 $
0%
b0 &
0'
bx (
b0 +
0,
b0 -
b0 .
0/
b0 0
01
02
b0 3
b0 4
b0 5
b0 6
07
08
b0 9
b0 :
b0 ;
b0 )
b0 *
$end
#5000
1!
#10000
0!
#15000
1!
#20000
1"
0!
#25000
1!
#30000
0!
#35000
1!
1%
b1 5
b1 0
b1 +
b1 &
#36000
b1 (
b1 )
b1 *
#40000
0!
#45000
1!
b11111111 #
b1111 4
b1111 :
b1111 6
17
b101 5
b1101 5
b10 0
12
11
b1111 5
b0 0
b1 -
b1 .
b0 +
b11 -
b11110000 +
b11110000 &
1/
1,
1'
b1 ;
b1110 6
b11 ;
b111 ;
b1111 ;
18
b11 .
b0 6
b0 +
b0 &
#46000
b100000 (
b10 )
#50000
0!
#55000
1!
b11111111 $
b1111 3
b0 4
b1111 9
b0 :
b1111 6
07
b1111 0
01
b10 -
b1111 +
b0 -
b11111111 +
b11111111 &
#56000
b111111 (
b11 )
#60000
0!
#65000
1!
b100 #
b110 $
0%
b1110 5
b100 3
b10 4
b0 9
b1011 ;
b11 ;
08
b1 ;
b1100 0
b1100 5
b1000 5
02
b10 .
b1010 0
b11111010 +
b0 .
b1 6
b11010 +
b11010 &
0/
0,
0'
b0 ;
b0 6
b1010 +
b1010 &
#66000
b1010 (
b100 )
b10 *
#70000
0!
#75000
1!
b11110 #
b10001 $
1%
b1001 5
b0 3
b1111 4
b1 9
b10 ;
11
b110 0
b1011 5
b1111 5
12
b1 .
b0 0
b0 +
b1 -
b10 6
b100000 +
b100000 &
1/
b11 ;
b11 6
b110000 +
b110000 &
#76000
b110000 (
b101 )
b11 *
#80000
0!
#85000
1!
b10001 #
b11001 $
0%
b1110 5
b1 3
b1000 4
01
b110 0
b1010 5
b10 5
02
b0 .
b1010 0
b111010 +
b0 -
b111010 &
0/
b10 ;
b10 6
b101010 +
b101010 &
#86000
b101010 (
b110 )
b100 *
#90000
0!
#95000
1!
b1011 #
b0 $
1%
b11 5
b0 3
b1011 4
b0 9
b0 ;
b1000 0
b111 5
b1100 0
b101100 +
b0 6
b1100 +
b1100 &
#96000
b1100 (
b111 )
b101 *
#100000
0!
#105000
1!
b11010 #
b10111 $
0%
b110 5
b10 3
b1101 4
b1 9
b10 ;
b1011 0
b100 5
b1100 5
12
b1 .
b1 0
b1 +
b10 6
b100001 +
b100001 &
1/
b11 ;
b11 6
b110001 +
b110001 &
#106000
b110001 (
b1000 )
b110 *
#110000
0!
#115000
1!
b11000 #
b11001 $
1%
b1101 5
b1000 3
b1 4
b1100 0
b1111 5
b1011 5
b11 5
b10 0
b110010 +
b110010 &
#116000
b110010 (
b1001 )
b111 *
#120000
0!
#125000
1!
b10101 #
b1011 $
b1 3
b1110 4
b0 9
b1 :
b10 6
b1101 0
b111 5
b1111 5
b1 0
b110001 +
b100001 +
b100001 &
#126000
b100001 (
b1010 )
b1000 *
#130000
0!
#135000
1!
b1001 #
b1010 $
b1000 3
b11 4
b0 :
b11 6
b1 ;
b1100 0
b111 5
b100 0
b100100 +
b1 6
b10100 +
b10100 &
#136000
b10100 (
b1011 )
b1001 *
#140000
0!
#145000
1!
b1111 #
b10111 $
0%
b110 5
b111 3
b1000 4
b1 :
b0 6
b11 ;
b1110 0
b1110 5
b110 0
b10110 +
b10 6
b100110 +
b100110 &
#146000
b100110 (
b1100 )
b1010 *
#150000
0!
#155000
1!
b10010 #
b11100 $
1%
b1111 5
b0 3
b1110 4
b1 9
b0 :
b11 6
b1 0
b1101 5
b1001 5
b1 5
02
b0 .
b1111 0
b101111 +
b111111 +
b111111 &
0/
b10 ;
b10 6
b101111 +
b101111 &
#156000
b101111 (
b1101 )
b1011 *
#160000
0!
#165000
1!
b1110 #
b10110 $
0%
b0 5
b110 3
b1000 4
b0 9
b1 :
b11 6
b0 ;
b1000 0
b100 5
b1100 5
12
b1 .
b100 0
b100100 +
b1 6
b10100 +
b10100 &
1/
b1 ;
b0 6
b11 ;
b10 6
b100100 +
b100100 &
#166000
b100100 (
b1110 )
b1100 *
#170000
0!
#175000
1!
b11100 #
b10111 $
b100 3
b1011 4
b1 9
b0 :
b11 6
b111 0
b1000 5
b11 0
b100011 +
b110011 +
b110011 &
#176000
b110011 (
b1111 )
b1101 *
#180000
0!
#185000
1!
b11000 #
b1000 $
1%
b1001 5
b1000 3
b0 4
b0 9
b1 :
b10 6
b1001 0
b1 5
b1 0
b110001 +
b100001 +
b100001 &
#186000
b100001 (
b10000 )
b1110 *
#190000
0!
#195000
1!
b1 #
b11001 $
b1 3
b1000 4
b1001 0
02
b11 5
b1011 0
b0 .
b101011 +
b101011 &
0/
b10 ;
b11 6
b0 ;
b1 6
b11011 +
b11011 &
#196000
b11011 (
b10001 )
b1111 *
#200000
0!
#205000
1!
b1010 #
b11011 $
b1010 3
b1 4
b10 0
b111 5
12
b1 .
b110 0
b10110 +
b10110 &
1/
b1 ;
b0 6
b11 ;
b10 6
b100110 +
b100110 &
#206000
b100110 (
b10010 )
b10000 *
#210000
0!
#215000
1!
b111 #
b11101 $
0%
b110 5
b101 3
b1010 4
b1100 0
b1110 5
b100 0
b100100 +
b100100 &
#216000
b100100 (
b10011 )
b10001 *
#220000
0!
#225000
1!
b110 #
b11100 $
1%
b1111 5
b100 3
b101 0
b1101 5
b1001 5
b11 0
b100011 +
b100011 &
#226000
b100011 (
b10100 )
b10010 *
#230000
0!
#235000
1!
b11101 #
b110 $
b1011 4
b1101 5
b110 0
b1111 5
b100 0
b100100 +
b100100 &
#236000
b100100 (
b10101 )
b10011 *
#240000
0!
#245000
1!
b1000 #
b0 $
0%
b1110 5
b0 3
b1000 4
b0 :
b11 6
b1 ;
b110 0
b1100 5
b1000 5
b0 5
02
b0 .
b1000 0
b101000 +
b1 6
b11000 +
b11000 &
0/
b0 ;
b0 6
b1000 +
b1000 &
#246000
b1000 (
b10110 )
b10100 *
#250000
0!
#255000
1!
b1001 #
b1001 $
b1001 3
b0 4
b0 0
12
b10 5
b10 0
b1 .
b10 +
b10 &
1/
b1 ;
b1 6
b10010 +
b10010 &
#256000
b10010 (
b10111 )
b10101 *
#260000
0!
#265000
1!
b1100 #
b11111 $
1%
b11 5
b1100 3
b11 4
b1 :
b0 6
b11 ;
b0 0
b111 5
b1111 5
b1100 0
b11100 +
b10 6
b101100 +
b101100 &
#266000
b101100 (
b11000 )
b10110 *
#270000
0!
#275000
1!
b11110 #
b10101 $
b100 3
b1011 4
b1 9
b0 :
b11 6
b100 0
b100100 +
b110100 +
b110100 &
#276000
b110100 (
b11001 )
b10111 *
#280000
0!
#285000
1!
b11111 #
b100 $
0%
b1110 5
b0 9
b1 :
b10 6
b101 0
b1100 5
b1000 5
b11 0
b110011 +
b100011 +
b100011 &
#286000
b100011 (
b11010 )
b11000 *
#290000
0!
#295000
1!
b1000 #
b1111 $
b1000 3
b111 4
b0 :
b11 6
b1 ;
b1111 0
b0 5
b111 0
b100111 +
b1 6
b10111 +
b10111 &
#296000
b10111 (
b11011 )
b11001 *
#300000
0!
#305000
1!
b10001 #
b10100 $
b0 3
b101 4
b1 9
b11 ;
b101 0
02
b0 .
b10101 +
b11 6
b110101 +
b110101 &
0/
b10 ;
b10 6
b100101 +
b100101 &
#306000
b100101 (
b11100 )
b11010 *
#310000
0!
#315000
1!
b10111 #
b10111 $
1%
b1 5
b111 3
b0 4
b1 0
b11 5
b111 5
b1111 5
b1111 0
b101111 +
b101111 &
#316000
b101111 (
b11101 )
b11011 *
#320000
0!
#325000
1!
b10010 #
b11101 $
0%
b1110 5
b0 3
b1111 4
11
b1 0
b1100 5
b1000 5
b0 5
b1111 0
b1 -
#326000
b11110 )
b11100 *
#330000
0!
#335000
1!
b1 #
b101 $
1%
b1 5
1/
b1 3
b100 4
b0 9
b0 ;
01
b1 ;
b101 0
b11 5
b111 0
b100111 +
b0 -
b1 6
b10111 +
0/
b10111 &
b0 ;
b0 6
b111 +
b111 &
#336000
b111 (
b11111 )
b11101 *
#340000
0!
#345000
1!
b1001 #
b1010 $
0%
b10 5
b1000 3
b11 4
b1 0
b0 5
12
b1 .
b11 0
b11 +
b11 &
1/
b1 ;
b1 6
b10011 +
b10011 &
#346000
b10011 (
b100000 )
b11110 *
#350000
0!
#355000
1!
b11011 #
b11110 $
1%
b1 5
b1010 3
b101 4
b1 9
b11 ;
b100 0
b11 5
b111 5
b1111 5
b1010 0
b11010 +
b11 6
b111010 +
b111010 &
#356000
b111010 (
b100001 )
b11111 *
#360000
0!
#365000
1!
b1 #
b10110 $
0%
b1110 5
b0 3
b111 4
b0 9
b1 :
b10 6
b1001 0
b1100 5
b1000 5
b0 5
02
b0 .
b111 0
b110111 +
b100111 +
b100111 &
0/
b10 ;
b11 6
b0 ;
b1 6
b10111 +
b10111 &
#366000
b10111 (
b100010 )
b100000 *
#370000
0!
#375000
1!
b1001 #
b11111 $
b1001 3
b110 4
b110 0
b100 5
b1100 5
12
b1110 5
b1 .
b1000 0
b11000 +
b11000 &
1/
b1 ;
b0 6
b11 ;
b10 6
b101000 +
b101000 &
#376000
b101000 (
b100011 )
b100001 *
#380000
0!
#385000
1!
b11100 #
b0 $
1%
b1111 5
b0 3
b1100 4
b11 0
b1101 5
b1001 5
b1 5
02
b0 .
b1101 0
b101101 +
b101101 &
0/
b10 ;
b11 6
b0 ;
b1 6
b11101 +
b11101 &
#386000
b11101 (
b100100 )
b100010 *
#390000
0!
#395000
1!
b10011 #
b110 $
0%
b0 5
b10 3
b101 4
b101 0
b100 5
b1100 5
b1001 0
b11001 +
b11001 &
#396000
b11001 (
b100101 )
b100011 *
#400000
0!
#405000
1!
b10000 #
b11000 $
b0 3
b1000 4
b1 9
b0 :
b0 6
b10 ;
b100 0
b1000 5
b0 5
b1000 0
b11000 +
b10 6
b101000 +
b101000 &
#406000
b101000 (
b100110 )
b100100 *
#410000
0!
#415000
1!
b10101 #
b1001 $
b1 3
b1100 4
b0 9
b1 :
b11 6
b0 ;
b1100 0
b10 5
b1110 0
b101110 +
b1 6
b11110 +
b11110 &
#416000
b11110 (
b100111 )
b100101 *
#420000
0!
#425000
1!
b11001 #
b11100 $
1%
b11 5
b1000 3
b101 4
b1 9
b0 :
b0 6
b10 ;
b110 0
12
b1 .
b10110 +
b10 6
b100110 +
b100110 &
1/
b11 ;
b11 6
b110110 +
b110110 &
#426000
b110110 (
b101000 )
b100110 *
#430000
0!
#435000
1!
b111 #
b11101 $
0%
b10 5
b101 3
b1010 4
b0 9
b1 :
b10 6
b1000 0
b110 5
b1110 5
b100 0
b110100 +
b100100 +
b100100 &
#436000
b100100 (
b101001 )
b100111 *
#440000
0!
#445000
1!
b10010 #
b11 $
b10 3
b1 4
b1111 0
b110 5
02
b100 5
b0 .
b101 0
b100101 +
b100101 &
0/
b10 ;
b11 6
b0 ;
b1 6
b10101 +
b10101 &
#446000
b10101 (
b101010 )
b101000 *
#450000
0!
#455000
1!
b101 #
b10010 $
1%
b101 5
b0 3
b111 4
b10 0
b111 5
b1111 5
b1000 0
b11000 +
b11000 &
#456000
b11000 (
b101011 )
b101001 *
#460000
0!
#465000
1!
b1000 #
b11110 $
b1000 3
b110 4
b1001 0
b1101 5
b1001 5
b1 5
12
b1 .
b111 0
b10111 +
b10111 &
1/
b1 ;
b0 6
b11 ;
b10 6
b100111 +
b100111 &
#466000
b100111 (
b101100 )
b101010 *
#470000
0!
#475000
1!
b0 #
b10110 $
b0 3
02
b0 .
0/
b10 ;
b11 6
b0 ;
b1 6
b10111 +
b10111 &
#476000
b10111 (
b101101 )
b101011 *
#480000
0!
#485000
1!
b11100 #
b10000 $
0%
b0 5
b1100 4
b1 9
b0 :
b0 6
b10 ;
b1100 0
b11100 +
b10 6
b101100 +
b101100 &
#486000
b101100 (
b101110 )
b101100 *
#490000
0!
#495000
1!
b1001 #
b101 $
1%
b1 5
b1 3
b0 9
b0 ;
b1101 0
b11 5
b1111 0
b101111 +
b0 6
b1111 +
b1111 &
#496000
b1111 (
b101111 )
b101101 *
#500000
0!
#505000
1!
b101 #
b1111 $
b101 3
b1010 4
b1001 0
b111 5
b1111 5
12
b1 .
b101 0
b101 +
b101 &
1/
b1 ;
b1 6
b10101 +
b10101 &
#506000
b10101 (
b110000 )
b101110 *
#510000
0!
#515000
1!
b10011 #
b1110 $
0%
b1110 5
b10 3
b1101 4
b1 :
b0 6
b11 ;
b11 0
b1100 5
b1 0
b10001 +
b10 6
b100001 +
b100001 &
#516000
b100001 (
b110001 )
b101111 *
#520000
0!
#525000
1!
b101 #
b0 $
1%
b1101 5
b0 3
b101 4
b0 :
b11 6
b1 ;
b1000 0
b1111 5
b1011 5
b11 5
02
b0 .
b110 0
b100110 +
b1 6
b10110 +
b10110 &
0/
b0 ;
b0 6
b110 +
b110 &
#526000
b110 (
b110010 )
b110000 *
#530000
0!
#535000
1!
b10111 #
b10011 $
0%
b10 5
b11 3
b100 4
b1 9
b10 ;
b110 5
b1110 5
b1010 0
b10 6
b100110 +
b101010 +
b101010 &
#536000
b101010 (
b110011 )
b110001 *
#540000
0!
#545000
1!
b1111 #
b11100 $
1%
b1111 5
b1100 3
b11 4
b0 9
b1 :
b11 6
b0 ;
b1100 0
12
b1 .
b101100 +
b1 6
b11100 +
b11100 &
1/
b1 ;
b0 6
b11 ;
b10 6
b101100 +
b101100 &
#546000
b101100 (
b110100 )
b110010 *
#550000
0!
#555000
1!
b11011 #
b10101 $
0%
b1110 5
b1 3
b1110 4
b1 9
b0 :
b11 6
b0 0
b100000 +
b110000 +
b110000 &
#556000
b110000 (
b110101 )
b110011 *
#560000
0!
#565000
1!
b11100 #
b11000 $
1%
b1111 5
b1000 3
b100 4
b1011 0
b1101 5
b1001 5
b1 5
b101 0
b110101 +
b110101 &
#566000
b110101 (
b110110 )
b110100 *
#570000
0!
#575000
1!
b11010 #
b11100 $
0%
b0 5
b110 4
b110 0
b110110 +
b110110 &
#576000
b110110 (
b110111 )
b110101 *
#580000
0!
#585000
1!
b11101 #
b1000 $
1%
b1 5
b101 4
b0 9
b1 :
b10 6
b100 0
b11 5
b110 0
b100110 +
b100110 &
#586000
b100110 (
b111000 )
b110110 *
#590000
0!
#595000
1!
b1001 #
b110 $
b0 3
b1111 4
b0 :
b11 6
b1 ;
b1100 0
11
b111 5
b1111 5
b0 0
b1 -
b100000 +
b1 6
b10000 +
b10000 &
#596000
b10000 (
b111001 )
b110111 *
#600000
0!
#605000
1!
b10111 #
b11101 $
0%
b1110 5
b101 3
b1010 4
b1 9
b11 ;
01
b100 0
b10100 +
b0 -
b11 6
b110100 +
b110100 &
#606000
b110100 (
b111010 )
b111000 *
#610000
0!
#615000
1!
b10 #
b0 3
b1111 4
b0 9
b1 :
b10 6
b1 0
11
b1010 5
b10 5
02
b0 5
b0 .
b1111 0
b1 -
b111111 +
b101111 +
b101111 &
0/
b10 ;
b11 6
b0 ;
b1 6
b11111 +
b11111 &
#616000
b11111 (
b111011 )
b111001 *
#620000
0!
#625000
1!
b1 #
b1011 $
b1 3
b1010 4
b0 :
b0 6
b1010 0
01
b100 5
b110 5
b1100 0
b0 -
b11100 +
b1100 +
b1100 &
#626000
b1100 (
b111100 )
b111010 *
#630000
0!
#635000
1!
b1000 #
b11111 $
1%
b111 5
b1000 3
b111 4
b1 :
b1 6
b0 0
b1111 5
12
b1 .
b1000 0
b1000 +
b11000 +
b11000 &
1/
b1 ;
b0 6
b11 ;
b10 6
b101000 +
b101000 &
#636000
b101000 (
b111101 )
b111011 *
#640000
0!
#645000
1!
b110 #
b1111 $
0%
b1110 5
b110 3
b1001 4
b0 :
b11 6
b1 ;
b111 0
b1100 5
b101 0
b100101 +
b1 6
b10101 +
b10101 &
#646000
b10101 (
b111110 )
b111100 *
#650000
0!
#655000
1!
b11000 #
b11110 $
b1000 3
b110 4
b1 9
b11 ;
b1010 0
b1000 5
b0 5
b110 0
b10110 +
b11 6
b110110 +
b110110 &
#656000
b110110 (
b111111 )
b111101 *
#660000
0!
#665000
1!
b1000 #
1%
b1 5
b0 9
b1 :
b10 6
b111 0
b110111 +
b100111 +
b100111 &
#666000
b100111 (
b1000000 )
b111110 *
#670000
0!
#675000
1!
b10110 #
b10000 $
b0 3
b1 9
b0 :
b11 6
02
b0 .
b110111 +
b110111 &
0/
b10 ;
b10 6
b100111 +
b100111 &
#676000
b1000001 )
b111111 *
#680000
0!
#685000
1!
b10 #
b101 $
b111 4
b0 9
b0 ;
b101 5
b1101 5
b1010 0
b1111 5
b1000 0
b101000 +
b0 6
b1000 +
b1000 &
#686000
b1000 (
b1000010 )
b1000000 *
#690000
0!
#695000
1!
b10000 #
b111 $
0%
b1110 5
b1 :
b1 6
b1001 0
b1100 5
b1000 5
b0 5
b111 0
b111 +
b10111 +
b10111 &
#696000
b10111 (
b1000011 )
b1000001 *
#700000
0!
#705000
1!
b11100 #
b10 $
1%
b1 5
b1110 4
b1111 0
b11111 +
b11111 &
#706000
b11111 (
b1000100 )
b1000010 *
#710000
0!
#715000
1!
b1100 #
b10010 $
0%
b0 5
b1110 0
b11110 +
b11110 &
#716000
b11110 (
b1000101 )
b1000011 *
#720000
0!
#725000
1!
b11011 #
b10110 $
b10 3
b1101 4
b1 9
b0 :
b0 6
b10 ;
b1101 0
b100 5
b1100 5
12
b1 .
b1 0
b10001 +
b10 6
b100001 +
b100001 &
1/
b11 ;
b11 6
b110001 +
b110001 &
#726000
b110001 (
b1000110 )
b1000100 *
#730000
0!
#735000
1!
b10000 #
b0 $
b0 3
b0 4
b0 9
b1 :
b10 6
b1100 0
b1000 5
b0 5
02
b0 .
b0 0
b110000 +
b100000 +
b100000 &
0/
b10 ;
b11 6
b0 ;
b1 6
b10000 +
b10000 &
#736000
b10000 (
b1000111 )
b1000101 *
#740000
0!
#745000
1!
b10011 #
1%
b1 5
b11 4
b10 0
b11 5
b111 5
b100 0
b10100 +
b10100 &
#746000
b10100 (
b1001000 )
b1000110 *
#750000
0!
#755000
1!
b1 #
b110 $
0%
b110 5
b111 4
b0 :
b0 6
b1 0
b100 5
b0 5
b111 0
b10111 +
b111 +
b111 &
#756000
b111 (
b1001001 )
b1000111 *
#760000
0!
#765000
1!
b11001 #
b111 $
1%
b1 5
b1 3
b1110 4
b1 :
b1 6
b1111 0
b11 5
b111 5
b1111 5
12
b1 .
b1 0
b1 +
b10001 +
b10001 &
1/
b1 ;
b0 6
b11 ;
b10 6
b100001 +
b100001 &
#766000
b100001 (
b1001010 )
b1001000 *
#770000
0!
#775000
1!
b10101 #
b1100 $
b100 3
b1001 4
b110 0
b1011 5
b10 0
b100010 +
b100010 &
#776000
b100010 (
b1001011 )
b1001001 *
#780000
0!
#785000
1!
b11011 #
b11000 $
0%
b1010 5
b1000 3
b11 4
b1 9
b0 :
b11 6
b1001 0
b1000 5
b0 5
b11 0
b100011 +
b110011 +
b110011 &
#786000
b110011 (
b1001100 )
b1001010 *
#790000
0!
#795000
1!
b10001 #
b1101 $
b1 3
b1100 4
b0 9
b1 :
b10 6
b1100 0
02
b10 5
b1110 0
b0 .
b111110 +
b101110 +
b101110 &
0/
b10 ;
b11 6
b0 ;
b1 6
b11110 +
b11110 &
#796000
b11110 (
b1001101 )
b1001011 *
#800000
0!
#805000
1!
b10010 #
b1010 $
b10 3
b1000 4
b1010 0
b110 5
b100 5
b1100 0
b11100 +
b11100 &
#806000
b11100 (
b1001110 )
b1001100 *
#810000
0!
#815000
1!
b1 #
b0 3
b1011 4
b0 :
b0 6
b1111 0
b0 5
b1011 0
b11011 +
b1011 +
b1011 &
#816000
b1011 (
b1001111 )
b1001101 *
#820000
0!
#825000
1!
b1111 #
b11011 $
1%
b1 5
b1011 3
b100 4
b1 :
b1 6
b101 0
b11 5
b111 5
b1111 5
12
b1 .
b1011 0
b11011 +
b11011 &
1/
b1 ;
b0 6
b11 ;
b10 6
b101011 +
b101011 &
#826000
b101011 (
b1010000 )
b1001110 *
#830000
0!
#835000
1!
b10100 #
b1101 $
b100 3
b1001 4
b110 0
b1011 5
b10 0
b100010 +
b100010 &
#836000
b100010 (
b1010001 )
b1001111 *
#840000
0!
#845000
1!
b10110 #
b10101 $
b11 4
b1 9
b0 :
b11 6
b1111 5
b1100 0
02
b0 .
b101100 +
b111100 +
b111100 &
0/
b10 ;
b10 6
b101100 +
b101100 &
#846000
b101100 (
b1010010 )
b1010000 *
#850000
0!
#855000
1!
b1001 #
b100 $
b0 3
b1101 4
b0 9
b0 ;
b10 0
b1011 5
b11 5
b1110 0
b101110 +
b0 6
b1110 +
b1110 &
#856000
b1110 (
b1010011 )
b1010001 *
#860000
0!
#865000
1!
b10 #
b1 $
0%
b10 5
b11 4
b1 0
b0 5
b11 0
b11 +
b11 &
#866000
b11 (
b1010100 )
b1010010 *
#870000
0!
#875000
1!
b11010 #
b1011 $
1%
b1 5
b1010 3
b1 4
b1 :
b1 6
b0 0
b11 5
b111 5
12
b1 .
b110 0
b110 +
b10110 +
b10110 &
1/
b1 ;
b0 6
b11 ;
b10 6
b100110 +
b100110 &
#876000
b100110 (
b1010101 )
b1010011 *
#880000
0!
#885000
1!
b1 $
0%
b110 5
b0 3
b1011 4
b1101 0
b100 5
b0 5
02
b0 .
b1011 0
b101011 +
b101011 &
0/
b10 ;
b11 6
b0 ;
b1 6
b11011 +
b11011 &
#886000
b11011 (
b1010110 )
b1010100 *
#890000
0!
#895000
1!
b11110 $
b1010 3
b100 4
b1 9
b0 :
b0 6
b10 ;
b100 0
b100 5
b1100 5
12
b1 .
b1000 0
b11000 +
b10 6
b101000 +
b101000 &
1/
b11 ;
b11 6
b111000 +
b111000 &
#896000
b111000 (
b1010111 )
b1010101 *
#900000
0!
#905000
1!
b1110 #
b1 $
b0 3
b1111 4
b0 9
b1 ;
b11 0
11
b1000 5
b0 5
02
b0 .
b1111 0
b1 -
b111111 +
b1 6
b11111 +
b11111 &
0/
b0 ;
b0 6
b1111 +
b1111 &
#906000
b1111 (
b1011000 )
b1010110 *
#910000
0!
#915000
1!
b10100 #
b10001 $
b101 4
b1 9
b10 ;
b101 0
01
b0 -
b101 +
b10 6
b100101 +
b100101 &
#916000
b100101 (
b1011001 )
b1010111 *
#920000
0!
#925000
1!
b10110 #
b10111 $
b110 3
b1 4
b1 0
b100 5
b1100 5
b1101 0
b101101 +
b101101 &
#926000
b101101 (
b1011010 )
b1011000 *
#930000
0!
#935000
1!
b11101 #
b10001 $
b1 3
b1100 4
b0 0
b1000 5
b0 5
b10 5
b1110 0
b101110 +
b101110 &
#936000
b101110 (
b1011011 )
b1011001 *
#940000
0!
#945000
1!
b11100 #
b11101 $
1%
b11 5
b1100 3
b1 4
b10 0
b1011 5
12
b1 .
b1010 0
b101010 +
b101010 &
1/
b11 ;
b11 6
b111010 +
b111010 &
#946000
b111010 (
b1011100 )
b1011010 *
#950000
0!
#955000
1!
b0 #
b10101 $
b0 3
b101 4
b0 9
b1 :
b10 6
b1110 0
b11 5
02
b0 .
b110 0
b110110 +
b100110 +
b100110 &
0/
b10 ;
b11 6
b0 ;
b1 6
b10110 +
b10110 &
#956000
b10110 (
b1011101 )
b1011011 *
#960000
0!
#965000
1!
#966000
b1011110 )
b1011100 *
#970000
0!
#975000
1!
b10010 #
b10000 $
0%
b10 5
b10 4
b1 9
b0 :
b0 6
b10 ;
b0 0
b0 5
b10 0
b10010 +
b10 6
b100010 +
b100010 &
#976000
b100010 (
b1011111 )
b1011101 *
#980000
0!
#985000
1!
b1001 #
b11110 $
b1000 3
b111 4
b0 9
b1 :
b11 6
b0 ;
b111 0
12
b1 .
b100111 +
b1 6
b10111 +
b10111 &
1/
b1 ;
b0 6
b11 ;
b10 6
b100111 +
b100111 &
#986000
b100111 (
b1100000 )
b1011110 *
#990000
0!
#995000
1!
b1110 #
b10001 $
1%
b1 5
b0 3
b1111 4
11
b1110 0
b11 5
b111 5
b1111 5
b0 0
b100000 +
b1 -
b100000 &
#996000
b100000 (
b1100001 )
b1011111 *
#1000000
0!
#1005000
1!
b100 #
b111 $
0%
b1110 5
b100 3
b11 4
b0 :
b11 6
b1 ;
01
b1101 0
b1100 5
b1000 5
02
b0 .
b1011 0
b101011 +
b0 -
b1 6
b11011 +
b11011 &
0/
b0 ;
b0 6
b1011 +
b1011 &
#1006000
b1011 (
b1100010 )
b1100000 *
#1010000
0!
#1015000
1!
b1100 #
b1110 $
1%
b1001 5
b1100 3
b10 4
12
b1 .
1/
b1 ;
b1 6
b11011 +
b11011 &
#1016000
b11011 (
b1100011 )
b1100001 *
#1020000
0!
#1025000
1!
b1101 #
b1111 $
0%
b1000 5
b1101 3
b1010 0
b1010 5
b1110 5
b1100 0
b11100 +
b11100 &
#1026000
b11100 (
b1100100 )
b1100010 *
#1030000
0!
#1035000
1!
b10001 #
b10 $
1%
b1111 5
b0 3
b11 4
b1 :
b0 6
b11 ;
b111 5
02
b0 .
b100 0
b10 6
b101100 +
b101100 &
b100100 +
0/
b10 ;
b100100 &
b11 6
b0 ;
b1 6
b10100 +
b10100 &
#1036000
b10100 (
b1100101 )
b1100011 *
#1040000
0!
#1045000
1!
b100 #
b110 $
0%
b110 5
b100 3
b10 4
b0 :
b0 6
b100 5
b0 5
b1000 5
b1010 0
b100 +
b100 &
b1010 +
b1010 &
#1046000
b1010 (
b1100110 )
b1100100 *
#1050000
0!
#1055000
1!
b1 #
b1000 $
b0 3
b1001 4
b1 0
b0 5
b1001 0
b1001 +
b1001 &
#1056000
b1001 (
b1100111 )
b1100101 *
