Verision1/03_verif/Questasim/tb_CLA_28bit.vcd
$date
	Mon Nov  3 19:01:01 2025
$end
$version
	Questa Intel Starter FPGA Edition Version 2024.3
$end
$timescale
	1ps
$end

$scope module tb_CLA_28bit $end
$var reg 1 ! i_clk $end
$var reg 1 " i_rst_n $end
$var reg 28 # i_data_a [27:0] $end
$var reg 28 $ i_data_b [27:0] $end
$var reg 1 % i_carry $end
$var reg 28 & o_sum [27:0] $end
$var reg 1 ' o_carry $end
$var reg 29 ( w_expect [28:0] $end
$var integer 32 ) test_count $end
$var integer 32 * test_pass $end

$scope function f_CLA_expected $end
$upscope $end

$scope task Display_Result $end
$upscope $end

$scope module DUT $end
$var reg 28 + o_sum [27:0] $end
$var reg 1 , o_carry $end
$var reg 8 - w_c [7:0] $end
$var reg 7 . w_p [6:0] $end
$var reg 7 / w_g [6:0] $end

$scope begin CLA_BLOCK_GEN[6] $end

$scope module CLA_4BIT_UNIT_1 $end
$var reg 4 0 sum [3:0] $end
$var reg 1 1 o_p $end
$var reg 1 2 o_g $end
$var reg 4 3 w_g [3:0] $end
$var reg 4 4 w_p [3:0] $end
$var reg 4 5 w_c [3:0] $end
$upscope $end
$upscope $end

$scope begin CLA_BLOCK_GEN[5] $end

$scope module CLA_4BIT_UNIT_1 $end
$var reg 4 6 sum [3:0] $end
$var reg 1 7 o_p $end
$var reg 1 8 o_g $end
$var reg 4 9 w_g [3:0] $end
$var reg 4 : w_p [3:0] $end
$var reg 4 ; w_c [3:0] $end
$upscope $end
$upscope $end

$scope begin CLA_BLOCK_GEN[4] $end

$scope module CLA_4BIT_UNIT_1 $end
$var reg 4 < sum [3:0] $end
$var reg 1 = o_p $end
$var reg 1 > o_g $end
$var reg 4 ? w_g [3:0] $end
$var reg 4 @ w_p [3:0] $end
$var reg 4 A w_c [3:0] $end
$upscope $end
$upscope $end

$scope begin CLA_BLOCK_GEN[3] $end

$scope module CLA_4BIT_UNIT_1 $end
$var reg 4 B sum [3:0] $end
$var reg 1 C o_p $end
$var reg 1 D o_g $end
$var reg 4 E w_g [3:0] $end
$var reg 4 F w_p [3:0] $end
$var reg 4 G w_c [3:0] $end
$upscope $end
$upscope $end

$scope begin CLA_BLOCK_GEN[2] $end

$scope module CLA_4BIT_UNIT_1 $end
$var reg 4 H sum [3:0] $end
$var reg 1 I o_p $end
$var reg 1 J o_g $end
$var reg 4 K w_g [3:0] $end
$var reg 4 L w_p [3:0] $end
$var reg 4 M w_c [3:0] $end
$upscope $end
$upscope $end

$scope begin CLA_BLOCK_GEN[1] $end

$scope module CLA_4BIT_UNIT_1 $end
$var reg 4 N sum [3:0] $end
$var reg 1 O o_p $end
$var reg 1 P o_g $end
$var reg 4 Q w_g [3:0] $end
$var reg 4 R w_p [3:0] $end
$var reg 4 S w_c [3:0] $end
$upscope $end
$upscope $end

$scope module CLA_4BIT_UNIT_0 $end
$var reg 4 T sum [3:0] $end
$var reg 1 U o_p $end
$var reg 1 V o_g $end
$var reg 4 W w_g [3:0] $end
$var reg 4 X w_p [3:0] $end
$var reg 4 Y w_c [3:0] $end
$upscope $end
$upscope $end
$upscope $end
$enddefinitions $end
#0
$dumpvars
0!
0"
b0 #
b0 $
0%
b0 &
0'
bx (
b0 +
0,
b0 -
b0 .
b0 /
b0 T
0U
0V
b0 W
b0 X
b0 Y
b0 N
0O
0P
b0 Q
b0 R
b0 S
b0 H
0I
0J
b0 K
b0 L
b0 M
b0 B
0C
0D
b0 E
b0 F
b0 G
b0 <
0=
0>
b0 ?
b0 @
b0 A
b0 6
07
08
b0 9
b0 :
b0 ;
b0 0
01
02
b0 3
b0 4
b0 5
b0 )
b0 *
$end
#5000
1!
#10000
0!
#15000
1!
#20000
1"
0!
#25000
1!
#30000
0!
#35000
1!
1%
b1 -
b1 Y
b1 T
b1 +
b1 &
#36000
b1 (
b1 )
b1 *
#40000
0!
#45000
1!
b111111111111111111111111 #
b1 $
0%
b0 -
b1111 :
b1111 @
b1111 F
b1111 L
b1111 R
b1 W
b1110 X
b1111 T
b101 Y
b1101 Y
1V
b1111 Y
b1111 N
1O
b1111 H
1I
b1111 B
1C
b1111 <
1=
b1111 6
17
b1110 Y
b100000 .
b111100000000000000000001 +
b110000 .
b111111110000000000000001 +
b111000 .
b111111111111000000000001 +
b111100 .
b111111111111111100000001 +
b111110 .
b111111111111111111110001 +
b1 /
b0 T
b111111111111111111110000 +
b10 -
b110 -
b1110 -
b11110 -
b111110 -
b111111111111111111110000 &
b1111110 -
b1 5
b1 ;
b1 A
b1 G
b1 M
b1 S
b1110 N
b11 S
b111 S
b1111 S
1P
b1110 H
b11 M
b111 M
b1111 M
1J
b1110 B
b11 G
b111 G
b1111 G
1D
b1110 <
b11 A
b111 A
b1111 A
1>
b1110 6
b11 ;
b111 ;
b1111 ;
18
b1 0
b1111111111111111111110000 +
b100001 /
b0 6
b1000011111111111111110000 +
b110001 /
b0 <
b1000000001111111111110000 +
b111001 /
b0 B
b1000000000000111111110000 +
b111101 /
b0 H
b1000000000000000011110000 +
b111111 /
b0 N
b1000000000000000000000000 +
b1000000000000000000000000 &
#46000
b1000000000000000000000000 (
b10 )
b10 *
#50000
0!
#55000
1!
b1111111111111111111111111111 #
b1111111111111111111111111111 $
1%
b1111111 -
b1111 9
b0 :
b1111 ?
b0 @
b1111 E
b0 F
b1111 K
b0 L
b1111 Q
b0 R
b1111 W
b0 X
b1111 3
b101 5
b1101 5
12
b1111 5
b1110 T
b1111 N
0O
b1111 H
0I
b1111 B
0C
b1111 <
0=
b1111 6
07
b1111 Y
b1111 T
b11110 .
b1111100000000000000000000 +
b1110 .
b1111111110000000000000000 +
b110 .
b1111111111111000000000000 +
b10 .
b1111111111111111100000000 +
b0 .
b1111111111111111111110000 +
b1111111111111111111111111 +
b1111111 /
b1111 0
b1111111111111111111111111111 +
b11111111 -
b1111111111111111111111111111 &
1,
1'
#56000
b11111111111111111111111111111 (
b11 )
b11 *
#60000
0!
#65000
1!
b11001100110111110110100100 #
b110100001001100011111000110 $
0%
b11111110 -
b10 3
b101 4
b0 9
b1011 :
b0 ?
b111 @
b100 E
b1011 F
b101 K
b1010 L
b1000 Q
b110 R
b100 W
b10 X
b1101 T
b1011 Y
0V
b1001 Y
b1001 N
b1011 S
b11 S
b1 S
b101 H
b100 B
b1000 <
0>
b100 6
b111 ;
08
b1010 0
02
b1000 Y
b111111 /
b1010111111111111111111111111 +
b11111 /
b1100 6
b1010110011111111111111111111 +
b1111 /
b1010110010001111111111111111 +
b1010110010000100111111111111 +
b1010110010000100010111111111 +
b111 N
b1010110010000100010101111111 +
b1110 /
b1010 T
b1010110010000100010101111010 +
b11111100 -
b11011100 -
b10011100 -
b1010110010000100010101111010 &
b11100 -
0,
b1110 5
b110 ;
b0 S
b110 N
b1101 6
b100 ;
b0 ;
b1011 0
b1100 5
0'
b1001 0
b1001110010000100010101111010 +
b1011 6
b1001101110000100010101111010 +
b1001101110000100010101101010 +
b1001101110000100010101101010 &
#66000
b1001101110000100010101101010 (
b100 )
b100 *
#70000
0!
#75000
1!
b111110111101001111010111110 #
b1001011000011100100000010001 $
1%
b11101 -
b1 3
b1110 4
b100 9
b1111 @
b1000 E
b101 F
b1000 K
b110 L
b1 Q
b1010 R
b0 W
b1111 X
b111 T
1U
b0 Y
b1010 N
b100 S
0P
b110 S
b1001 H
b1011 M
b11 M
b1 M
b1010 B
b1011 G
b11 G
b0 <
1>
1=
b1000 ;
18
b10 0
12
b1110 5
b1 Y
b11 Y
b111 Y
b1111 Y
1V
b0 0
b1001110 /
b101110000100010101101010 +
b1101110 /
b11 6
b10000 .
b1111110 /
b101100000100010101101010 +
b110 B
b101100000110010101101010 +
b111 H
b101100000110011101101010 +
b1111100 /
b1100 N
b101100000110011111001010 +
b0 T
b10001 .
b101100000110011111000000 +
b11111 -
b11011 -
b111011 -
b1100000110011111000000 +
b1111011 -
b1100000110011111000000 &
b11111011 -
b1111101 /
1,
b1111 5
b1001 ;
b0 M
b111 S
b1101 N
b110 H
b10 6
b1011 ;
b1111 ;
b1 0
1'
b1001100000110011111000000 +
b100 6
b1010000000110011111000000 +
b1010000000110011011000000 +
b1010000000110011011010000 +
b1010000000110011011010000 &
#76000
b10001010000000110011011010000 (
b101 )
b101 *
#80000
0!
#85000
1!
b1101110011011110010110110001 #
b11100011110110101101111001 $
0%
b11111010 -
b11 Q
b1100 R
b1000 9
b100 :
b1101 ?
b10 @
b110 E
b1000 F
b1 K
b1110 L
b1 W
b1000 X
b111 T
0U
b1011 Y
b11 Y
0V
b1110 H
b100 M
b1100 M
b1110 M
b1011 B
b1 G
b101 G
b1101 G
b1101 <
0=
b1011 6
b1101 ;
b1001 ;
b1 ;
b1011 N
b1111 S
1P
b10 Y
b1111111 /
b11 N
b1010000000110011000110000 +
b101 6
b1010100000110011000110000 +
b1 .
b1010111010110011000110000 +
b101 B
b1010111010101011000110000 +
b0 H
b1010111010101000000110000 +
b1111110 /
b1010 T
b0 .
b1010111010101000000111010 +
b11111000 -
b1010111010101000000111010 &
b11111100 -
b1111 M
b1110 S
b10 N
b1 H
b1010111010101000100111010 +
b1010111010101000100101010 +
b1010111010101000100101010 &
#86000
b10001010111010101000100101010 (
b110 )
b110 *
#90000
0!
#95000
1!
b1101010001000000010000101011 #
b1010101001111101110100000000 $
1%
b11111101 -
b1000 3
b111 4
b0 9
b1110 :
b100 ?
b11 @
b0 E
b1101 F
b100 K
b1001 L
b0 Q
b10 R
b0 W
b1011 X
b1001 T
b0 Y
b1100 N
b1010 S
b10 S
0P
b0 S
b110 H
b1011 M
b0 B
b1111 G
b1011 G
b11 G
0D
b1100 <
0>
b1111 6
08
b1000 0
b1 Y
b11 Y
b111 Y
b1000010111010101000100101010 +
b1011110 /
b1000111111010101000100101010 +
b1001110 /
b1000111111000101000100101010 +
b1000110 /
b1110 B
b1000111111001110000100101010 +
b10 H
b1000111111001110001000101010 +
b1000100 /
b10 N
b1100 T
b1000111111001110001000101100 +
b11111001 -
b11101001 -
b11001001 -
b10001001 -
b1000111111001110001000101100 &
b1110 5
b0 ;
b1110 A
b1010 M
b11 H
b1000 M
b1101 <
b1100 A
b1000 A
b1110 6
b1001 0
b1100 5
b1000 5
b0 5
b111 0
b111111111001110001000101100 +
b111111011001110001000101100 +
b1011 <
b111111010111110001000101100 +
b1 H
b111111010111110000100101100 +
b111111010111110000100101100 &
#96000
b10111111010111110000100101100 (
b111 )
b111 *
#100000
0!
#105000
1!
b10001011010110000000011010 #
b1001000110011010000011110111 $
0%
b10001000 -
b0 3
b1011 4
b11 :
b1001 ?
b100 @
b10 E
b1100 F
b0 K
b0 L
b1 Q
b1110 R
b10 W
b1101 X
b1010 T
b1111 Y
1V
b1110 N
b100 S
b1100 S
1P
b1110 S
b1000 H
b0 M
0J
b1111 B
b1 G
b101 G
b1101 G
1D
b1100 <
b0 A
1>
b10 A
b11 6
b1011 0
02
b1110 Y
b1100 Y
b100 /
b1011111010111110000100101100 +
b1011001110111110000100101100 +
b10100 /
b110 <
b1011001101101110000100101100 +
b11100 /
b1 B
b1011001101100001000100101100 +
b11000 /
b0 H
b1011001101100001000000101100 +
b11010 /
b0 N
b1011001101100001000000001100 +
b11011 /
b1 T
b1011001101100001000000000001 +
b10001010 -
b10001110 -
b10000110 -
b10010110 -
b10110110 -
b1011001101100001000000000001 &
b110110 -
0,
b1 ;
b11 A
b1100 G
b1 M
b1111 S
b1 N
b1 H
b0 B
b111 <
b10 6
b11 ;
b111 ;
0'
b100 6
b1011010001100001000000000001 +
b1011010001110001000000000001 +
b1011010001110000000000000001 +
b1011010001110000000100000001 +
b1011010001110000000100010001 +
b1011010001110000000100010001 &
#106000
b1011010001110000000100010001 (
b1000 )
b1000 *
#110000
0!
#115000
1!
b1000110110000001110100111000 #
b10110000000011010011001 $
1%
b110111 -
b1000 4
b101 9
b1000 :
b1000 ?
b0 @
b0 E
b1 F
b100 K
b1011 L
b1010 R
b1000 W
b1 X
b1101 T
b1000 Y
b0 Y
b111 S
b1101 N
0P
b1010 H
b11 M
b111 M
b1111 M
1J
b1101 B
b1000 G
b0 G
0D
b11 <
b1 A
b1111 6
b11 ;
b1011 ;
18
b1000 0
b1 Y
b11 Y
b1000010001110000000100010001 +
b111011 /
b11 6
b1000001101110000000100010001 +
b1 <
b1000001100010000000100010001 +
b110011 /
b1 B
b1000001100010001000100010001 +
b110111 /
b100 H
b1000001100010001010000010001 +
b110101 /
b1000001100010001010011010001 +
b10 T
b1000001100010001010011010010 +
b110011 -
b111011 -
b101011 -
b1101011 -
b1000001100010001010011010010 &
b1 5
b0 A
b1 G
b1110 M
b101 H
b1100 M
b1000 M
b0 B
b11 G
b0 <
b1001 0
b1001001100010001010011010010 +
b1001001100000001010011010010 +
b10 B
b1001001100000010010011010010 +
b11 H
b1001001100000010001111010010 +
b1001001100000010001111010010 &
#116000
b1001001100000010001111010010 (
b1001 )
b1001 *
#120000
0!
#125000
1!
b110001101010101000001010101 #
b100010111100111110000001011 $
b100 3
b10 4
b1 9
b110 :
b100 ?
b1011 @
b101 E
b10 F
b0 K
b1100 L
b0 Q
b101 R
b1 W
b1110 X
b1101 T
b111 Y
b1111 Y
b10 N
b11 S
b100 H
b0 M
0J
b1 B
b111 G
b1111 G
b1011 <
b1000 A
b1101 6
b1111 ;
08
b11 0
b1001 5
b1011 0
b1011001100000010001111010010 +
b10101 /
b1001 6
b1011100100000010001111010010 +
b11 <
b1011100100110010001111010010 +
b1101 B
b1011100100111101001111010010 +
b10001 /
b1100 H
b1011100100111101110011010010 +
b110 N
b1011100100111101110001100010 +
b1 T
b1011100100111101110001100001 +
b1100011 -
b100011 -
b1011100100111101110001100001 &
b1000 5
b1110 G
b1100 B
b1010 0
b1010100100111101110001100001 +
b1010100100111100110001100001 +
b1010100100111100110001100001 &
#126000
b1010100100111100110001100001 (
b1010 )
b1010 *
#130000
0!
#135000
1!
b1011111100000100111101001 #
b101111110010010111010101010 $
b1 3
b100 4
b111 9
b1000 :
b1000 ?
b111 @
b0 E
b1000 K
b111 L
b1010 Q
b100 R
b1000 W
b11 X
b1100 T
b111 Y
b111 N
b1 S
b101 S
b1101 S
1P
b111 H
1J
b1010 G
b10 G
b0 G
b1111 <
b0 A
b111 6
18
b1100 0
b0 5
b10 5
b110 0
b110100100111100110001100001 +
b110001 /
b110011100111100110001100001 +
b111 <
b110011101111100110001100001 +
b10 B
b110101 /
b110011101111100011101100001 +
b110111 /
b1001 N
b110011101111100011110010001 +
b100 T
b110011101111100011110010100 +
b100111 -
b101111 -
b110011101110010011110010100 +
b1101111 -
b110011101110010011110010100 &
b11 5
b1 G
b1 M
b110 H
b11 M
b111 M
b1111 M
b11 B
b111 0
b111011101110010011110010100 +
b111011101110011011110010100 +
b1000 H
b111011101110011100010010100 +
b111011101110011100010010100 &
#136000
b111011101110011100010010100 (
b1011 )
b1011 *
#140000
0!
#145000
1!
b1010010100111100111110001111 #
b1000000110011011110001010111 $
0%
b1101110 -
b1000 3
b10 4
b1 9
b100 :
b1 ?
b1010 @
b1000 E
b111 F
b1100 K
b11 L
b0 Q
b1101 R
b111 W
b1000 X
b1111 T
b1111 Y
b0 N
b1111 S
b1011 S
b11 S
0P
b1100 H
b110 B
b11 G
b111 G
b1111 G
1D
b1010 <
b100 A
0>
b110 A
b1011 6
b1011 ;
b11 ;
08
b1 0
12
b1 5
b1110 Y
b11 0
b1110111 /
b11011101110011100010010100 +
b1010111 /
b111 6
b1000111 /
b1100 <
b11011111000011100010010100 +
b1001111 /
b1000 B
b11011111001000100010010100 +
b11011111001000110010010100 +
b1001101 /
b1110 N
b11011111001000110011100100 +
b110 T
b11011111001000110011100110 +
b1101010 -
b1111010 -
b1011010 -
b11010 -
b11011111001000110011100110 &
b10011010 -
1,
b0 5
b10 ;
b111 A
b1110 M
b1101 H
b1100 M
b1000 M
b1101 <
b110 6
b10 0
1'
b10011111001000110011100110 +
b10011011001000110011100110 +
b10011011011000110011100110 +
b1011 H
b10011011011000101111100110 +
b10011011011000101111100110 &
#146000
b10010011011011000101111100110 (
b1100 )
b1100 *
#150000
0!
#155000
1!
b10101111011000101010010010 #
b1011000100111000000011100 $
1%
b10011011 -
b0 3
b11 4
b10 9
b1101 :
b0 ?
b1111 @
b0 E
b1111 F
b0 K
b1010 L
b1 Q
b1000 R
b0 W
b1110 X
b0 T
b1010 Y
b10 Y
0V
b0 Y
b1011 N
b10 H
b0 M
0J
b0 B
1C
b1000 <
1=
b1111 A
1>
b1111 6
b110 ;
b1110 ;
18
b1100 ;
b11 0
02
b1 Y
b1101 /
b11011011011000101111100110 +
b101101 /
b1 6
b11000111011000101111100110 +
b111101 /
b0 <
b10000 .
b11000100001000101111100110 +
b11000 .
b11000100000000101111100110 +
b111001 /
b1010 H
b11000100000000101011100110 +
b11000100000000101010110110 +
b111000 /
b1111 T
b11000100000000101010111111 +
b10011001 -
b10010001 -
b10110001 -
b11110001 -
b11000100000000101010111111 &
b1110001 -
0,
b1 5
b1101 ;
b1110 G
b10 S
b1010 N
b1 B
b1100 G
b1000 G
b0 G
0D
b0 6
b1111 ;
b10 0
b11 5
b111 5
0'
b100 0
b100000100000000101010111111 +
b10 6
b100001000000000101010111111 +
b110000 /
b1111 B
b100001000001111101010111111 +
b100001000001111101010101111 +
b1100001 -
b100001000001111101010101111 &
b1110 A
b1 <
b1100 A
b1000 A
b0 A
0>
b100000 /
b1111 <
b100001011111111101010101111 +
b100001011111111101010101111 &
b1000001 -
b1110 ;
b11 6
b1100 ;
b1 6
b100000111111111101010101111 +
b100000111111111101010101111 &
#156000
b100000111111111101010101111 (
b1101 )
b1101 *
#160000
0!
#165000
1!
b100110100101010001110101110 #
b1010011101010001001000010110 $
0%
b1000000 -
b1110 4
b101 9
b1010 :
b111 @
b1011 F
b10 K
b1 L
b0 Q
b1011 R
b110 W
b1000 X
b1001 T
b101 Y
b1101 Y
1V
b1001 N
b0 S
b1 H
b100 M
b1011 B
0C
b111 <
0=
b110 6
b1110 ;
b11 5
b1101 0
b1 5
b1100 Y
b1111 0
b1111000111111111101010101111 +
b100 6
b1111010011111111101010101111 +
b1000 .
b1111010001111111101010101111 +
b0 .
b1111010001111011101010101111 +
b101 H
b1111010001111011010110101111 +
b1011 N
b1111010001111011010110111111 +
b100001 /
b100 T
b1111010001111011010110110100 +
b1000010 -
b1111010001111011010110110100 &
b1 S
b1010 N
b11 S
b111 S
b1100 N
b1111010001111011010111000100 +
b1111010001111011010111000100 &
#166000
b1111010001111011010111000100 (
b1110 )
b1110 *
#170000
0!
#175000
1!
b110000010101001100000011100 #
b1101000101011111011011010111 $
b100 3
b1011 4
b0 9
b1 :
b1111 @
b1001 E
b110 F
b0 K
b1110 L
b1 Q
b1100 R
b100 W
b1011 X
b111 T
b1000 Y
b1011 N
b11 S
b1010 H
b0 M
b110 B
b100 G
b1100 G
1D
b1110 G
b1111 <
1=
b1111 6
b1010 ;
b10 ;
08
b0 ;
b1010 0
b11 5
b111 5
b1111 5
12
b1100001 /
b100 0
b100010001111011010111000100 +
b1000001 /
b1 6
b100000101111011010111000100 +
b10000 .
b100000111111011010111000100 +
b1001001 /
b1000 B
b100000111111000010111000100 +
b1110 H
b100000111111000111011000100 +
b1111 N
b100000111111000111011110100 +
b11 T
b100000111111000111011110011 +
b1010010 -
b1110010 -
b110010 -
b100000111111000111011110011 &
b10110010 -
1,
b1110 5
b1 ;
b1 A
b1110 <
b11 A
b111 A
b1111 A
1>
b0 6
b11 ;
b101 0
b1100 5
b1000 5
1'
b11 0
b11000111111000111011110011 +
b10 6
b11001011111000111011110011 +
b1011001 /
b0 <
b11001000001000111011110011 +
b11001000001000111011110011 &
#176000
b10011001000001000111011110011 (
b1111 )
b1111 *
#180000
0!
#185000
1!
b1001101000110010111000011000 #
b1001001011001001001000 $
1%
b10110011 -
b0 Q
b101 R
b0 3
b1001 4
b10 9
b1000 :
b111 @
b10 E
b1001 F
b10 K
b1100 L
b1000 W
b0 X
b1000 T
b0 Y
b1100 H
b100 M
b1100 M
1J
b111 B
b110 G
0D
b100 G
b1000 <
0>
0=
b1011 6
b1 ;
b101 ;
b1 0
b0 5
02
b110 N
b1 Y
b11001000001000111001100011 +
b11001 /
b1001 0
b1001001000001000111001100011 +
b1101 6
b1001110100001000111001100011 +
b0 .
b1001 /
b1001110110001000111001100011 +
b1 /
b1101 B
b1001110110001101111001100011 +
b101 /
b0 H
b1001110110001101000001100011 +
b1 T
b1001110110001101000001100001 +
b10111011 -
b10101011 -
b10001011 -
b1011 -
b1001110110001101000001100001 &
0,
b100 ;
b1110 A
b101 G
b1100 B
b111 G
b1001 <
b1100 A
b1000 A
b0 A
b1100 6
0'
b1001110010001101000001100001 +
b111 <
b1001110001111101000001100001 +
b1110 B
b1001110001111110000001100001 +
b1001110001111110000001100001 &
#186000
b1001110001111110000001100001 (
b10000 )
b10000 *
#190000
0!
#195000
1!
b110101010101100100100001 #
b1010010000111001001001011001 $
b1010 4
b100 9
b1001 :
b1 ?
b110 @
b1 E
b1100 F
b0 K
b1011 L
b111 R
b1 W
b1000 X
b1001 T
0V
b11 Y
b111 S
b1111 S
b1000 N
b111 H
b1000 M
b0 M
0J
b1011 B
b11 G
b110 <
b100 A
b1100 A
b1110 A
b1101 6
b0 ;
b1000 ;
18
b1010 0
b1010110001111110000001100001 +
b100101 /
b1 6
b1010000101111110000001100001 +
b1000 <
b1010000110001110000001100001 +
b1111 B
b1010000110001111000001100001 +
b100001 /
b1011 H
b1010000110001111101101100001 +
b1010000110001111101110000001 +
b1011 T
b100000 /
b1010000110001111101110001011 +
b1001 -
b1 -
b1000001 -
b1010000110001111101110001011 &
b1 5
b10 G
b1110 S
b1001 N
b1100 S
b1000 S
b0 S
b1110 B
b1011 0
b1011000110001111101110001011 +
b1011000110001110101110001011 +
b111 N
b1011000110001110101101111011 +
b1011000110001110101101111011 &
#196000
b1011000110001110101101111011 (
b10001 )
b10001 *
#200000
0!
#205000
1!
b1000101101110110110111101010 #
b1011100110110001100111011 $
b1001 4
b11 9
b1100 :
b11 ?
b100 @
b110 E
b0 F
b1 K
b1110 L
b10 Q
b1101 R
b1010 W
b1 X
b10 T
b111 Y
1V
b1101 N
b100 S
b1100 S
1P
b1110 H
b100 M
b1100 M
1J
b1110 M
b10 B
b110 G
b1110 G
b1100 G
b1010 <
b100 6
b1100 ;
b1110 ;
b1000 0
b11 5
b1010 0
b1010000110001110101101111011 +
b10 6
b1010001010001110101101111011 +
b1010001010101110101101111011 +
b1100 B
b1010001010101100101101111011 +
b100100 /
b0 H
b1010001010101100000001111011 +
b100110 /
b1 N
b1010001010101100000000011011 +
b100111 /
b110 T
b1010001010101100000000010110 +
b1000011 -
b1000111 -
b1001111 -
b1010001010101100000000010110 &
b1101 G
b1111 M
b1101 S
b0 N
b1111 S
b1 H
b1101 B
b1010001010101101000000010110 +
b1010001010101101000100010110 +
b10 N
b1010001010101101000100100110 +
b1010001010101101000100100110 &
#206000
b1010001010101101000100100110 (
b10010 )
b10010 *
#210000
0!
#215000
1!
b1110111010110000000100000111 #
b101010001011011001010111101 $
0%
b1001110 -
b100 3
b1011 4
b100 9
b1010 :
b1 ?
b1110 @
b0 E
b1011 F
b0 K
b11 L
b0 Q
b1011 R
b101 W
b1010 X
b1101 T
b1111 Y
b100 N
b111 S
0P
b1100 H
b111 M
0J
b110 B
b1111 G
b111 G
b0 <
1>
b100 6
b1010 ;
b1000 ;
b1000 0
b111 5
b1111 5
12
b1110 Y
b1100111 /
b100 0
b100001010101101000100100110 +
b10 6
b1110111 /
b100001000001101000100100110 +
b1100 B
b100001000001100000100100110 +
b1110011 /
b100 H
b100001000001100010000100110 +
b1110001 /
b1100 N
b100001000001100010011000110 +
b100 T
b100001000001100010011000100 +
b1001010 -
b1000010 -
b1100010 -
b100001000001100010011000100 &
b11100010 -
1,
b1001 ;
b110 G
b110 M
b101 H
b100 M
b0 M
b1101 B
b100 G
b0 G
b11 6
1'
b100001100001100010011000100 +
b1011 B
b100001100001011010011000100 +
b11 H
b100001100001011001111000100 +
b100001100001011001111000100 &
#216000
b10100001100001011001111000100 (
b10011 )
b10011 *
#220000
0!
#225000
1!
b1111110101110111001001100110 #
b101000010100010101010011100 $
1%
b11100011 -
b101 3
b1010 4
b0 9
b1101 :
b10 ?
b1101 @
b10 E
b101 F
b10 K
b1000 L
b1111 R
b100 W
b1010 Y
b1000 Y
b1111 S
b0 N
1P
1O
b1000 H
b100 M
b101 B
b100 G
b1100 G
b11 <
b1100 A
b100 6
b1011 ;
b11 ;
08
b101 0
b1001 Y
b101001100001011001111000100 +
b1010001 /
b1110 6
b101111000001011001111000100 +
b1 <
b101111000011011001111000100 +
b1001 B
b101111000011001001111000100 +
b1100 H
b101111000011001110011000100 +
b10 .
b1010011 /
b101111000011001110000000100 +
b11 T
b101111000011001110000000011 +
b11100111 -
b10100111 -
b101111000011001110000000011 &
b1110 5
b101 M
b1101 H
b100 0
b100111000011001110000000011 +
b100111000011001110100000011 +
b100111000011001110100000011 &
#226000
b10100111000011001110100000011 (
b10100 )
b10100 *
#230000
0!
#235000
1!
b1111100101100110000010011101 #
b1101001100010100110011100110 $
b1101 3
b10 4
b1 9
b1010 :
b0 ?
b111 @
b100 E
b10 F
b0 K
b1100 L
b1000 Q
b111 R
b1011 X
b1101 Y
b110 T
b1111 Y
b1000 N
0O
b1001 H
b1 M
b1110 B
b1000 G
b1011 <
b1000 A
b0 A
0>
b1001 6
b111 ;
b1100 0
b1100111000011001110100000011 +
b1101 6
b1100110100011001110100000011 +
b1000011 /
b111 <
b1100110101111001110100000011 +
b1010 B
b1100110101111010110100000011 +
b1101 H
b0 .
b1100110101111010110110000011 +
b100 T
b1100110101111010110110000100 +
b10000111 -
b1100110101111010110110000100 &
b110 ;
b1100 6
b1100110001111010110110000100 +
b1100110001111010110110000100 &
#236000
b11100110001111010110110000100 (
b10101 )
b10101 *
#240000
0!
#245000
1!
b10011110100011100100101000 #
b110001111101101110100000000 $
0%
b10000110 -
b10 3
b100 4
b11 9
b100 :
b1010 ?
b100 @
b1 E
b1110 F
b1001 K
b100 L
b0 Q
b10 R
b0 W
b1000 X
b111 T
b1101 Y
b1001 Y
b1 Y
0V
b1101 N
b1101 S
b1001 S
b1 S
0P
b101 H
1J
b11 M
b110 B
b1100 G
1D
b1110 G
b100 <
b100 A
b1100 A
1>
b10 6
b1110 ;
b1010 0
02
b1100 5
b0 Y
b1000 0
b11 /
b1000110001111010110110000100 +
b1010 6
b1000101001111010110110000100 +
b10011 /
b1000 <
b1000101010001010110110000100 +
b11011 /
b0 B
b1000101010000000110110000100 +
b111 H
b11111 /
b1000101010000000011110000100 +
b11101 /
b11 N
b1000101010000000011100110100 +
b11100 /
b1000 T
b1000101010000000011100111000 +
b10000100 -
b10000000 -
b10001000 -
b10011000 -
b10111000 -
b1000101010000000011100111000 &
b111000 -
0,
b1111 ;
b1101 A
b1111 G
b10 M
b0 S
b10 N
b110 H
b1 B
b1001 <
b1011 6
0'
b1000101110000000011100111000 +
b1000101110010000011100111000 +
b1000101110010001011100111000 +
b1000101110010001011000111000 +
b1000101110010001011000101000 +
b1000101110010001011000101000 &
#246000
b1000101110010001011000101000 (
b10110 )
b10110 *
#250000
0!
#255000
1!
b100111110010110100101101001 #
b1110000100101000110001101001 $
b1000 K
b101 L
b100 3
b1010 4
b1 9
b1110 :
b0 ?
b1011 @
b0 E
b110 Q
b0 R
b1001 W
b0 X
b0 T
1V
b10 Y
b0 N
b100 S
b1100 S
b1011 G
b11 G
0D
b1 G
b110 <
b1111 A
b111 A
0>
b1 6
18
b110 0
b1000 5
12
b111 H
b0 M
b101 H
b1000101110010001010100101000 +
b1011100 /
b10 0
b10101110010001010100101000 +
b1111100 /
b10000110010001010100101000 +
b1101100 /
b1100 <
b10000111000001010100101000 +
b1100100 /
b1111 B
b1100 N
b10000111000001010111001000 +
b10 T
b1100101 /
b10000111000001010111000010 +
b111010 -
b10000111001111010111000010 +
b101010 -
b1010 -
b1001010 -
b11001010 -
b10000111001111010111000010 &
1,
b1001 5
b1110 ;
b110 A
b1101 S
b1101 N
b1101 <
b100 A
b0 A
b0 6
b11 0
1'
b11000111001111010111000010 +
b11000011001111010111000010 +
b1011 <
b11000010111111010111000010 +
b11000010111111010111010010 +
b11000010111111010111010010 &
#256000
b10011000010111111010111010010 (
b10111 )
b10111 *
#260000
0!
#265000
1!
b100101001000111010000001100 #
b1101111000101111010110011111 $
1%
b11001011 -
b1001 4
b1010 9
b100 :
b110 @
b111 E
b1000 F
b100 K
b1 L
b0 Q
b1001 R
b1100 W
b11 X
b1 T
b1010 Y
b1000 Y
b100 N
b1111 S
b1011 S
b11 S
b1 H
b1000 M
0J
b1001 B
b101 G
b1101 G
1D
b1111 G
b110 <
b1010 6
b1100 ;
b0 0
b1011 5
b1001 Y
b1011 Y
b1111 Y
b10 0
b10000010111111010111010010 +
b1000 6
b10100010111111010111010010 +
b10100001101111010111010010 +
b1101101 /
b111 B
b10100001100111010111010010 +
b1101001 /
b1001 H
b10100001100111100111010010 +
b1010 N
b10100001100111100110100010 +
b1100 T
b10100001100111100110101100 +
b11000011 -
b11010011 -
b10100001100111100110101100 &
b1 A
b1110 G
b110 B
b111 <
b10100001110111100110101100 +
b10100001110110100110101100 +
b10100001110110100110101100 &
#266000
b10010100001110110100110101100 (
b11000 )
b11000 *
#270000
0!
