Verision1/03_verif/Questasim/tb_COMP_8bit.vcd
$date
	Mon Nov  3 19:09:50 2025
$end
$version
	Questa Intel Starter FPGA Edition Version 2024.3
$end
$timescale
	1ps
$end

$scope module tb_COMP_8bit $end
$var reg 1 ! i_clk $end
$var reg 8 " i_data_a [7:0] $end
$var reg 8 # i_data_b [7:0] $end
$var reg 1 $ o_less $end
$var reg 1 % w_expect $end
$var integer 32 & test_count $end
$var integer 32 ' test_pass $end

$scope function f_expected_less $end
$upscope $end

$scope task Display_Result $end
$upscope $end

$scope module DUT $end
$var reg 1 ( o_less $end
$var reg 1 ) w_less_low $end
$var reg 1 * w_equal_low $end
$var reg 1 + w_less_high $end
$var reg 1 , w_equal_high $end

$scope module u_low $end
$var reg 1 - o_less $end
$var reg 1 . o_equal $end
$var reg 1 / w_less_low $end
$var reg 1 0 w_equal_low $end
$var reg 1 1 w_less_high $end
$var reg 1 2 w_equal_high $end

$scope module u_low $end
$var reg 1 3 o_less $end
$var reg 1 4 o_equal $end
$upscope $end

$scope module u_high $end
$var reg 1 5 o_less $end
$var reg 1 6 o_equal $end
$upscope $end
$upscope $end

$scope module u_high $end
$var reg 1 7 o_less $end
$var reg 1 8 o_equal $end
$var reg 1 9 w_less_low $end
$var reg 1 : w_equal_low $end
$var reg 1 ; w_less_high $end
$var reg 1 < w_equal_high $end

$scope module u_low $end
$var reg 1 = o_less $end
$var reg 1 > o_equal $end
$upscope $end

$scope module u_high $end
$var reg 1 ? o_less $end
$var reg 1 @ o_equal $end
$upscope $end
$upscope $end
$upscope $end
$upscope $end
$enddefinitions $end
#0
$dumpvars
0!
bx "
bx #
x$
x%
x(
x)
x*
x+
x,
x-
x.
x/
x0
x1
x2
x3
x4
x5
x6
x7
x8
x9
x:
x;
x<
x=
x>
x?
x@
b0 &
b0 '
$end
#5000
1!
b10100100 "
b11000110 #
1?
0@
0=
0>
05
16
13
04
00
1/
12
01
0:
09
0<
1;
17
08
1-
0.
0*
1)
0,
1+
1(
1$
#6000
1%
b1 &
b1 '
#10000
0!
#15000
1!
b10011110 "
b10111110 #
0?
1@
1=
03
14
10
0/
19
1<
0;
0-
1.
1*
0)
#16000
b10 &
b10 '
#20000
0!
#25000
1!
b10001 "
b1000101 #
0=
1?
0@
15
06
02
11
0<
1;
09
1-
0.
0*
1)
#26000
b11 &
b11 '
#30000
0!
#35000
1!
b10110001 "
b1111001 #
0?
1>
1:
0;
07
0+
0(
0$
#36000
0%
b100 &
b100 '
#40000
0!
#45000
1!
b111000 "
b101011 #
0>
1@
05
16
13
04
00
1/
12
01
1<
0:
#46000
b101 &
b101 '
#50000
0!
#55000
1!
b0 "
b10001011 #
1?
0@
1>
15
06
02
11
1:
0<
1;
17
1+
1(
1$
#56000
1%
b110 &
b110 '
#60000
0!
#65000
1!
b11010 "
b11110111 #
1=
0>
05
01
0:
19
0-
0)
#66000
b111 &
b111 '
#70000
0!
#75000
1!
b101110 "
b111000 #
0?
1@
03
0/
1<
0;
#76000
b1000 &
b1000 '
#80000
0!
#85000
1!
b10011001 "
b11110111 #
1?
0@
13
1/
0<
1;
#86000
b1001 &
b1001 '
#90000
0!
#95000
1!
b1010101 "
b1011 #
0=
0?
15
11
0;
09
07
1-
1)
0+
0(
0$
#96000
0%
b1010 &
b1010 '
#100000
0!
#105000
1!
b11001001 "
b11101001 #
03
14
1@
1=
05
16
12
01
19
1<
10
0/
17
0-
1.
1*
0)
1+
1(
1$
#106000
1%
b1011 &
b1011 '
#110000
0!
#115000
1!
b10101010 "
b1101 #
15
06
0@
0=
04
00
09
0<
02
11
1-
07
0.
0*
0+
1)
0(
0$
#116000
0%
b1100 &
b1100 '
#120000
0!
#125000
1!
b10001111 "
b1010111 #
1=
05
14
10
01
19
0-
0)
#126000
b1101 &
b1101 '
#130000
0!
#135000
1!
b10000100 "
b10010010 #
1@
13
04
00
1/
1<
17
1+
1(
1$
#136000
1%
b1110 &
b1110 '
#140000
0!
#145000
1!
b11100 "
b1010001 #
1?
0@
0=
1>
1:
09
0<
1;
#146000
b1111 &
b1111 '
#150000
0!
#155000
1!
b10101110 "
b10110 #
0?
0>
03
14
10
0/
0:
0;
07
0+
0(
0$
#156000
0%
b10000 &
b10000 '
#160000
0!
#165000
1!
b110100 "
b11100 #
1@
15
11
1<
1-
1)
#166000
b10001 &
b10001 '
#170000
0!
#175000
1!
b11010111 "
b11101010 #
1=
04
00
19
17
1+
1(
1$
#176000
1%
b10010 &
b10010 '
#180000
0!
#185000
1!
b11000 "
b1001000 #
0=
1?
0@
05
16
14
10
12
01
0<
1;
09
0-
1.
1*
0)
#186000
b10011 &
b10011 '
#190000
0!
#195000
1!
b1111111 "
b100001 #
0?
06
04
00
02
0;
07
0.
0*
0+
0(
0$
#196000
0%
b10100 &
b10100 '
#200000
0!
#205000
1!
b1011001 "
b11000111 #
1?
13
1/
1;
17
1+
1(
1$
#206000
1%
b10101 &
b10101 '
#210000
0!
#215000
1!
b11101010 "
b111011 #
16
0?
1=
19
0;
12
1-
07
0+
1)
0(
0$
#216000
0%
b10110 &
b10110 '
#220000
0!
#225000
1!
b1111001 "
b111 #
06
0=
09
02
0-
0)
#226000
b10111 &
b10111 '
#230000
0!
#235000
1!
b10111101 "
b11100000 #
03
1?
1;
0/
17
1+
1(
1$
#236000
1%
b11000 &
b11000 '
#240000
0!
#245000
1!
b1100110 "
b10011100 #
15
11
1-
1)
#246000
b11001 &
b11001 '
#250000
0!
#255000
1!
b111001 "
b10011101 #
14
10
#256000
b11010 &
b11010 '
#260000
0!
#265000
1!
b11100110 "
b1001011 #
0?
13
04
00
1/
0;
07
0+
0(
0$
#266000
0%
b11011 &
b11011 '
#270000
0!
#275000
1!
b101000 "
b0 #
1@
05
03
14
10
0/
01
1<
0-
0)
#276000
b11100 &
b11100 '
#280000
0!
#285000
1!
b1001110 "
b1101001 #
1=
04
00
19
17
1+
1(
1$
#286000
1%
b11101 &
b11101 '
#290000
0!
#295000
1!
b1101001 "
b1110000 #
#296000
b11110 &
b11110 '
#300000
0!
#305000
1!
b1100 "
b10011111 #
1?
0@
16
13
1/
12
0<
1;
1-
1)
#306000
b11111 &
b11111 '
#310000
0!
#315000
1!
b1001001 "
b10111110 #
15
06
02
11
#316000
b100000 &
b100000 '
#320000
0!
#325000
1!
b10101 "
b1101101 #
03
14
10
0/
#326000
b100001 &
b100001 '
#330000
0!
#335000
1!
b1111111 "
b10000100 #
0=
05
04
00
01
09
0-
0)
#336000
b100010 &
b100010 '
#340000
0!
#345000
1!
b11110 "
b1101000 #
1=
19
#346000
b100011 &
b100011 '
#350000
0!
#355000
1!
b1001111 "
b10001110 #
16
0=
1>
1:
09
12
#356000
b100100 &
b100100 '
#360000
0!
#365000
1!
b10001 "
b10110100 #
1=
0>
15
06
02
11
0:
19
1-
1)
#366000
b100101 &
b100101 '
#370000
0!
#375000
1!
b101000 "
b10111 #
0?
1@
0=
05
13
1/
01
09
1<
0;
07
0-
0)
0+
0(
0$
#376000
0%
b100110 &
b100110 '
#380000
0!
#385000
1!
b1110111 "
b1000011 #
03
14
10
0/
#386000
b100111 &
b100111 '
#390000
0!
#395000
1!
b10110010 "
b10011101 #
15
04
00
11
1-
1)
#396000
b101000 &
b101000 '
#400000
0!
#405000
1!
b0 "
b10100001 #
05
16
1?
0@
1=
13
1/
19
0<
1;
12
01
17
1+
1(
1$
#406000
1%
b101001 &
b101001 '
#410000
0!
#415000
1!
b101 "
b10100101 #
03
14
10
0/
0-
1.
1*
0)
#416000
b101010 &
b101010 '
#420000
0!
#425000
1!
b10101001 "
b101010 #
13
04
0?
0=
1>
1:
09
0;
00
1/
1-
0.
07
0+
0*
1)
0(
0$
#426000
0%
b101011 &
b101011 '
#430000
0!
#435000
1!
b11011100 "
b111011 #
1=
0>
06
02
0:
19
0-
0)
#436000
b101100 &
b101100 '
#440000
0!
#445000
1!
b11011110 "
b10111111 #
16
12
1-
1)
#446000
b101101 &
b101101 '
#450000
0!
#455000
1!
b11100001 "
b10110110 #
15
06
02
11
#456000
b101110 &
b101110 '
#460000
0!
#465000
1!
b1100110 "
b1101001 #
0=
1>
1@
03
0/
1<
1:
09
18
1,
1(
1$
#466000
1%
b101111 &
b101111 '
#470000
0!
#475000
1!
b1011111 "
b1001100 #
0>
05
16
12
01
0:
08
0-
0)
0,
0(
0$
#476000
0%
b110000 &
b110000 '
#480000
0!
#485000
1!
b11011100 "
b0 #
06
0@
14
10
0<
02
#486000
b110001 &
b110001 '
#490000
0!
#495000
1!
b10100111 "
b1010011 #
#496000
b110010 &
b110010 '
#500000
0!
#505000
1!
b11000110 "
b1110110 #
16
1=
19
12
1.
1*
#506000
b110011 &
b110011 '
#510000
0!
#515000
1!
b1110000 "
b11111000 #
1?
0=
1>
15
06
02
11
1:
09
1;
17
1-
0.
0*
1)
1+
1(
1$
#516000
1%
b110100 &
b110100 '
#520000
0!
#525000
1!
b110010 "
b11010101 #
0>
04
00
0:
#526000
b110101 &
b110101 '
#530000
0!
#535000
1!
b1001 "
b1101000 #
1=
05
16
12
01
19
0-
0)
#536000
b110110 &
b110110 '
#540000
0!
#545000
1!
b11001 "
b11011100 #
15
06
0=
1>
1:
09
02
11
1-
1)
#546000
b110111 &
b110111 '
#550000
0!
#555000
1!
b10001111 "
b11000111 #
05
14
10
01
0-
0)
#556000
b111000 &
b111000 '
#560000
0!
#565000
1!
b11101 "
b11101110 #
16
1=
0>
13
04
00
1/
0:
19
12
1-
1)
#566000
b111001 &
b111001 '
#570000
0!
#575000
1!
b11110010 "
b1100011 #
0?
0=
09
0;
07
0+
0(
0$
#576000
0%
b111010 &
b111010 '
#580000
0!
#585000
1!
b100000 "
b11000101 #
15
06
1?
1;
02
11
17
1+
1(
1$
#586000
1%
b111011 &
b111011 '
#590000
0!
#595000
1!
b11010010 "
b1101011 #
0?
1=
19
0;
07
0+
0(
0$
#596000
0%
b111100 &
b111100 '
#600000
0!
#605000
1!
b1000 "
b1011110 #
1?
1;
17
1+
1(
1$
#606000
1%
b111101 &
b111101 '
#610000
0!
#615000
1!
b101111 "
b10000000 #
0=
05
03
0/
01
09
0-
0)
#616000
b111110 &
b111110 '
#620000
0!
#625000
1!
b10010110 "
b10111111 #
0?
1@
1=
15
13
1/
11
19
1<
0;
1-
1)
#626000
b111111 &
b111111 '
#630000
0!
#635000
1!
b111100 "
b1010000 #
1?
0@
0=
05
03
14
10
0/
01
09
0<
1;
0-
0)
#636000
b1000000 &
b1000000 '
#640000
0!
#645000
1!
b111000 "
b1001 #
0?
1@
13
04
16
12
00
1/
1<
0;
07
1-
1)
0+
0(
0$
#646000
0%
b1000001 &
b1000001 '
#650000
0!
#655000
1!
b100101 "
b100001 #
1>
06
03
14
10
0/
02
1:
18
0-
0)
1,
#656000
b1000010 &
b1000010 '
#660000
0!
#665000
1!
b1101111 #
1?
0@
15
13
04
00
1/
11
0<
1;
17
08
1-
1)
0,
1+
1(
1$
#666000
1%
b1000011 &
b1000011 '
#670000
0!
#675000
1!
b1000101 "
b10110011 #
05
1=
0>
0:
19
01
0-
0)
#676000
b1000100 &
b1000100 '
#680000
0!
#685000
1!
b1001110 "
b11011000 #
03
0/
#686000
b1000101 &
b1000101 '
#690000
0!
#695000
1!
b1100101 "
b100000 #
0?
0=
1>
1:
09
0;
07
0+
0(
0$
#696000
0%
b1000110 &
b1000110 '
#700000
0!
#705000
1!
b11101 "
b110111 #
13
1@
1=
0>
0:
19
1<
1/
17
1+
1(
1$
#706000
1%
b1000111 &
b1000111 '
#710000
0!
#715000
1!
b1110011 "
b11110 #
0@
0=
15
03
0/
11
09
0<
07
1-
1)
0+
0(
0$
#716000
0%
b1001000 &
b1001000 '
#720000
0!
#725000
1!
b1101111 "
b11111100 #
1?
1=
05
16
12
01
19
1;
17
0-
0)
1+
1(
1$
#726000
1%
b1001001 &
b1001001 '
#730000
0!
#735000
1!
b1001011 "
b10111011 #
14
10
1.
1*
#736000
b1001010 &
b1001010 '
#740000
0!
#745000
1!
b1110101 "
b1000010 #
0?
1@
0=
06
13
04
00
1/
02
09
1<
0;
07
0.
0*
0+
0(
0$
#746000
0%
b1001011 &
b1001011 '
#750000
0!
#755000
1!
b11100 "
b1011000 #
1?
0@
1>
03
14
10
0/
1:
0<
1;
17
1+
1(
1$
#756000
1%
b1001100 &
b1001100 '
#760000
0!
#765000
1!
b100001 "
b11111010 #
1=
0>
15
13
04
00
1/
11
0:
19
1-
1)
#766000
b1001101 &
b1001101 '
#770000
0!
#775000
1!
b11011100 "
b110100 #
0?
05
03
14
10
0/
01
0;
07
0-
0)
0+
0(
0$
#776000
0%
b1001110 &
b1001110 '
#780000
0!
#785000
1!
b10111101 "
b10101000 #
1@
0=
04
00
09
1<
#786000
b1001111 &
b1001111 '
#790000
0!
#795000
1!
b110111 "
b1101001 #
1?
0@
15
11
0<
1;
17
1-
1)
1+
1(
1$
#796000
1%
b1010000 &
b1010000 '
#800000
0!
#805000
1!
b11000110 "
b10100011 #
05
0?
1=
13
1/
19
0;
01
07
0-
0)
0+
0(
0$
#806000
0%
b1010001 &
b1010001 '
#810000
0!
#815000
1!
b11110111 "
b1011101 #
15
0=
03
0/
09
11
1-
1)
#816000
b1010010 &
b1010010 '
#820000
0!
#825000
1!
b1101010 "
b11000010 #
1?
05
14
10
01
1;
17
0-
0)
1+
1(
1$
#826000
1%
b1010011 &
b1010011 '
#830000
0!
#835000
1!
b111101 "
b11110100 #
1>
04
00
1:
#836000
b1010100 &
b1010100 '
#840000
0!
#845000
1!
b10100001 "
b1011 #
13
0?
0>
15
11
0:
0;
1/
07
1-
1)
0+
0(
0$
#846000
0%
b1010101 &
b1010101 '
#850000
0!
#855000
1!
b11111110 "
b1101000 #
05
03
0/
01
0-
0)
#856000
b1010110 &
b1010110 '
#860000
0!
#865000
1!
b1111111 "
b111 #
14
10
#866000
b1010111 &
b1010111 '
#870000
0!
#875000
1!
b11000110 "
b10101111 #
1=
15
13
04
00
1/
11
19
1-
1)
#876000
b1011000 &
b1011000 '
#880000
0!
#885000
1!
b100 "
b11011000 #
1?
03
14
10
0/
1;
17
1+
1(
1$
#886000
1%
b1011001 &
b1011001 '
#890000
0!
#895000
1!
b10111110 "
b111010 #
0?
0=
1>
05
01
1:
09
0;
07
0-
0)
0+
0(
0$
#896000
0%
b1011010 &
b1011010 '
#900000
0!
#905000
1!
b11001000 "
b10011110 #
1=
0>
15
13
04
00
1/
11
0:
19
1-
1)
#906000
b1011011 &
b1011011 '
#910000
0!
#915000
1!
b111 "
b11010110 #
1?
05
16
03
0/
12
01
1;
17
0-
0)
1+
1(
1$
#916000
1%
b1011100 &
b1011100 '
#920000
0!
#925000
1!
b10000 "
b11011011 #
0=
1>
15
06
13
1/
02
11
1:
09
1-
1)
#926000
b1011101 &
b1011101 '
#930000
0!
#935000
1!
b10100010 "
b101 #
0?
0>
03
0/
0:
0;
07
0+
0(
0$
#936000
0%
b1011110 &
b1011110 '
#940000
0!
#945000
1!
b11100011 "
b1010000 #
05
16
12
01
0-
0)
#946000
b1011111 &
b1011111 '
#950000
0!
#955000
1!
b11100111 "
b10011000 #
15
06
02
11
1-
1)
#956000
b1100000 &
b1100000 '
#960000
0!
#965000
1!
b11100 "
b10100010 #
1?
1=
05
13
1/
01
19
1;
17
0-
0)
1+
1(
1$
#966000
1%
b1100001 &
b1100001 '
#970000
0!
#975000
1!
b1001111 "
b1001100 #
16
0?
1@
0=
1>
03
0/
1:
09
1<
0;
12
07
18
1,
0+
0(
0$
#976000
0%
b1100010 &
b1100010 '
#980000
0!
#985000
1!
b110010 "
b11100010 #
1?
0@
0>
14
10
0:
0<
1;
17
08
1.
1*
0,
1+
1(
1$
#986000
1%
b1100011 &
b1100011 '
#990000
0!
#995000
1!
b1011011 "
b11110110 #
1=
06
04
00
02
19
0.
0*
#996000
b1100100 &
b1100100 '
