Verision1/03_verif/Questasim/tb_COMP_8bit.vcd
$date
	Mon Nov 10 13:16:08 2025
$end
$version
	Questa Intel Starter FPGA Edition Version 2024.3
$end
$timescale
	1ps
$end

$scope module tb_COMP_8bit $end
$var reg 1 ! i_clk $end
$var reg 1 " i_rst_n $end
$var reg 8 # i_data_a [7:0] $end
$var reg 8 $ i_data_b [7:0] $end
$var reg 1 % o_less $end
$var reg 1 & w_expect $end
$var integer 32 ' test_count $end
$var integer 32 ( test_pass $end

$scope function f_expected_less $end
$upscope $end

$scope task Display_Result $end
$upscope $end

$scope module DUT $end
$var parameter 32 ) SIZE_DATA $end
$var wire 1 * i_data_a [7] $end
$var wire 1 + i_data_a [6] $end
$var wire 1 , i_data_a [5] $end
$var wire 1 - i_data_a [4] $end
$var wire 1 . i_data_a [3] $end
$var wire 1 / i_data_a [2] $end
$var wire 1 0 i_data_a [1] $end
$var wire 1 1 i_data_a [0] $end
$var wire 1 2 i_data_b [7] $end
$var wire 1 3 i_data_b [6] $end
$var wire 1 4 i_data_b [5] $end
$var wire 1 5 i_data_b [4] $end
$var wire 1 6 i_data_b [3] $end
$var wire 1 7 i_data_b [2] $end
$var wire 1 8 i_data_b [1] $end
$var wire 1 9 i_data_b [0] $end
$var reg 1 : o_less $end
$var reg 1 ; w_less_low $end
$var reg 1 < w_equal_low $end
$var reg 1 = w_less_high $end
$var reg 1 > w_equal_high $end

$scope module u_low $end
$var wire 1 . i_data_a [3] $end
$var wire 1 / i_data_a [2] $end
$var wire 1 0 i_data_a [1] $end
$var wire 1 1 i_data_a [0] $end
$var wire 1 6 i_data_b [3] $end
$var wire 1 7 i_data_b [2] $end
$var wire 1 8 i_data_b [1] $end
$var wire 1 9 i_data_b [0] $end
$var reg 1 ? o_less $end
$var reg 1 @ o_equal $end
$var reg 1 A w_less_low $end
$var reg 1 B w_equal_low $end
$var reg 1 C w_less_high $end
$var reg 1 D w_equal_high $end

$scope module u_low $end
$var wire 1 0 i_data_a [1] $end
$var wire 1 1 i_data_a [0] $end
$var wire 1 8 i_data_b [1] $end
$var wire 1 9 i_data_b [0] $end
$var reg 1 E o_less $end
$var reg 1 F o_equal $end
$upscope $end

$scope module u_high $end
$var wire 1 . i_data_a [1] $end
$var wire 1 / i_data_a [0] $end
$var wire 1 6 i_data_b [1] $end
$var wire 1 7 i_data_b [0] $end
$var reg 1 G o_less $end
$var reg 1 H o_equal $end
$upscope $end
$upscope $end

$scope module u_high $end
$var wire 1 * i_data_a [3] $end
$var wire 1 + i_data_a [2] $end
$var wire 1 , i_data_a [1] $end
$var wire 1 - i_data_a [0] $end
$var wire 1 2 i_data_b [3] $end
$var wire 1 3 i_data_b [2] $end
$var wire 1 4 i_data_b [1] $end
$var wire 1 5 i_data_b [0] $end
$var reg 1 I o_less $end
$var reg 1 J o_equal $end
$var reg 1 K w_less_low $end
$var reg 1 L w_equal_low $end
$var reg 1 M w_less_high $end
$var reg 1 N w_equal_high $end

$scope module u_low $end
$var wire 1 , i_data_a [1] $end
$var wire 1 - i_data_a [0] $end
$var wire 1 4 i_data_b [1] $end
$var wire 1 5 i_data_b [0] $end
$var reg 1 O o_less $end
$var reg 1 P o_equal $end
$upscope $end

$scope module u_high $end
$var wire 1 * i_data_a [1] $end
$var wire 1 + i_data_a [0] $end
$var wire 1 2 i_data_b [1] $end
$var wire 1 3 i_data_b [0] $end
$var reg 1 Q o_less $end
$var reg 1 R o_equal $end
$upscope $end
$upscope $end
$upscope $end
$upscope $end
$enddefinitions $end
#0
$dumpvars
0!
x"
bx #
bx $
x%
x&
x:
x;
x<
x=
x>
x?
x@
xA
xB
xC
xD
xE
xF
xG
xH
xI
xJ
xK
xL
xM
xN
xO
xP
xQ
xR
b1000 )
b0 '
b0 (
x9
x8
x7
x6
x5
x4
x3
x2
x1
x0
x/
x.
x-
x,
x+
x*
$end
#5000
1!
b10100100 #
b11000110 $
09
18
17
06
05
04
13
12
01
00
1/
0.
0-
1,
0+
1*
1Q
0G
1E
0R
0O
0P
1H
0F
0B
1D
0L
0K
0N
1A
0C
1M
1I
1?
0J
0@
0<
0>
1;
1=
1:
1%
#6000
1&
b1 '
b1 (
#10000
0!
#15000
1!
b10011110 #
b10111110 $
16
15
14
03
10
1.
1-
0,
1F
0E
1R
0Q
1O
1K
0M
1N
0A
1B
1@
0?
0;
1<
#16000
b10 '
b10 (
#20000
0!
#25000
1!
b10001 #
b1000101 $
19
08
06
05
04
13
02
11
00
0/
0.
0*
1G
0R
1Q
0O
0H
0D
0K
1M
0N
1C
1?
0@
0<
1;
#26000
b11 '
b11 (
#30000
0!
#35000
1!
b10110001 #
b1111001 $
07
16
15
14
1,
1*
0Q
1P
1L
0M
0I
0=
0:
0%
#36000
0&
b100 '
b100 (
#40000
0!
#45000
1!
b111000 #
b101011 $
18
05
03
01
1.
0*
1H
0G
1R
0P
0F
1E
1A
0B
0L
1N
0C
1D
#46000
b101 '
b101 (
#50000
0!
#55000
1!
b0 #
b10001011 $
04
12
0.
0-
0,
0H
1G
0R
1Q
1P
1L
1M
0N
1C
0D
1I
1=
1:
1%
#56000
1&
b110 '
b110 (
#60000
0!
#65000
1!
b11010 #
b11110111 $
17
06
15
14
13
10
1.
1-
0G
0P
1O
1K
0L
0C
0?
0;
#66000
b111 '
b111 (
#70000
0!
#75000
1!
b101110 #
b111000 $
09
08
07
16
03
02
1/
0-
1,
0Q
1R
0E
0A
1N
0M
#76000
b1000 '
b1000 (
#80000
0!
#85000
1!
b10011001 #
b11110111 $
19
18
17
06
13
12
11
00
0/
1-
0,
1*
0R
1Q
1E
1A
1M
0N
#86000
b1001 '
b1001 (
#90000
0!
#95000
1!
b1010101 #
b1011 $
07
16
05
04
03
02
1/
0.
1+
0*
1G
0Q
0O
0K
0M
1C
1?
0I
0=
1;
0:
0%
#96000
0&
b1010 '
b1010 (
#100000
0!
#105000
1!
b11001001 #
b11101001 $
08
14
13
12
0/
1.
0-
1*
0G
1H
1R
1O
1F
0E
0A
1B
1K
1N
1D
0C
0?
1@
1I
1=
1<
0;
1:
1%
#106000
1&
b1011 '
b1011 (
#110000
0!
#115000
1!
b10101010 #
b1101 $
17
04
03
02
01
10
1,
0+
0F
0R
0O
0H
1G
1C
0D
0K
0N
0B
0I
0@
1?
1;
0<
0=
0:
0%
#116000
0&
b1100 '
b1100 (
#120000
0!
#125000
1!
b10001111 #
b1010111 $
18
06
15
13
11
1/
0,
1O
0G
1F
1B
0C
1K
0?
0;
#126000
b1101 '
b1101 (
#130000
0!
#135000
1!
b10000100 #
b10010010 $
09
07
03
12
01
00
0.
1E
1R
0F
0B
1N
1A
1I
1=
1:
1%
#136000
1&
b1110 '
b1110 (
#140000
0!
#145000
1!
b11100 #
b1010001 $
19
08
13
02
1.
1-
0*
1P
0O
0R
1Q
1M
0N
0K
1L
#146000
b1111 '
b1111 (
#150000
0!
#155000
1!
b10101110 #
b10110 $
09
18
17
03
10
0-
1,
1*
0P
0Q
1F
0E
0A
1B
0M
0L
0I
0=
0:
0%
#156000
0&
b10000 '
b10000 (
#160000
0!
#165000
1!
b110100 #
b11100 $
08
16
00
0.
1-
0*
1R
1G
1C
1N
1?
1;
#166000
b10001 '
b10001 (
#170000
0!
#175000
1!
b11010111 #
b11101010 $
18
07
05
14
13
12
11
10
0,
1+
1*
1O
0F
0B
1K
1I
1=
1:
1%
#176000
1&
b10010 '
b10010 (
#180000
0!
#185000
1!
b11000 #
b1001000 $
08
04
02
01
00
0/
1.
0+
0*
1Q
0G
1H
0R
0O
1F
1B
0K
0N
1D
0C
1M
0?
1@
1<
0;
#186000
b10011 '
b10011 (
#190000
0!
#195000
1!
b1111111 #
b100001 $
19
06
14
03
11
10
1/
1,
1+
0Q
0H
0F
0B
0D
0M
0I
0@
0<
0=
0:
0%
#196000
0&
b10100 '
b10100 (
#200000
0!
#205000
1!
b1011001 #
b11000111 $
18
17
04
13
12
00
0/
0,
1E
1Q
1M
1A
1I
1=
1:
1%
#206000
1&
b10101 '
b10101 (
#210000
0!
#215000
1!
b11101010 #
b111011 $
07
16
15
14
03
02
01
10
0-
1,
1*
0Q
1O
1H
1D
1K
0M
0I
1?
1;
0=
0:
0%
#216000
0&
b10110 '
b10110 (
#220000
0!
#225000
1!
b1111001 #
b111 $
17
06
05
04
11
00
1-
0*
0O
0H
0D
0K
0?
0;
#226000
b10111 '
b10111 (
#230000
0!
#235000
1!
b10111101 #
b11100000 $
09
08
07
14
13
12
1/
0+
1*
1Q
0E
0A
1M
1I
1=
1:
1%
#236000
1&
b11000 '
b11000 (
#240000
0!
#245000
1!
b1100110 #
b10011100 $
17
16
15
04
03
01
10
0.
0-
1+
0*
1G
1C
1?
1;
#246000
b11001 '
b11001 (
#250000
0!
#255000
1!
b111001 #
b10011101 $
19
11
00
0/
1.
1-
0+
1F
1B
#256000
b11010 '
b11010 (
#260000
0!
#265000
1!
b11100110 #
b1001011 $
18
07
05
13
02
01
10
1/
0.
0-
1+
1*
0Q
0F
1E
1A
0B
0M
0I
0=
0:
0%
#266000
0&
b11011 '
b11011 (
#270000
0!
#275000
1!
b101000 #
b0 $
09
08
06
03
00
0/
1.
0+
0*
1R
0G
1F
0E
0A
1B
0C
1N
0?
0;
#276000
b11100 '
b11100 (
#280000
0!
#285000
1!
b1001110 #
b1101001 $
19
16
14
13
10
1/
0,
1+
1O
0F
0B
1K
1I
1=
1:
1%
#286000
1&
b11101 '
b11101 (
#290000
0!
#295000
1!
b1101001 #
b1110000 $
09
06
15
11
00
0/
1,
#296000
b11110 '
b11110 (
#300000
0!
#305000
1!
b1100 #
b10011111 $
19
18
17
16
04
03
12
01
1/
0,
0+
1Q
0R
1H
1E
1A
1D
0N
1M
1?
1;
#306000
b11111 '
b11111 (
#310000
0!
#315000
1!
b1001001 #
b10111110 $
09
14
11
0/
1+
0H
1G
1C
0D
#316000
b100000 '
b100000 (
#320000
0!
#325000
1!
b10101 #
b1101101 $
19
08
05
13
02
1/
0.
1-
0+
0E
1F
1B
0A
#326000
b100001 '
b100001 (
#330000
0!
#335000
1!
b1111111 #
b10000100 $
09
06
04
03
12
10
1.
1,
1+
0O
0G
0F
0B
0C
0K
0?
0;
#336000
b100010 '
b100010 (
#340000
0!
#345000
1!
b11110 #
b1101000 $
07
16
14
13
02
01
0,
0+
1O
1K
#346000
b100011 '
b100011 (
#350000
0!
#355000
1!
b1001111 #
b10001110 $
18
17
04
03
12
11
0-
1+
1P
0O
1H
1D
0K
1L
#356000
b100100 '
b100100 (
#360000
0!
#365000
1!
b10001 #
b10110100 $
08
06
15
14
00
0/
0.
1-
0+
1G
0P
1O
0H
0D
1K
0L
1C
1?
1;
#366000
b100101 '
b100101 (
#370000
0!
#375000
1!
b101000 #
b10111 $
19
18
04
02
01
1.
0-
1,
0G
1R
0Q
0O
1E
1A
0K
0M
1N
0C
0?
0I
0=
0;
0:
0%
#376000
0&
b100110 '
b100110 (
#380000
0!
#385000
1!
b1110111 #
b1000011 $
07
05
13
11
10
1/
0.
1-
1+
0E
1F
1B
0A
#386000
b100111 '
b100111 (
#390000
0!
#395000
1!
b10110010 #
b10011101 $
08
17
16
15
03
12
01
0/
0+
1*
1G
0F
0B
1C
1?
1;
#396000
b101000 '
b101000 (
#400000
0!
#405000
1!
b0 #
b10100001 $
07
06
05
14
00
0-
0,
0*
0R
1Q
1O
1E
0G
1H
1D
0C
1A
1K
1M
0N
1I
1=
1:
1%
#406000
1&
b101001 '
b101001 (
#410000
0!
#415000
1!
b101 #
b10100101 $
17
11
1/
1F
0E
0A
1B
1@
0?
0;
1<
#416000
b101010 '
b101010 (
#420000
0!
#425000
1!
b10101001 #
b101010 $
09
18
07
16
02
0/
1.
1,
1*
1P
0O
0Q
1E
0F
0B
1A
0M
0K
1L
0I
1?
0@
0<
1;
0=
0:
0%
#426000
0&
b101011 '
b101011 (
#430000
0!
#435000
1!
b11011100 #
b111011 $
19
15
01
1/
1-
0,
1+
0H
0P
1O
1K
0L
0D
0?
0;
#436000
b101100 '
b101100 (
#440000
0!
#445000
1!
b11011110 #
b10111111 $
17
12
10
1H
1D
1?
1;
#446000
b101101 '
b101101 (
#450000
0!
#455000
1!
b11100001 #
b10110110 $
09
06
11
00
0/
0.
0-
1,
1G
0H
0D
1C
#456000
b101110 '
b101110 (
#460000
0!
#465000
1!
b1100110 #
b1101001 $
19
08
07
16
05
13
02
01
10
1/
0*
1R
1P
0O
0E
0A
0K
1L
1N
1J
1>
1:
1%
#466000
1&
b101111 '
b101111 (
#470000
0!
#475000
1!
b1011111 #
b1001100 $
09
17
04
11
1.
1-
0,
0G
0P
1H
1D
0L
0C
0?
0J
0>
0;
0:
0%
#476000
0&
b110000 '
b110000 (
#480000
0!
#485000
1!
b11011100 #
b0 $
07
06
03
01
00
1*
1F
0R
0H
0D
0N
1B
#486000
b110001 '
b110001 (
#490000
0!
#495000
1!
b10100111 #
b1010011 $
19
18
15
13
11
10
0.
0-
1,
0+
#496000
b110010 '
b110010 (
#500000
0!
#505000
1!
b11000110 #
b1110110 $
09
17
14
01
0,
1+
1O
1H
1D
1K
1@
1<
#506000
b110011 '
b110011 (
#510000
0!
#515000
1!
b1110000 #
b11111000 $
08
07
16
12
00
0/
1-
1,
0*
1Q
0O
1P
1G
0H
0D
1C
1L
0K
1M
1I
1?
0@
0<
1;
1=
1:
1%
#516000
1&
b110100 '
b110100 (
#520000
0!
#525000
1!
b110010 #
b11010101 $
19
17
06
04
10
0+
0P
0F
0B
0L
#526000
b110101 '
b110101 (
#530000
0!
#535000
1!
b1001 #
b1101000 $
09
07
16
05
14
02
11
00
1.
0-
0,
1O
1H
0G
0C
1D
1K
0?
0;
#536000
b110110 '
b110110 (
#540000
0!
#545000
1!
b11001 #
b11011100 $
17
15
04
12
1-
0O
1P
0H
1G
1C
0D
1L
0K
1?
1;
#546000
b110111 '
b110111 (
#550000
0!
#555000
1!
b10001111 #
b11000111 $
19
18
06
05
10
1/
0-
1*
0G
1F
1B
0C
0?
0;
#556000
b111000 '
b111000 (
#560000
0!
#565000
1!
b11101 #
b11101110 $
09
16
14
00
1-
0*
1E
0P
1O
1H
0F
0B
1D
1K
0L
1A
1?
1;
#566000
b111001 '
b111001 (
#570000
0!
#575000
1!
b11110010 #
b1100011 $
19
07
06
02
01
10
0/
0.
1,
1+
1*
0Q
0O
0K
0M
0I
0=
0:
0%
#576000
0&
b111010 '
b111010 (
#580000
0!
#585000
1!
b100000 #
b11000101 $
08
17
04
12
00
0-
0+
0*
1Q
0H
1G
1C
0D
1M
1I
1=
1:
1%
#586000
1&
b111011 '
b111011 (
#590000
0!
#595000
1!
b11010010 #
b1101011 $
18
07
16
14
02
10
1-
0,
1+
1*
0Q
1O
1K
0M
0I
0=
0:
0%
#596000
0&
b111100 '
b111100 (
#600000
0!
#605000
1!
b1000 #
b1011110 $
09
17
15
04
00
1.
0-
0+
0*
1Q
1M
1I
1=
1:
1%
#606000
1&
b111101 '
b111101 (
#610000
0!
#615000
1!
b101111 #
b10000000 $
08
07
06
05
03
12
11
10
1/
1,
0O
0G
0E
0A
0C
0K
0?
0;
#616000
b111110 '
b111110 (
#620000
0!
#625000
1!
b10010110 #
b10111111 $
19
18
17
16
15
14
01
0.
1-
0,
1*
1R
0Q
1G
1E
1O
1K
1A
1C
0M
1N
1?
1;
#626000
b111111 '
b111111 (
#630000
0!
#635000
1!
b111100 #
b1010000 $
09
08
07
06
04
13
02
00
1.
1,
0*
0R
1Q
0O
0G
1F
0E
0A
1B
0C
0K
1M
0N
0?
0;
#636000
b1000000 '
b1000000 (
#640000
0!
#645000
1!
b111000 #
b1001 $
19
16
05
03
0/
1R
0Q
1H
0F
1E
1A
0B
1D
0M
1N
0I
1?
1;
0=
0:
0%
#646000
0&
b1000001 '
b1000001 (
#650000
0!
#655000
1!
b100101 #
b100001 $
06
14
11
1/
0.
0-
1F
0E
1P
0H
0D
1L
0A
1B
1J
0?
0;
1>
#656000
b1000010 '
b1000010 (
#660000
0!
#665000
1!
b1101111 $
18
17
16
13
0R
1Q
1G
0F
1E
1A
0B
1C
1M
0N
0J
1I
1?
1;
1=
0>
1:
1%
#666000
1&
b1000011 '
b1000011 (
#670000
0!
#675000
1!
b1000101 #
b10110011 $
07
06
15
03
12
0,
1+
0P
1O
0G
0C
1K
0L
0?
0;
#676000
b1000100 '
b1000100 (
#680000
0!
#685000
1!
b1001110 #
b11011000 $
09
08
16
04
13
01
10
1.
0E
0A
#686000
b1000101 '
b1000101 (
#690000
0!
#695000
1!
b1100101 #
b100000 $
06
05
14
03
02
11
00
0.
1,
0Q
1P
0O
0K
1L
0M
0I
0=
0:
0%
#696000
0&
b1000110 '
b1000110 (
#700000
0!
#705000
1!
b11101 #
b110111 $
19
18
17
15
1.
1-
0,
0+
1R
0P
1O
1E
1A
1K
0L
1N
1I
1=
1:
1%
#706000
1&
b1000111 '
b1000111 (
#710000
0!
#715000
1!
b1110011 #
b11110 $
09
16
04
10
0/
0.
1,
1+
0R
1G
0E
0O
0K
0A
1C
0N
1?
0I
0=
1;
0:
0%
#716000
0&
b1001000 '
b1001000 (
#720000
0!
#725000
1!
b1101111 #
b11111100 $
08
14
13
12
1/
1.
0-
1O
0G
1H
1Q
1M
1D
0C
1K
0?
1I
1=
0;
1:
1%
#726000
1&
b1001001 '
b1001001 (
#730000
0!
#735000
1!
b1001011 #
b10111011 $
19
18
07
03
0/
0,
1F
1B
1@
1<
#736000
b1001010 '
b1001010 (
#740000
0!
#745000
1!
b1110101 #
b1000010 $
09
06
05
04
13
02
00
1/
0.
1-
1,
1E
0Q
1R
0O
0H
0F
0B
0D
0K
1N
0M
1A
0I
0@
0<
0=
0:
0%
#746000
0&
b1001011 '
b1001011 (
#750000
0!
#755000
1!
b11100 #
b1011000 $
08
16
15
01
1.
0,
0+
0R
1Q
1P
1F
0E
0A
1B
1L
1M
0N
1I
1=
1:
1%
#756000
1&
b1001100 '
b1001100 (
#760000
0!
#765000
1!
b100001 #
b11111010 $
18
14
12
11
0/
0.
0-
1,
1G
0P
1O
0F
1E
1A
0B
1K
0L
1C
1?
1;
#766000
b1001101 '
b1001101 (
#770000
0!
#775000
1!
b11011100 #
b110100 $
08
17
06
03
02
01
1/
1.
1-
0,
1+
1*
0G
0Q
1F
0E
0A
1B
0M
0C
0?
0I
0=
0;
0:
0%
#776000
0&
b1001110 '
b1001110 (
#780000
0!
#785000
1!
b10111101 #
b10101000 $
07
16
05
12
11
1,
0+
0O
0F
1R
1N
0B
0K
#786000
b1001111 '
b1001111 (
#790000
0!
#795000
1!
b110111 #
b1101001 $
19
13
02
10
0.
0*
1G
0R
1Q
1M
0N
1C
1?
1I
1=
1;
1:
1%
#796000
1&
b1010000 '
b1010000 (
#800000
0!
#805000
1!
b11000110 #
b10100011 $
18
06
03
12
01
0-
0,
1+
1*
1O
1E
0Q
0G
0C
0M
1A
1K
0I
0?
0;
0=
0:
0%
#806000
0&
b1010001 '
b1010001 (
#810000
0!
#815000
1!
b11110111 #
b1011101 $
08
17
16
15
04
13
02
11
1-
1,
0O
1G
0E
0A
1C
0K
1?
1;
#816000
b1010010 '
b1010010 (
#820000
0!
#825000
1!
b1101010 #
b11000010 $
09
18
07
06
05
12
01
0/
1.
0-
0*
1Q
0G
1F
1B
0C
1M
1I
0?
0;
1=
1:
1%
#826000
1&
b1010011 '
b1010011 (
#830000
0!
#835000
1!
b111101 #
b11110100 $
08
17
15
14
11
00
1/
1-
0+
1P
0F
0B
1L
#836000
b1010100 '
b1010100 (
#840000
0!
#845000
1!
b10100001 #
b1011 $
19
18
07
16
05
04
03
02
0/
0.
0-
1*
1G
0Q
0P
1E
1A
0L
0M
1C
1?
0I
0=
1;
0:
0%
#846000
0&
b1010101 '
b1010101 (
#850000
0!
#855000
1!
b11111110 #
b1101000 $
09
08
14
13
01
10
1/
1.
1-
1+
0G
0E
0A
0C
0?
0;
#856000
b1010110 '
b1010110 (
#860000
0!
#865000
1!
b1111111 #
b111 $
19
18
17
06
04
03
11
0*
1F
1B
#866000
b1010111 '
b1010111 (
#870000
0!
#875000
1!
b11000110 #
b10101111 $
16
14
12
01
0.
0-
0,
1*
1O
1G
0F
1E
1A
0B
1C
1K
1?
1;
#876000
b1011000 '
b1011000 (
#880000
0!
#885000
1!
b100 #
b11011000 $
09
08
07
15
04
13
00
0+
0*
1Q
1F
0E
0A
1B
1M
1I
1=
1:
1%
#886000
1&
b1011001 '
b1011001 (
#890000
0!
#895000
1!
b10111110 #
b111010 $
18
14
03
02
10
1.
1-
1,
1*
0O
0G
0Q
1P
1L
0M
0C
0K
0?
0I
0=
0;
0:
0%
#896000
0&
b1011010 '
b1011010 (
#900000
0!
#905000
1!
b11001000 #
b10011110 $
17
04
12
00
0/
0-
0,
1+
1O
1G
0F
1E
0P
0L
1A
0B
1C
1K
1?
1;
#906000
b1011011 '
b1011011 (
#910000
0!
#915000
1!
b111 #
b11010110 $
06
13
11
10
1/
0.
0+
0*
1Q
0E
1H
0G
0C
1D
0A
1M
1I
0?
0;
1=
1:
1%
#916000
1&
b1011100 '
b1011100 (
#920000
0!
#925000
1!
b10000 #
b11011011 $
19
07
16
01
00
0/
1-
1P
0O
1E
1G
0H
0D
1C
1A
0K
1L
1?
1;
#926000
b1011101 '
b1011101 (
#930000
0!
#935000
1!
b10100010 #
b101 $
08
17
06
05
03
02
10
0-
1,
1*
0E
0Q
0P
0L
0M
0A
0I
0=
0:
0%
#936000
0&
b1011110 '
b1011110 (
#940000
0!
#945000
1!
b11100011 #
b1010000 $
09
07
15
13
11
1+
1H
0G
0C
1D
0?
0;
#946000
b1011111 '
b1011111 (
#950000
0!
#955000
1!
b11100111 #
b10011000 $
16
03
12
1/
0H
1G
1C
0D
1?
1;
#956000
b1100000 '
b1100000 (
#960000
0!
#965000
1!
b11100 #
b10100010 $
18
06
05
14
01
00
1.
1-
0,
0+
0*
1Q
1O
1E
0G
0C
1A
1K
1M
1I
0?
0;
1=
1:
1%
#966000
1&
b1100001 '
b1100001 (
#970000
0!
#975000
1!
b1001111 #
b1001100 $
08
17
16
04
13
02
11
10
0-
1+
0Q
1R
1P
0O
1H
0E
0A
1D
0K
1L
1N
0M
0I
1J
1>
0=
0:
0%
#976000
0&
b1100010 '
b1100010 (
#980000
0!
#985000
1!
b110010 #
b11100010 $
18
07
06
14
12
01
0/
0.
1-
1,
0+
0R
1Q
0P
1F
1B
0L
1M
0N
1I
0J
1@
1<
0>
1=
1:
1%
#986000
1&
b1100011 '
b1100011 (
#990000
0!
#995000
1!
b1011011 #
b11110110 $
17
15
11
1.
0,
1+
1O
0F
0H
0D
0B
1K
0@
0<
#996000
b1100100 '
b1100100 (
