Verision1/03_verif/Questasim/tb_COMP_28bit.vcd
$date
	Mon Nov  3 19:27:35 2025
$end
$version
	Questa Intel Starter FPGA Edition Version 2024.3
$end
$timescale
	1ps
$end

$scope module tb_COMP_28bit $end
$var reg 1 ! i_clk $end
$var reg 28 " i_data_a [27:0] $end
$var reg 28 # i_data_b [27:0] $end
$var reg 1 $ o_less $end
$var reg 1 % w_expect $end
$var integer 32 & test_count $end
$var integer 32 ' test_pass $end

$scope function f_expected_less $end
$upscope $end

$scope task Display_Result $end
$upscope $end

$scope module DUT $end
$var reg 1 ( o_less $end
$var reg 1 ) w_less_0_0 $end
$var reg 1 * w_less_0_1 $end
$var reg 1 + w_less_0_2 $end
$var reg 1 , w_less_0_3 $end
$var reg 1 - w_less_0_4 $end
$var reg 1 . w_less_0_5 $end
$var reg 1 / w_less_0_6 $end
$var reg 1 0 w_equal_0_0 $end
$var reg 1 1 w_equal_0_1 $end
$var reg 1 2 w_equal_0_2 $end
$var reg 1 3 w_equal_0_3 $end
$var reg 1 4 w_equal_0_4 $end
$var reg 1 5 w_equal_0_5 $end
$var reg 1 6 w_equal_0_6 $end

$scope module u_i_data_0 $end
$var reg 1 7 o_less $end
$var reg 1 8 o_equal $end
$var reg 1 9 w_less_low $end
$var reg 1 : w_equal_low $end
$var reg 1 ; w_less_high $end
$var reg 1 < w_equal_high $end

$scope module u_low $end
$var reg 1 = o_less $end
$var reg 1 > o_equal $end
$upscope $end

$scope module u_high $end
$var reg 1 ? o_less $end
$var reg 1 @ o_equal $end
$upscope $end
$upscope $end

$scope module u_i_data_1 $end
$var reg 1 A o_less $end
$var reg 1 B o_equal $end
$var reg 1 C w_less_low $end
$var reg 1 D w_equal_low $end
$var reg 1 E w_less_high $end
$var reg 1 F w_equal_high $end

$scope module u_low $end
$var reg 1 G o_less $end
$var reg 1 H o_equal $end
$upscope $end

$scope module u_high $end
$var reg 1 I o_less $end
$var reg 1 J o_equal $end
$upscope $end
$upscope $end

$scope module u_i_data_2 $end
$var reg 1 K o_less $end
$var reg 1 L o_equal $end
$var reg 1 M w_less_low $end
$var reg 1 N w_equal_low $end
$var reg 1 O w_less_high $end
$var reg 1 P w_equal_high $end

$scope module u_low $end
$var reg 1 Q o_less $end
$var reg 1 R o_equal $end
$upscope $end

$scope module u_high $end
$var reg 1 S o_less $end
$var reg 1 T o_equal $end
$upscope $end
$upscope $end

$scope module u_i_data_3 $end
$var reg 1 U o_less $end
$var reg 1 V o_equal $end
$var reg 1 W w_less_low $end
$var reg 1 X w_equal_low $end
$var reg 1 Y w_less_high $end
$var reg 1 Z w_equal_high $end

$scope module u_low $end
$var reg 1 [ o_less $end
$var reg 1 \ o_equal $end
$upscope $end

$scope module u_high $end
$var reg 1 ] o_less $end
$var reg 1 ^ o_equal $end
$upscope $end
$upscope $end

$scope module u_i_data_4 $end
$var reg 1 _ o_less $end
$var reg 1 ` o_equal $end
$var reg 1 a w_less_low $end
$var reg 1 b w_equal_low $end
$var reg 1 c w_less_high $end
$var reg 1 d w_equal_high $end

$scope module u_low $end
$var reg 1 e o_less $end
$var reg 1 f o_equal $end
$upscope $end

$scope module u_high $end
$var reg 1 g o_less $end
$var reg 1 h o_equal $end
$upscope $end
$upscope $end

$scope module u_i_data_5 $end
$var reg 1 i o_less $end
$var reg 1 j o_equal $end
$var reg 1 k w_less_low $end
$var reg 1 l w_equal_low $end
$var reg 1 m w_less_high $end
$var reg 1 n w_equal_high $end

$scope module u_low $end
$var reg 1 o o_less $end
$var reg 1 p o_equal $end
$upscope $end

$scope module u_high $end
$var reg 1 q o_less $end
$var reg 1 r o_equal $end
$upscope $end
$upscope $end

$scope module u_i_data_6 $end
$var reg 1 s o_less $end
$var reg 1 t o_equal $end
$var reg 1 u w_less_low $end
$var reg 1 v w_equal_low $end
$var reg 1 w w_less_high $end
$var reg 1 x w_equal_high $end

$scope module u_low $end
$var reg 1 y o_less $end
$var reg 1 z o_equal $end
$upscope $end

$scope module u_high $end
$var reg 1 { o_less $end
$var reg 1 | o_equal $end
$upscope $end
$upscope $end
$upscope $end
$upscope $end
$enddefinitions $end
#0
$dumpvars
0!
b0 "
b0 #
0$
x%
0(
0)
0*
0+
0,
0-
0.
0/
10
11
12
13
14
15
16
07
18
09
1:
0;
1<
0=
1>
0?
1@
0A
1B
0C
1D
0E
1F
0G
1H
0I
1J
0K
1L
0M
1N
0O
1P
0Q
1R
0S
1T
0U
1V
0W
1X
0Y
1Z
0[
1\
0]
1^
0_
1`
0a
1b
0c
1d
0e
1f
0g
1h
0i
1j
0k
1l
0m
1n
0o
1p
0q
1r
0s
1t
0u
1v
0w
1x
0y
1z
0{
1|
b0 &
b0 '
$end
#5000
1!
b11001100110111110110100100 "
b110100001001100011111000110 #
1{
0|
1q
0r
1g
0h
1=
0>
0z
0p
0f
1]
0^
0\
0T
1Q
0R
1I
0J
0H
0D
0F
1E
0N
1M
0P
0X
0Z
1Y
0b
0l
0v
0:
19
0d
1c
0n
1m
0x
1w
1s
1i
1_
17
08
0t
0j
0`
1U
0V
0L
1A
0B
01
1*
02
03
1,
04
05
06
00
1)
1-
1.
1/
1(
1$
#6000
1%
b1 &
b1 '
#10000
0!
#15000
1!
b1000011110110100110011110 "
b111110111101001111010111110 #
0I
1J
1y
1o
0g
1h
1S
1G
0=
1>
1:
09
1C
1O
1d
0c
1k
1u
1F
0E
0_
1K
07
18
10
0)
1+
0-
#16000
b10 &
b10 '
#20000
0!
#25000
1!
b1001011000011100100000010001 "
b1011100011111101011101000101 #
0S
0G
0{
1|
0o
1g
0h
1e
0]
1^
1[
1I
0J
1?
0@
0<
1;
0F
1E
1W
1Z
0Y
1a
0d
1c
0k
1x
0w
0C
0O
0K
1_
17
08
00
1)
1-
0+
#26000
b11 &
b11 '
#30000
0!
#35000
1!
b1101110011011110010110110001 "
b11100011110110101101111001 #
0^
0|
0q
1p
0g
1h
0[
1\
1S
0I
1H
1D
0E
1O
1X
0W
1d
0c
1l
0m
0x
0Z
0s
0i
0U
1K
0A
0*
1+
0,
0.
0/
0(
0$
#36000
0%
b100 &
b100 '
#40000
0!
#45000
1!
b10010110010011111000111000 "
b1101010001000000010000101011 #
0e
0H
1{
0y
1r
0p
0h
1^
0\
0S
0Q
1J
0?
1@
1=
0>
0:
19
1<
0;
1F
0M
0O
0X
1Z
0d
0l
1n
0u
1w
0D
0a
1s
0_
0K
0+
0-
1/
1(
1$
#46000
1%
b101 &
b101 '
#50000
0!
#55000
1!
b1010101001111101110100000000 "
b100111010100100110010001011 #
1T
1I
0J
0{
1q
0r
1p
1g
0^
1H
1?
0@
0<
1;
1D
0Z
1c
1l
0n
1m
0w
0F
1E
1P
1A
0s
1i
1_
1-
1.
0/
1*
0(
0$
#56000
0%
b110 &
b110 '
#60000
0!
#65000
1!
b10001011010110000000011010 "
b1001000110011010000011110111 #
0p
1{
0q
1r
0g
1f
1]
1\
1R
1G
0H
0?
0;
0D
1C
1N
1X
1Y
1b
0c
1n
0m
1w
0l
1s
0i
0_
1U
1L
07
0)
12
1,
0-
0.
1/
1(
1$
#66000
1%
b111 &
b111 '
#70000
0!
#75000
1!
b10011110001000000100101110 "
b1000110110000001110100111000 #
1S
0T
0I
1J
0=
1q
0r
1h
0]
1[
0\
0X
1W
0Y
1d
0n
1m
09
1F
0E
0P
1O
1K
0L
1i
1`
0U
0,
14
1.
02
1+
#76000
b1000 &
b1000 '
#80000
0!
#85000
1!
b10110000000011010011001 "
b100011000001001001111110111 #
0q
1r
0h
1z
1o
1]
0S
1Q
0R
1I
0J
1=
19
0F
1E
0N
1M
0O
1Y
1k
1v
0d
1n
0m
0`
1U
0K
0+
1,
04
#86000
b1001 &
b1001 '
#90000
0!
#95000
1!
b110001101010101000001010101 "
b100010111100111110000001011 #
0G
0{
1|
0z
1q
0r
0o
1g
1e
0f
0]
1^
1S
0Q
1R
0I
1?
1;
0E
1N
0M
1O
1Z
0Y
0b
1a
1c
0k
0n
1m
0v
1x
0w
0C
0s
1_
1K
0A
17
1)
0*
1+
1-
0/
0(
0$
#96000
0%
b1010 &
b1010 '
#100000
0!
#105000
1!
b10000011111100011011001001 "
b1011111100000100111101001 #
0=
1>
1o
0g
1h
0e
0^
0[
1\
0R
1J
1G
0?
1@
1<
0;
1C
1F
0N
1X
0W
0Z
0a
1d
0c
1k
1:
09
0_
0U
1A
07
18
10
0)
1*
0,
0-
#106000
b1011 &
b1011 '
#110000
0!
#115000
1!
b101111110010010111010101010 "
b11010001101101100001101 #
1Q
1?
0@
0|
0q
0o
1]
0\
0S
0J
0G
0>
0:
0C
0F
0O
0X
1Y
0k
0m
0x
0<
1;
1M
17
0i
1U
0K
0A
08
00
0*
0+
1,
0.
1)
#116000
b1100 &
b1100 '
#120000
0!
#125000
1!
b1010010100111100111110001111 "
b1000000110011011110001010111 #
1T
1|
1p
1g
0h
0]
1[
0Q
1G
0?
1>
1:
0;
1C
0M
1W
0Y
0d
1c
1l
1x
1P
1_
0U
07
0)
0,
1-
#126000
b1101 &
b1101 '
#130000
0!
#135000
1!
b1000000110011001000110000100 "
b10101111011000101010010010 #
0|
1o
0p
1J
1y
1q
1f
1^
0[
1S
0T
1Q
1=
0>
0:
19
1M
0P
1O
0W
1Z
1b
1m
1u
1F
0l
1k
0x
1A
1i
1K
1+
1.
1*
#136000
b1110 &
b1110 '
#140000
0!
#145000
1!
b1011000100111000000011100 "
b1110010110100100101101010001 #
1{
0q
1r
0o
1I
0J
0G
1H
1D
0C
0F
1E
0k
1n
0m
1w
1s
0i
0.
1/
1(
1$
#146000
1%
b1111 &
b1111 '
#150000
0!
#155000
1!
b100110100101010001110101110 "
b1010011101010001001000010110 #
0f
0S
1T
0r
1o
0^
0Q
0I
0H
0=
1>
1:
09
0D
0E
0M
0Z
1k
0n
1P
0O
0b
0K
0A
0*
0+
#156000
b10000 &
b10000 '
#160000
0!
#165000
1!
b1010011101100100011000110100 "
b110000010101001100000011100 #
1f
0{
0y
1z
0o
1]
1[
1S
0T
1J
1?
1;
1F
0P
1O
1W
1Y
0k
1v
0u
0w
1b
0s
1U
1K
17
1)
1+
1,
0/
0(
0$
#166000
0%
b10001 &
b10001 '
#170000
0!
#175000
1!
b1101000101011111011011010111 "
b10110101000011101111101010 #
0g
1h
1Q
1y
0z
1q
1p
0f
0]
0[
1\
1G
0>
0:
1C
1X
0W
0Y
0b
1l
1m
0v
1u
1M
1d
0c
0_
1i
0U
1A
1*
0,
1.
0-
#176000
b10010 &
b10010 '
#180000
0!
#185000
1!
b1001101000110010111000011000 "
b1001001011001001001000 #
0y
0Q
1R
0G
0q
1g
0h
1]
1[
0\
0S
1I
0J
0?
1@
1>
1:
1<
0;
0F
1E
0O
0X
1W
1Y
0d
1c
0m
0C
1N
0M
0u
0i
1_
1U
0K
07
18
10
0)
0+
1,
1-
0.
#186000
b10011 &
b10011 '
#190000
0!
#195000
1!
b1100100001001110110101111111 "
b110101010101100100100001 #
1q
0[
1z
1o
0p
0g
1h
1e
0]
0I
0@
0>
0:
0<
0E
0Y
1a
1d
0c
0l
1k
1v
0W
1m
1i
0U
0A
08
00
0*
0,
1.
#196000
b10100 &
b10100 '
#200000
0!
#205000
1!
b1010010000111001001001011001 "
b11100100011110111011000111 #
1I
1y
0z
0e
1]
1[
1S
1=
19
1O
1W
1Y
0a
0v
1u
1E
1A
0_
1U
1K
1+
1,
0-
1*
#206000
b10101 &
b10101 '
#210000
0!
#215000
1!
b1000101101110110110111101010 "
b1011100110110001100111011 #
1f
1@
0q
0o
1p
0h
0]
1^
0[
1\
0S
1Q
0R
0I
1G
1C
0E
0N
1M
0O
1X
0W
1Z
0Y
0d
1l
0k
0m
1<
1b
17
0i
0U
1V
0K
0A
0*
0+
13
0,
0.
1)
#216000
b10110 &
b10110 '
#220000
0!
#225000
1!
b110111001010001101001111001 "
b1110111010110000000100000111 #
1g
0@
1{
0y
1z
1r
1e
0f
0\
0Q
0G
0C
0M
0X
0b
1a
1n
1v
0u
1w
0<
1c
07
1s
1j
1_
0V
03
1-
15
1/
0)
1(
1$
#226000
1%
b10111 &
b10111 '
#230000
0!
#235000
1!
b101010001011011001010111101 "
b101100110111101011100000 #
0{
0g
1R
0=
0z
1q
0r
1o
0p
0^
1\
1S
1I
1E
1O
1X
0Z
0l
1k
0n
1m
0v
09
1N
0c
0w
0s
0_
1i
0j
1K
1A
1*
1+
05
1.
0-
0/
0(
0$
#236000
0%
b11000 &
b11000 '
#240000
0!
#245000
1!
b1111110101110111001001100110 "
b101000010100010101010011100 #
1g
0\
0q
0o
0e
1?
1;
0a
0k
0m
0X
1c
0i
1_
17
1)
1-
0.
#246000
b11001 &
b11001 '
#250000
0!
#255000
1!
b1100001010011000111001 "
b1111100101100110000010011101 #
0R
1{
1y
1q
1e
1\
0S
1>
1:
0O
1X
1a
1m
1u
1w
0N
1s
1i
0K
0+
1.
1/
1(
1$
#256000
1%
b11010 &
b11010 '
#260000
0!
#265000
1!
b1101001100010100110011100110 "
b101001101000010000001001011 #
0q
1r
1p
0{
0y
1z
0e
1[
0\
1R
0I
1=
0>
0:
19
0E
1N
0X
1W
0a
1v
0u
0w
1l
1n
0m
0i
1j
0s
0A
0*
0/
15
0.
0(
0$
#266000
0%
b11011 &
b11011 '
#270000
0!
#275000
1!
b10011110100011100100101000 "
b110001111101101110100000000 #
1{
0r
1f
1]
0[
1S
1J
0?
0=
1>
1:
09
0;
1F
1O
0W
1Y
1b
0n
1w
1s
0j
1U
1K
07
0)
1+
1,
05
1/
1(
1$
#276000
1%
b11100 &
b11100 '
#280000
0!
#285000
1!
b1100011000000101101001001110 "
b100111110010110100101101001 #
1q
0S
1T
0{
1o
0p
1e
0f
0]
1^
1[
0R
1G
0>
0:
1C
0N
1W
1Z
0Y
0b
1a
0l
1k
0w
1P
0O
1m
0K
0s
1i
1A
1*
1.
0/
0+
0(
0$
#286000
0%
b11101 &
b11101 '
#290000
0!
#295000
1!
b1110000100101000110001101001 "
b1110001000010111110101110000 #
1|
0g
1h
0q
1r
0e
0^
1Q
1M
0Z
0a
1n
0m
1d
0c
1x
1t
0_
0U
1K
1+
0,
0-
16
1(
1$
#296000
1%
b11110 &
b11110 '
#300000
0!
#305000
1!
b100101001000111010000001100 "
b1101111000101111010110011111 #
1{
0|
1y
0z
1q
0r
0o
1p
0h
1e
1]
0[
1\
1I
0J
1@
1=
19
1<
0F
1E
1X
0W
1Y
1a
0d
1l
0k
0n
1m
0v
1u
0x
1w
1s
0t
1U
17
1)
1,
06
1/
#306000
b11111 &
b11111 '
#310000
0!
#315000
1!
b1110101110100111000101001001 "
b1001100001110110000110111110 #
0q
1r
0]
1^
0\
0{
0y
0p
0Q
1R
1?
0@
0<
1;
1N
0M
0l
0u
0w
0X
1Z
0Y
1n
0m
0i
0U
0s
0K
1L
12
0+
0/
0,
0.
0(
0$
#316000
0%
b100000 &
b100000 '
#320000
0!
#325000
1!
b11111110000010001000010101 "
b10110010111101000101101101 #
1h
0=
1>
1|
1]
0^
0R
0N
0Z
1Y
1x
1:
09
1d
1_
1U
0L
02
1,
1-
#326000
b100001 &
b100001 '
#330000
0!
#335000
1!
b11110100101101001101111111 "
b1011001001001101111110000100 #
1{
0|
1z
0r
1S
0T
1o
1g
0h
0e
0]
1^
1\
1R
0G
0?
0>
0:
0;
0C
1N
1X
1Z
0Y
0a
0d
1c
1k
0P
1O
0n
1v
0x
1w
1s
1K
0U
1V
07
0)
13
0,
1+
1/
1(
1$
#336000
1%
b100010 &
b100010 '
#340000
0!
#345000
1!
b11101000101001111100011110 "
b10100000001101100001101000 #
0{
1|
0z
0g
1h
0R
1r
0o
1]
0^
0S
1G
1C
0O
0Z
1Y
0k
1n
0N
1d
0c
0v
1x
0w
0s
0_
1U
0V
0K
0+
03
1,
0-
0/
0(
0$
#346000
0%
b100011 &
b100011 '
#350000
0!
#355000
1!
b1011011001000000001001001111 "
b101100101011000100010001110 #
1@
0|
1q
0r
1e
1S
0G
1H
1D
0C
1O
1a
0n
1m
0x
1<
1i
1_
1K
1+
1-
1.
#356000
b100100 &
b100100 '
#360000
0!
#365000
1!
b100000100000001000100010001 "
b10000110111000110110100 #
0S
1T
1z
1[
0\
1R
1G
0H
1?
0@
0<
1;
0D
1C
1N
0X
1W
1v
1P
0O
0K
1L
17
1)
12
0+
#366000
b100101 &
b100101 '
#370000
0!
#375000
1!
b1010110011011111100100101000 "
b1011011001010010011100010111 #
1Q
0R
0I
1J
1|
1y
0z
0q
1o
0h
0e
1f
0]
0[
0T
0G
0?
1=
19
0;
0C
0P
0W
0Y
1b
0a
0d
1k
0m
0v
1u
1x
1F
0E
0N
1M
1s
0i
0_
0U
0L
0A
07
0)
0*
02
0,
0-
0.
1/
1(
1$
#376000
1%
b100110 &
b100110 '
#380000
0!
#385000
1!
b1010100110111000011101110111 "
b110110010001101111101000011 #
0|
0y
1z
1q
0o
1h
0f
1]
1[
1S
0Q
1R
0=
1>
1:
09
1N
0M
1O
1W
1Y
0b
1d
0k
1m
1v
0u
0x
0s
1i
1U
1K
1+
1,
1.
0/
0(
0$
#386000
0%
b100111 &
b100111 '
#390000
0!
#395000
1!
b1101110011110011000110110010 "
b1011011001010001011110011101 #
1y
0z
0q
1o
0h
0]
1^
0[
1Q
0R
1?
0>
0:
1;
0N
1M
0W
1Z
0Y
0d
1k
0m
0v
1u
0i
0U
17
1)
0,
0.
#396000
b101000 &
b101000 '
#400000
0!
#405000
1!
b101110101011001110100000000 "
b11110010101000011010100001 #
1r
0?
1@
0o
1g
1e
0S
1I
0J
1G
1=
19
1C
0F
1E
0O
1a
1c
0k
1<
0;
1n
1_
0K
1A
1*
0+
1-
#406000
b101001 &
b101001 '
#410000
0!
#415000
1!
b1110100111110100000101 "
b110101111010111011010100101 #
1{
1q
0r
1p
0e
1\
0=
1>
1:
09
1X
0a
1l
0n
1m
1w
1s
1i
1V
07
18
10
0)
13
1.
1/
1(
1$
#416000
1%
b101010 &
b101010 '
#420000
0!
#425000
1!
b1101011101111100111110101001 "
b100010010110001001000101010 #
0p
1=
0>
0{
0y
0q
1r
1f
0^
1[
0\
0Q
0I
0G
1H
1D
0C
0E
0M
0X
1W
0Z
1b
1n
0m
0u
0w
0:
19
0l
17
08
0s
0i
0V
0A
0*
03
0.
0/
00
1)
0(
0$
#426000
0%
b101011 &
b101011 '
#430000
0!
#435000
1!
b1001110110111010011111011100 "
b1001001101100001011000111011 #
1z
0f
1|
0r
1o
0g
0[
1T
1G
0H
0@
0<
0D
1C
1P
0W
0c
1k
0n
1x
0b
1v
1t
0_
07
0)
0-
16
#436000
b101100 &
b101100 '
#440000
0!
#445000
1!
b100000001000111010011011110 "
b1011111111001001010110111111 #
1@
1{
0|
1y
0z
1q
1g
1f
1]
1Q
1M
1Y
1b
1c
1m
0v
1u
0x
1w
1<
17
1s
0t
1i
1_
1U
1K
1+
1,
1-
1.
06
1/
1)
1(
1$
#446000
1%
b101101 &
b101101 '
#450000
0!
#455000
1!
b1010000000000001011111100001 "
b1100101011001111011010110110 #
0y
1[
0Q
1?
0@
0<
1;
0M
1W
0u
0K
0+
#456000
b101110 &
b101110 '
#460000
0!
#465000
1!
b1011010100100011010001100110 "
b1000011000111110000101101001 #
0{
1|
0g
1h
0T
0G
1H
0q
1r
1e
0f
0[
1Q
1J
0=
09
1F
1M
0W
0b
1a
1n
0m
1D
0C
0P
1d
0c
1x
0w
0s
1B
11
0/
0(
0$
#466000
0%
b101111 &
b101111 '
#470000
0!
#475000
1!
b1010100111101111011001011111 "
b100111010000100101101001100 #
0|
0e
1S
1q
0r
0h
0]
0H
0?
1@
1<
0;
0D
0Y
0d
0n
1m
1O
0a
0x
1K
0_
0U
0B
07
0)
01
0,
0-
1+
#476000
b110000 &
b110000 '
#480000
0!
#485000
1!
b1110001010110100001011011100 "
b100100011111000110000000000 #
0Q
0@
0o
1g
1f
1]
1\
0J
1>
1:
0F
1X
1Y
1b
1c
0k
0<
0M
1_
1U
1,
1-
#486000
b110001 &
b110001 '
#490000
0!
#495000
1!
b11111001101010110010100111 "
b111111001001110001101010011 #
1p
1{
1z
0q
1r
0g
1h
0f
0S
1Q
1M
0O
0b
1d
0c
1n
0m
1v
1w
1l
1s
0i
1j
0_
0K
0+
0-
15
0.
1/
1(
1$
#496000
1%
b110010 &
b110010 '
#500000
0!
#505000
1!
b11100100010101101111000110 "
b110011110101011010001110110 #
0z
1@
0r
1o
0p
1g
0h
1e
1[
0\
0Q
1G
1C
0M
0X
1W
1a
0d
1c
0l
1k
0n
1<
0v
18
0j
1_
1-
05
10
#506000
b110011 &
b110011 '
#510000
0!
#515000
1!
b1001010000010101010101110000 "
b1111001100011000011111000 #
0]
0{
1z
1q
1I
0G
1H
1?
0@
0<
1;
1D
0C
1E
1m
1v
0w
0Y
0U
0s
1i
1A
17
08
00
1)
1*
1.
0/
0,
0(
0$
#516000
0%
b110100 &
b110100 '
#520000
0!
#525000
1!
b1101101001001111100000110010 "
b110001110100001000111010101 #
1y
0z
0H
0q
0[
1Q
0>
0:
1M
0W
0m
0D
0v
1u
0i
0.
#526000
b110101 &
b110101 '
#530000
0!
#535000
1!
b1111111101000110001000001001 "
b1111101101000001100001101000 #
1|
0g
1h
0e
1f
0y
1z
0o
1p
1S
0Q
1G
0?
1@
1<
0;
1C
0M
1O
1l
0k
1v
0u
1b
0a
1d
0c
1x
0_
1`
1t
1K
07
0)
1+
16
14
0-
#536000
b110110 &
b110110 '
#540000
0!
#545000
1!
b111001010110100011000011001 "
b1010111111110111001111011100 #
0z
1^
1Q
1?
0@
1{
0|
1q
1o
0p
1g
0h
1[
0S
0G
1H
1D
0C
0O
1W
0d
1c
0l
1k
1m
0x
1w
0<
1;
1M
1Z
0v
17
1s
0t
1i
1_
0`
1U
0K
0+
1,
04
1-
1.
06
1/
1)
1(
1$
#546000
1%
b110111 &
b110111 '
#550000
0!
#555000
1!
b1101000001110101110110001111 "
b11011110100100101011000111 #
0f
0{
1y
0[
0?
1>
1:
0;
0W
1u
0w
0b
0s
0U
07
0)
0,
0/
0(
0$
#556000
0%
b111000 &
b111000 '
#560000
0!
#565000
1!
b1010111111101101010000011101 "
b1110111100010111110011101110 #
1[
1@
1{
0y
1z
0q
1r
0o
1p
0g
0^
1S
0Q
1R
1G
0H
1=
0>
0:
19
0D
1C
1N
0M
1O
0Z
0c
1l
0k
1n
0m
1v
0u
1w
1<
1W
1s
0i
1j
0_
1K
17
1)
1+
0-
15
0.
1/
1(
1$
#566000
1%
b111001 &
b111001 '
#570000
0!
#575000
1!
b1001000000010100011111110010 "
b10110011100000101101100011 #
0{
1y
0z
1q
0r
1g
1e
0[
1\
0I
0G
0C
0E
1X
0W
1a
1c
0n
1m
0v
1u
0w
0s
1i
0j
1_
0A
0*
1-
05
1.
0/
0(
0$
#576000
0%
b111010 &
b111010 '
#580000
0!
#585000
1!
b100101000001001011000100000 "
b101100001100001001111000101 #
0S
1?
0@
1|
0q
1r
0p
1Q
0R
1I
1E
0N
1M
0l
1n
0m
1x
0<
1;
0O
1s
0i
0K
1A
1*
0+
0.
1/
1(
1$
#586000
1%
b111011 &
b111011 '
#590000
0!
#595000
1!
b1011100000010101000111010010 "
b10111101010010000101101011 #
1q
0r
1[
0\
0|
0y
1o
0e
1f
1T
0Q
1R
0I
1G
1C
0E
1N
0M
1P
1b
0a
1k
0u
0x
0X
1W
0n
1m
0s
1i
1L
0A
0*
12
1.
0/
0(
0$
#596000
0%
b111100 &
b111100 '
#600000
0!
#605000
1!
b1100110010101101000000001000 "
b1100011100000110100001011110 #
1S
0T
1|
1z
0q
0g
0f
1I
1E
0b
0c
0m
1v
1x
0P
1O
1K
0L
1t
0i
0_
1A
1*
0-
0.
16
02
1+
#606000
b111101 &
b111101 '
#610000
0!
#615000
1!
b10101010110001111000101111 "
b1100101111001010001010000000 #
1g
1{
0|
0z
1r
1]
0S
0G
0?
0=
09
0;
0C
0O
1Y
1n
0v
0x
1w
1c
1_
1s
0t
1i
1U
0K
07
0)
0+
1,
1.
06
1/
1-
1(
1$
#616000
1%
b111110 &
b111110 '
#620000
0!
#625000
1!
b1111000111100011000110010110 "
b1110101110111001000110111111 #
0{
1|
1q
0r
0g
1e
0[
1T
0I
1J
1G
1?
1=
19
1;
1C
1F
0E
1P
0W
1a
0c
0n
1m
1x
0w
0s
0_
1L
17
1)
12
0-
0/
0(
0$
#626000
0%
b111111 &
b111111 '
#630000
0!
#635000
1!
b10010101001010000111100 "
b11010101110010110001010000 #
1y
0q
1r
0]
1[
1S
0T
1I
0J
0G
0?
0=
1>
1:
09
0;
0C
0F
1E
0P
1O
1W
0Y
1n
0m
1u
1s
0U
1K
0L
07
0)
02
1+
0,
1/
1(
1$
#636000
1%
b1000000 &
b1000000 '
#640000
0!
#645000
1!
b1101010000000000000111000 "
b1000000010011000011100001001 #
1{
0|
1h
1Q
0R
0I
1J
1=
0>
0y
0r
0o
1]
0[
1\
1@
1<
1X
0W
1Y
0k
0n
0u
0:
19
1F
0E
0N
1M
1d
0x
1w
1_
0A
0i
1U
17
1)
1,
0.
0*
1-
#646000
b1000001 &
b1000001 '
#650000
0!
#655000
1!
b1111101100011001000100100101 "
b1111101010100110110000100001 #
1r
0{
1|
1z
1g
0h
0]
1[
0\
0Q
1H
0@
0=
1>
1:
09
0<
1D
0M
0X
1W
0Y
0d
1c
1v
1x
0w
1n
0s
1t
0U
1B
07
0)
11
0,
16
0/
0(
0$
#656000
0%
b1000010 &
b1000010 '
#660000
0!
#665000
1!
b1100101110010100111100100101 "
b1011110001011100000101101111 #
0|
1q
0r
0e
1f
1I
0J
1?
1=
0>
1y
0z
0g
1]
0[
1\
0S
0O
1X
0W
1Y
0c
0v
1u
0:
19
1;
0F
1E
1b
0a
0n
1m
0x
1i
1A
0B
17
0t
0_
1U
0K
0+
1,
0-
06
1)
01
1*
1.
#666000
b1000011 &
b1000011 '
#670000
0!
#675000
1!
b10100011011100000001000101 "
b11011100100111110110110011 #
0q
1e
0f
1[
0\
0?
1|
1o
0]
1S
1Q
1G
0H
0D
1C
1M
1O
0Y
1k
1x
0;
0X
1W
0b
1a
0m
07
1s
0i
0U
1K
1+
0,
0.
1/
0)
1(
1$
#676000
1%
b1000100 &
b1000100 '
#680000
0!
#685000
1!
b1010000001001100001001001110 "
b1000110111111100000011011000 #
0y
1^
0[
1\
0S
1T
1q
1g
0Q
0=
09
0M
1c
1m
1P
0O
1X
0W
1Z
0u
0s
1V
1i
1_
0K
0+
1-
1.
13
0/
0(
0$
#686000
0%
b1000101 &
b1000101 '
#690000
0!
#695000
1!
b1010110001010011110101100101 "
b11100111010010100100000 #
0|
0g
0I
0q
1]
0^
0\
0T
1R
0G
1H
1D
0C
1N
0P
0X
0Z
1Y
0m
0E
0c
0x
0_
0i
1U
0V
0A
0*
03
1,
0.
0-
#696000
b1000110 &
b1000110 '
#700000
0!
#705000
1!
b101000110111111111100011101 "
b111110011100100110111 #
1\
1=
1r
0o
1p
1g
0e
1f
0]
0R
1J
1G
0H
0D
1C
1F
0N
0Y
1b
0a
1c
1l
0k
1n
19
1X
1j
1_
0U
1A
1*
0,
1-
15
#706000
b1000111 &
b1000111 '
#710000
0!
#715000
1!
b1111101011011111010001110011 "
b1011111100101001011100011110 #
0\
1z
1q
0r
1o
0p
0g
1e
0f
1T
1Q
0J
0G
1?
0=
09
1;
0C
0F
1M
1P
0b
1a
0c
0l
1k
0n
1m
1v
0X
1i
0j
0_
1K
0A
17
1)
0*
1+
0-
05
1.
#716000
b1001000 &
b1001000 '
#720000
0!
#725000
1!
b10011011001000100001101111 "
b100010100010011001111111100 #
0o
1I
1{
0z
0q
1r
1[
0T
1G
0?
1@
1<
0;
1C
0P
1W
1n
0m
0v
1w
1E
0k
1s
0i
0K
1A
07
0)
1*
0+
0.
1/
1(
1$
#726000
1%
b1001001 &
b1001001 '
#730000
0!
#735000
1!
b1001101100110000110101001011 "
b1001011100010010010010111011 #
1>
0{
1|
1z
0r
1p
1h
0e
1^
0Q
0M
1Z
0a
1d
1l
0n
1v
1x
0w
1:
18
0s
1t
1U
1,
16
0/
10
0(
0$
#736000
0%
b1001010 &
b1001010 '
#740000
0!
#745000
1!
b1001010000110111100101110101 "
b1000100001011110111001000010 #
0z
1g
0h
1Q
0I
1J
1q
1]
0^
0[
1S
0G
0@
1=
0>
0:
19
0<
0C
1O
0W
0Z
1Y
1m
1F
0E
1M
0d
1c
0v
0t
1_
1i
1K
0A
08
00
0*
1+
1.
1-
06
#746000
b1001011 &
b1001011 '
#750000
0!
#755000
1!
b100010110010100110100011100 "
b1101101101011111101011000 #
0|
1y
1o
0p
0g
1e
1[
0S
1T
1I
0J
1H
0=
1>
1:
09
1D
0F
1E
1P
0O
1W
1a
0c
0l
1k
1u
0x
0_
1A
1*
0-
#756000
b1001100 &
b1001100 '
#760000
0!
#765000
1!
b1011111110101001110100100001 "
b110000011110010001111111010 #
1g
0T
0y
0q
0o
0]
1G
0H
1?
1=
0>
0:
19
1;
0D
1C
0Y
0k
0m
0u
0P
1c
1_
0K
0i
0U
17
1)
0,
0.
0+
1-
#766000
b1001101 &
b1001101 '
#770000
0!
#775000
1!
b1101011100110111010011011100 "
b101111111001010001100110100 #
1p
1z
1q
0e
1]
0[
0I
0?
0=
1>
1:
09
0;
0E
0W
1Y
0a
1m
1v
1l
1i
1U
0A
07
0)
0*
1,
1.
#776000
b1001110 &
b1001110 '
#780000
0!
#785000
1!
b1101001010100011100010111101 "
b1100101000110100101110101000 #
1|
0z
0g
1e
1T
1J
0G
0>
0:
0C
1F
1P
1a
0c
0v
1x
0_
1K
1+
0-
#786000
b1001111 &
b1001111 '
#790000
0!
