Verision1/03_verif/Questasim/tb_LOPD_24bit.vcd
$date
	Mon Nov  3 22:39:37 2025
$end
$version
	Questa Intel Starter FPGA Edition Version 2024.3
$end
$timescale
	1ps
$end

$scope module tb_LOPD_24bit $end
$var parameter 32 ! SIZE_DATA $end
$var parameter 32 " SIZE_POS $end
$var reg 1 # i_clk $end
$var reg 24 $ i_data [23:0] $end
$var reg 5 % o_pos_one [4:0] $end
$var reg 1 & o_zero_flag $end
$var reg 5 ' w_expect_pos [4:0] $end
$var reg 1 ( w_expect_zero $end
$var integer 32 ) test_count $end
$var integer 32 * test_pass $end
$var integer 32 + bit_pos $end

$scope function f_find_LOPD $end
$upscope $end

$scope task Check_Result $end
$upscope $end

$scope module DUT $end
$var parameter 32 , SIZE_DATA $end
$var parameter 32 - SIZE_LOPD $end
$var wire 1 . i_data [23] $end
$var wire 1 / i_data [22] $end
$var wire 1 0 i_data [21] $end
$var wire 1 1 i_data [20] $end
$var wire 1 2 i_data [19] $end
$var wire 1 3 i_data [18] $end
$var wire 1 4 i_data [17] $end
$var wire 1 5 i_data [16] $end
$var wire 1 6 i_data [15] $end
$var wire 1 7 i_data [14] $end
$var wire 1 8 i_data [13] $end
$var wire 1 9 i_data [12] $end
$var wire 1 : i_data [11] $end
$var wire 1 ; i_data [10] $end
$var wire 1 < i_data [9] $end
$var wire 1 = i_data [8] $end
$var wire 1 > i_data [7] $end
$var wire 1 ? i_data [6] $end
$var wire 1 @ i_data [5] $end
$var wire 1 A i_data [4] $end
$var wire 1 B i_data [3] $end
$var wire 1 C i_data [2] $end
$var wire 1 D i_data [1] $end
$var wire 1 E i_data [0] $end
$var reg 5 F o_one_position [4:0] $end
$var reg 1 G o_zero_flag $end
$var reg 16 H LOPD16_i_data [15:0] $end
$var reg 4 I LOPD16_o_pos_one [3:0] $end
$var reg 1 J LOPD16_o_zero_flag $end
$var reg 8 K LOPD8_i_data [7:0] $end
$var reg 3 L LOPD8_o_pos_one [2:0] $end
$var reg 1 M LOPD8_o_zero_flag $end
$var reg 5 N w_o_one_position [4:0] $end

$scope module LOPD_16bit_UNIT_MSB $end
$var wire 1 O i_data [15] $end
$var wire 1 P i_data [14] $end
$var wire 1 Q i_data [13] $end
$var wire 1 R i_data [12] $end
$var wire 1 S i_data [11] $end
$var wire 1 T i_data [10] $end
$var wire 1 U i_data [9] $end
$var wire 1 V i_data [8] $end
$var wire 1 W i_data [7] $end
$var wire 1 X i_data [6] $end
$var wire 1 Y i_data [5] $end
$var wire 1 Z i_data [4] $end
$var wire 1 [ i_data [3] $end
$var wire 1 \ i_data [2] $end
$var wire 1 ] i_data [1] $end
$var wire 1 ^ i_data [0] $end
$var reg 4 _ o_pos_one [3:0] $end
$var reg 1 ` o_zero_flag $end
$var reg 3 a w_pos_one_0 [2:0] $end
$var reg 1 b w_zero_flag_0 $end
$var reg 3 c w_pos_one_1 [2:0] $end
$var reg 1 d w_zero_flag_1 $end
$var reg 4 e w_o_pos_one [3:0] $end

$scope module LOPD_8bit_unit_0 $end
$var wire 1 W i_data [7] $end
$var wire 1 X i_data [6] $end
$var wire 1 Y i_data [5] $end
$var wire 1 Z i_data [4] $end
$var wire 1 [ i_data [3] $end
$var wire 1 \ i_data [2] $end
$var wire 1 ] i_data [1] $end
$var wire 1 ^ i_data [0] $end
$var reg 3 f o_pos_one [2:0] $end
$var reg 1 g o_zero_flag $end
$var reg 1 h w_zero_flag_0 $end
$var reg 2 i w_pos_one_0 [1:0] $end
$var reg 1 j w_zero_flag_1 $end
$var reg 2 k w_pos_one_1 [1:0] $end
$var reg 3 l w_o_pos_one [2:0] $end

$scope module LOPD_4bit_unit_0 $end
$var wire 1 [ i_data [3] $end
$var wire 1 \ i_data [2] $end
$var wire 1 ] i_data [1] $end
$var wire 1 ^ i_data [0] $end
$var reg 2 m o_pos_one [1:0] $end
$var reg 1 n o_zero_flag $end
$upscope $end

$scope module LOPD_4bit_unit_1 $end
$var wire 1 W i_data [3] $end
$var wire 1 X i_data [2] $end
$var wire 1 Y i_data [1] $end
$var wire 1 Z i_data [0] $end
$var reg 2 o o_pos_one [1:0] $end
$var reg 1 p o_zero_flag $end
$upscope $end
$upscope $end

$scope module LOPD_8bit_unit_1 $end
$var wire 1 O i_data [7] $end
$var wire 1 P i_data [6] $end
$var wire 1 Q i_data [5] $end
$var wire 1 R i_data [4] $end
$var wire 1 S i_data [3] $end
$var wire 1 T i_data [2] $end
$var wire 1 U i_data [1] $end
$var wire 1 V i_data [0] $end
$var reg 3 q o_pos_one [2:0] $end
$var reg 1 r o_zero_flag $end
$var reg 1 s w_zero_flag_0 $end
$var reg 2 t w_pos_one_0 [1:0] $end
$var reg 1 u w_zero_flag_1 $end
$var reg 2 v w_pos_one_1 [1:0] $end
$var reg 3 w w_o_pos_one [2:0] $end

$scope module LOPD_4bit_unit_0 $end
$var wire 1 S i_data [3] $end
$var wire 1 T i_data [2] $end
$var wire 1 U i_data [1] $end
$var wire 1 V i_data [0] $end
$var reg 2 x o_pos_one [1:0] $end
$var reg 1 y o_zero_flag $end
$upscope $end

$scope module LOPD_4bit_unit_1 $end
$var wire 1 O i_data [3] $end
$var wire 1 P i_data [2] $end
$var wire 1 Q i_data [1] $end
$var wire 1 R i_data [0] $end
$var reg 2 z o_pos_one [1:0] $end
$var reg 1 { o_zero_flag $end
$upscope $end
$upscope $end
$upscope $end

$scope module LOPD_8bit_UNIT_LSB $end
$var wire 1 | i_data [7] $end
$var wire 1 } i_data [6] $end
$var wire 1 ~ i_data [5] $end
$var wire 1 !! i_data [4] $end
$var wire 1 "! i_data [3] $end
$var wire 1 #! i_data [2] $end
$var wire 1 $! i_data [1] $end
$var wire 1 %! i_data [0] $end
$var reg 3 &! o_pos_one [2:0] $end
$var reg 1 '! o_zero_flag $end
$var reg 1 (! w_zero_flag_0 $end
$var reg 2 )! w_pos_one_0 [1:0] $end
$var reg 1 *! w_zero_flag_1 $end
$var reg 2 +! w_pos_one_1 [1:0] $end
$var reg 3 ,! w_o_pos_one [2:0] $end

$scope module LOPD_4bit_unit_0 $end
$var wire 1 "! i_data [3] $end
$var wire 1 #! i_data [2] $end
$var wire 1 $! i_data [1] $end
$var wire 1 %! i_data [0] $end
$var reg 2 -! o_pos_one [1:0] $end
$var reg 1 .! o_zero_flag $end
$upscope $end

$scope module LOPD_4bit_unit_1 $end
$var wire 1 | i_data [3] $end
$var wire 1 } i_data [2] $end
$var wire 1 ~ i_data [1] $end
$var wire 1 !! i_data [0] $end
$var reg 2 /! o_pos_one [1:0] $end
$var reg 1 0! o_zero_flag $end
$upscope $end
$upscope $end
$upscope $end
$upscope $end
$enddefinitions $end
#0
$dumpvars
0#
bx $
bx %
x&
bx '
x(
bx F
xG
bx H
bx I
xJ
bx _
x`
bx a
xb
bx f
xg
xh
bx i
bx m
xn
xj
bx k
bx o
xp
bx l
bx c
xd
bx q
xr
xs
bx t
bx x
xy
xu
bx v
bx z
x{
bx w
bx e
bx K
bx L
xM
bx &!
x'!
x(!
bx )!
bx -!
x.!
x*!
bx +!
bx /!
x0!
bx ,!
bx N
b11000 !
b101 "
b11000 ,
b101 -
b0 )
b0 *
b0 +
xE
xD
xC
xB
xA
x@
x?
x>
x=
x<
x;
x:
x9
x8
x7
x6
x5
x4
x3
x2
x1
x0
x/
x.
x%!
x$!
x#!
x"!
x!!
x~
x}
x|
x^
x]
x\
x[
xZ
xY
xX
xW
xV
xU
xT
xS
xR
xQ
xP
xO
$end
#5000
1#
#6000
b0 $
0E
0D
0C
0B
0A
0@
0?
0>
0=
0<
0;
0:
09
08
07
06
05
04
03
02
01
00
0/
0.
b0 H
b0 K
0%!
0$!
0#!
0"!
0!!
0~
0}
0|
0^
0]
0\
0[
0Z
0Y
0X
0W
0V
0U
0T
0S
0R
0Q
0P
0O
1{
bx0 z
b0 z
1y
bx0 x
b0 x
1p
bx0 o
b0 o
1n
bx0 m
b0 m
10!
bx0 /!
b0 /!
1.!
bx0 -!
b0 -!
b0 )!
1(!
b0 +!
1*!
b0 i
1h
b0 k
1j
b0 t
1s
b0 v
1u
1r
b1xx w
b10x w
b100 w
1g
b1xx l
b10x l
b100 l
1'!
b1xx ,!
b10x ,!
b100 ,!
1M
b0 &!
1b
b0 f
1d
b0 q
b0 c
1`
b1xxx e
b0 a
b0 L
b10xx e
b100x e
b1000 e
1J
b0 _
b0 I
bx0 N
bx00 N
bx000 N
bx0000 N
1G
b10000 N
1&
b0 F
b0 %
#10000
0#
b0 '
1(
b1 )
b1 *
b1 +
#15000
1#
#16000
b1 $
1E
b1 K
1%!
0.!
b10 -!
b11 -!
b11 )!
0(!
0'!
b110 ,!
b111 ,!
0M
b111 &!
b111 L
0G
0&
b10000 F
b10100 N
b10110 N
b10111 N
b10111 F
b10111 %
#20000
0#
b10111 '
0(
#21000
b10 )
b10 *
b10 +
#25000
1#
#26000
b10 $
0E
1D
b10 K
0%!
1$!
b10 -!
b10 )!
b110 ,!
b110 &!
b110 L
b10110 N
b10110 F
b10110 %
#30000
0#
b10110 '
#31000
b11 )
b11 *
b100 +
#35000
1#
#36000
b100 $
0D
1C
b100 K
0$!
1#!
b11 -!
b1 -!
b1 )!
b100 ,!
b101 ,!
b101 &!
b101 L
b10100 N
b10101 N
b10101 F
b10101 %
#40000
0#
b10101 '
#41000
b100 )
b100 *
b1000 +
#45000
1#
#46000
b1000 $
0C
1B
b1000 K
0#!
1"!
b0 -!
b0 )!
b100 ,!
b100 &!
b100 L
b10100 N
b10100 F
b10100 %
#50000
0#
b10100 '
#51000
b101 )
b101 *
b10000 +
#55000
1#
#56000
b10000 $
0B
1A
b10000 K
0"!
1!!
00!
b10 /!
b11 /!
1.!
1(!
b11 +!
0*!
b101 ,!
b111 ,!
b11 ,!
b11 &!
b11 L
b10000 N
b10010 N
b10011 N
b10011 F
b10011 %
#60000
0#
b10011 '
#61000
b110 )
b110 *
b100000 +
#65000
1#
#66000
b100000 $
0A
1@
b100000 K
0!!
1~
b10 /!
b10 +!
b10 ,!
b10 &!
b10 L
b10010 N
b10010 F
b10010 %
#70000
0#
b10010 '
#71000
b111 )
b111 *
b1000000 +
#75000
1#
#76000
b1000000 $
0@
1?
b1000000 K
0~
1}
b11 /!
b1 /!
b1 +!
b0 ,!
b1 ,!
b1 &!
b1 L
b10000 N
b10001 N
b10001 F
b10001 %
#80000
0#
b10001 '
#81000
b1000 )
b1000 *
b10000000 +
#85000
1#
#86000
b10000000 $
0?
1>
b10000000 K
0}
1|
b0 /!
b0 +!
b0 ,!
b0 &!
b0 L
b10000 N
b10000 F
b10000 %
#90000
0#
b10000 '
#91000
b1001 )
b1001 *
b100000000 +
#95000
1#
#96000
b100000000 $
0>
1=
b1 H
b0 K
0|
1^
0n
b10 m
b11 m
10!
1*!
b11 i
0h
0g
b110 l
b111 l
1'!
b100 ,!
1M
0b
b111 f
b111 a
0`
1G
1&
b0 F
0J
b1000 _
b1100 e
b1110 e
b1111 e
b1111 _
b1111 I
0G
b0 N
b0 %
0&
b1000 N
b1100 N
b1110 N
b1111 N
b1111 F
b1111 %
#100000
0#
b1111 '
#101000
b1010 )
b1010 *
b1000000000 +
#105000
1#
#106000
b1000000000 $
0=
1<
b10 H
0^
1]
b10 m
b10 i
b110 l
b110 f
b110 a
b1110 e
b1110 _
b1110 I
b1110 N
b1110 F
b1110 %
#110000
0#
b1110 '
#111000
b1011 )
b1011 *
b10000000000 +
#115000
1#
#116000
b10000000000 $
0<
1;
b100 H
0]
1\
b11 m
b1 m
b1 i
b100 l
b101 l
b101 f
b101 a
b1100 e
b1101 e
b1101 _
b1101 I
b1100 N
b1101 N
b1101 F
b1101 %
#120000
0#
b1101 '
#121000
b1100 )
b1100 *
b100000000000 +
#125000
1#
#126000
b100000000000 $
0;
1:
b1000 H
0\
1[
b0 m
b0 i
b100 l
b100 f
b100 a
b1100 e
b1100 _
b1100 I
b1100 N
b1100 F
b1100 %
#130000
0#
b1100 '
#131000
b1101 )
b1101 *
b1000000000000 +
#135000
1#
#136000
b1000000000000 $
0:
19
b10000 H
0[
1Z
0p
b10 o
b11 o
1n
1h
b11 k
0j
b101 l
b111 l
b11 l
b11 f
b11 a
b1000 e
b1010 e
b1011 e
b1011 _
b1011 I
b1000 N
b1010 N
b1011 N
b1011 F
b1011 %
#140000
0#
b1011 '
#141000
b1110 )
b1110 *
b10000000000000 +
#145000
1#
#146000
b10000000000000 $
09
18
b100000 H
0Z
1Y
b10 o
b10 k
b10 l
b10 f
b10 a
b1010 e
b1010 _
b1010 I
b1010 N
b1010 F
b1010 %
#150000
0#
b1010 '
#151000
b1111 )
b1111 *
b100000000000000 +
#155000
1#
#156000
b100000000000000 $
08
17
b1000000 H
0Y
1X
b11 o
b1 o
b1 k
b0 l
b1 l
b1 f
b1 a
b1000 e
b1001 e
b1001 _
b1001 I
b1000 N
b1001 N
b1001 F
b1001 %
#160000
0#
b1001 '
#161000
b10000 )
b10000 *
b1000000000000000 +
#165000
1#
#166000
b1000000000000000 $
07
16
b10000000 H
0X
1W
b0 o
b0 k
b0 l
b0 f
b0 a
b1000 e
b1000 _
b1000 I
b1000 N
b1000 F
b1000 %
#170000
0#
b1000 '
#171000
b10001 )
b10001 *
b10000000000000000 +
#175000
1#
#176000
b10000000000000000 $
06
15
b100000000 H
0W
1V
0y
b10 x
b11 x
1p
1j
b11 t
0s
0r
b110 w
b111 w
1g
b100 l
1b
0d
b111 q
b111 c
b0 e
b0 _
b100 e
b110 e
b111 e
b111 _
b111 I
b0 N
b100 N
b110 N
b111 N
b111 F
b111 %
#180000
0#
b111 '
#181000
b10010 )
b10010 *
b100000000000000000 +
#185000
1#
#186000
b100000000000000000 $
05
14
b1000000000 H
0V
1U
b10 x
b10 t
b110 w
b110 q
b110 c
b110 e
b110 _
b110 I
b110 N
b110 F
b110 %
#190000
0#
b110 '
#191000
b10011 )
b10011 *
b1000000000000000000 +
#195000
1#
#196000
b1000000000000000000 $
04
13
b10000000000 H
0U
1T
b11 x
b1 x
b1 t
b100 w
b101 w
b101 q
b101 c
b100 e
b101 e
b101 _
b101 I
b100 N
b101 N
b101 F
b101 %
#200000
0#
b101 '
#201000
b10100 )
b10100 *
b10000000000000000000 +
#205000
1#
#206000
b10000000000000000000 $
03
12
b100000000000 H
0T
1S
b0 x
b0 t
b100 w
b100 q
b100 c
b100 e
b100 _
b100 I
b100 N
b100 F
b100 %
#210000
0#
b100 '
#211000
b10101 )
b10101 *
b100000000000000000000 +
#215000
1#
#216000
b100000000000000000000 $
02
11
b1000000000000 H
0S
1R
0{
b10 z
b11 z
1y
1s
b11 v
0u
b101 w
b111 w
b11 w
b11 q
b11 c
b0 e
b10 e
b11 e
b11 _
b11 I
b0 N
b10 N
b11 N
b11 F
b11 %
#220000
0#
b11 '
#221000
b10110 )
b10110 *
b1000000000000000000000 +
#225000
1#
#226000
b1000000000000000000000 $
01
10
b10000000000000 H
0R
1Q
b10 z
b10 v
b10 w
b10 q
b10 c
b10 e
b10 _
b10 I
b10 N
b10 F
b10 %
#230000
0#
b10 '
#231000
b10111 )
b10111 *
b10000000000000000000000 +
#235000
1#
#236000
b10000000000000000000000 $
00
1/
b100000000000000 H
0Q
1P
b11 z
b1 z
b1 v
b0 w
b1 w
b1 q
b1 c
b0 e
b1 e
b1 _
b1 I
b0 N
b1 N
b1 F
b1 %
#240000
0#
b1 '
#241000
b11000 )
b11000 *
b100000000000000000000000 +
#245000
1#
#246000
b100000000000000000000000 $
0/
1.
b1000000000000000 H
0P
1O
b0 z
b0 v
b0 w
b0 q
b0 c
b0 e
b0 _
b0 I
b0 N
b0 F
b0 %
#250000
0#
b0 '
#251000
b11001 )
b11001 *
b1000000000000000000000000 +
b1100110111110110100100 $
1C
1@
1>
1=
1;
1:
19
18
17
15
14
11
10
0.
b11001101111101 H
b10100100 K
1#!
1~
1|
1^
1\
1[
1Z
1Y
1X
1V
1U
1R
1Q
0O
b10 z
0y
b10 x
0p
b1 o
0n
00!
0.!
b1 -!
b1 )!
0(!
0*!
0h
b1 k
0j
b10 t
0s
b10 v
b10 w
b101 l
b1 l
0g
b0 ,!
0'!
0M
0b
b1 f
b10 q
b10 c
b1 a
b10 e
b10 _
b10 I
b10 N
b10 F
b10 %
#252000
b10 '
b11010 )
b11010 *
b100001001100011111000110 $
1D
0@
1?
1<
0:
09
08
16
05
04
13
01
00
1.
b1000010011000111 H
b11000110 K
1$!
0~
1}
1]
0[
0Z
0Y
1W
0V
0U
1T
0R
0Q
1O
b0 z
b11 x
b1 x
b0 o
b1 m
b1 i
b0 k
b1 t
b0 v
b0 w
b0 l
b0 f
b0 q
b0 c
b0 a
b0 e
b0 _
b0 I
b0 N
b0 F
b0 %
#253000
b0 '
b11011 )
b11011 *
b11110110100110011110 $
1B
1A
0?
0<
0;
1:
18
06
15
14
12
0.
b111101101001 H
b10011110 K
1"!
1!!
0}
0]
0\
1[
1Y
0W
1V
1U
1S
0O
1{
b0 x
b1 o
b0 m
b0 -!
b0 )!
b0 i
b1 k
b0 t
1u
b100 w
b1 l
b1 f
b100 q
b100 c
b1 a
b100 e
b100 _
b100 I
b100 N
b100 F
b100 %
#254000
b100 '
b11100 )
b11100 *
b110111101001111010111110 $
1@
0=
1<
1;
19
08
07
16
05
11
1/
1.
b1101111010011110 H
b10111110 K
1~
0^
1]
1\
1Z
0Y
0X
1W
0V
1R
1P
1O
0{
b0 o
b0 k
0u
b0 w
b0 l
b0 f
b0 q
b0 c
b0 a
b0 e
b0 _
b0 I
b0 N
b0 F
b0 %
#255000
1#
b0 '
b11101 )
b11101 *
b11000011100100000010001 $
1E
0D
0C
0B
0@
0>
0<
0;
09
17
15
04
03
02
01
10
0.
b110000111001000 H
b10001 K
1%!
0$!
0#!
0"!
0~
0|
0]
0\
0Z
1X
1V
0U
0T
0S
0R
1Q
0O
b1 z
b10 x
b11 x
b10 /!
b11 /!
b10 -!
b11 -!
b11 )!
b11 +!
b11 t
b1 v
b1 w
b10 ,!
b11 ,!
b11 &!
b1 q
b1 c
b11 L
b1 e
b1 _
b1 I
b1 N
b1 F
b1 %
#256000
b1 '
b11110 )
b11110 *
b100011111101011101000101 $
1C
0A
1?
1=
1<
1;
0:
19
14
13
12
00
0/
1.
b1000111111010111 H
b1000101 K
1#!
0!!
1}
1^
1]
1\
0[
1Z
1U
1T
1S
0Q
0P
1O
b0 z
b1 x
b0 x
b1 m
b1 /!
b1 -!
b1 )!
b1 +!
b1 i
b0 t
b0 v
b0 w
b1 ,!
b1 &!
b0 q
b0 c
b1 L
b0 e
b0 _
b0 I
b0 N
b0 F
b0 %
#257000
b0 '
b11111 )
b11111 *
b110011011110010110110001 $
0C
1A
1@
0?
1>
0<
09
18
04
1/
b1100110111100101 H
b10110001 K
0#!
1!!
1~
0}
1|
0]
0Z
1Y
0U
1P
b0 /!
b11 -!
b11 )!
b0 +!
b0 ,!
b0 &!
b0 L
#258000
b100000 )
b100000 *
b100011110110101101111001 $
1B
1?
0>
1<
0;
1:
06
14
0/
b1000111101101011 H
b1111001 K
1"!
1}
0|
1]
0\
1[
0W
1U
0P
b1 o
b0 m
b1 /!
b1 -!
b0 -!
b0 )!
b1 +!
b0 i
b1 k
b1 l
b1 ,!
b1 &!
b1 f
b1 a
b1 L
#259000
b100001 )
b100001 *
b10110010011111000111000 $
0E
0?
0=
1;
19
07
04
03
11
1/
0.
b101100100111110 H
b111000 K
0%!
0}
0^
1\
1Z
0X
0U
0T
1R
1P
0O
b1 z
b11 o
b10 o
b11 /!
b10 /!
b10 +!
b10 k
b1 v
b1 w
b11 l
b10 l
b11 ,!
b10 ,!
b10 &!
b10 f
b1 q
b1 c
b10 a
b10 L
b1 e
b1 _
b1 I
b1 N
b1 F
b1 %
#260000
0#
b1 '
b100010 )
b100010 *
b10001000000010000101011 $
1E
1D
0A
0<
0:
09
08
05
13
02
01
b100010000000100 H
b101011 K
1%!
1$!
0!!
0]
0[
0Z
0Y
0V
1T
0S
0R
b1 x
1p
b0 o
b1 m
b1 i
b0 k
1j
b1 t
b11 l
b111 l
b101 l
b101 f
b101 a
#261000
b100011 )
b100011 *
b101001111101110100000000 $
0E
0D
0B
0@
1=
1:
19
17
16
15
14
10
0/
1.
b1010011111011101 H
b0 K
0%!
0$!
0"!
0~
1^
1[
1Z
1X
1W
1V
1U
1Q
0P
1O
b0 z
0p
b0 m
10!
b0 /!
1.!
1(!
b0 +!
1*!
b0 i
0j
b0 v
b0 w
b1 l
b0 l
1'!
b110 ,!
b100 ,!
1M
b0 &!
b0 f
b0 q
b0 c
b0 a
b0 L
b0 e
b0 _
b0 I
b0 N
b0 F
b0 %
#262000
b0 '
b100100 )
b100100 *
b111010100100110010001011 $
1E
1D
1B
1>
0=
09
06
05
03
12
1/
b1110101001001100 H
b10001011 K
1%!
1$!
1"!
1|
0^
0Z
0W
0V
0T
1S
1P
b0 x
b1 o
00!
0.!
0(!
0*!
b1 k
b0 t
b1 l
b0 ,!
0'!
0M
b1 f
b1 a
#263000
b100101 )
b100101 *
b1011010110000000011010 $
0E
1A
0>
0;
0:
18
15
04
13
0/
0.
b10110101100000 H
b11010 K
0%!
1!!
0|
0\
0[
1Y
1V
0U
1T
0P
0O
b10 z
1n
b10 /!
b11 /!
b11 +!
1h
b10 v
b10 w
b10 ,!
b11 ,!
b11 &!
b10 q
b10 c
b11 L
b10 e
b10 _
b10 I
b10 N
b10 F
b10 %
#264000
b10 '
b100110 )
b100110 *
b110011010000011110111 $
1E
1C
0B
1@
1?
1>
07
16
03
11
00
b1100110100000 H
b11110111 K
1%!
1#!
0"!
1~
1}
1|
0X
1W
0T
1R
0Q
b11 z
b0 o
b1 /!
b0 /!
b1 -!
b1 )!
b0 +!
b0 k
b11 v
b11 w
b0 l
b1 ,!
b0 ,!
b0 &!
b0 f
b11 q
b11 c
b0 a
b0 L
b11 e
b11 _
b11 I
b11 N
b11 F
b11 %
#265000
1#
b11 '
b100111 )
b100111 *
b11110001000000100101110 $
0E
1B
0A
0?
0>
1=
08
05
10
1/
b111100010000001 H
b101110 K
0%!
1"!
0!!
0}
0|
1^
0Y
0V
1Q
1P
b1 z
0n
b10 m
b11 m
b10 /!
b0 -!
b0 )!
b10 +!
b11 i
0h
b1 v
b1 w
b10 ,!
b10 &!
b1 q
b1 c
b10 L
b1 e
b1 _
b1 I
b1 N
b1 F
b1 %
#266000
b1 '
b101000 )
b101000 *
b110110000001110100111000 $
0D
0C
1A
1;
1:
19
06
00
1.
b1101100000011101 H
b111000 K
0$!
0#!
1!!
1\
1[
1Z
0W
0Q
1O
b0 z
b10 o
b11 o
b10 m
b0 m
b0 i
b11 k
b0 v
b0 w
b10 l
b11 l
b11 f
b0 q
b0 c
b11 a
b0 e
b0 _
b0 I
b0 N
b0 F
b0 %
#267000
b0 '
b101001 )
b101001 *
b10110000000011010011001 $
1E
0@
1>
0=
1<
0:
09
0.
b101100000000110 H
b10011001 K
1%!
0~
1|
0^
1]
0[
0Z
0O
b1 z
1p
b1 o
b0 o
b1 m
b0 /!
b0 +!
b1 i
b0 k
1j
b1 v
b1 w
b111 l
b101 l
b0 ,!
b0 &!
b101 f
b1 q
b1 c
b101 a
b0 L
b1 e
b1 _
b1 I
b1 N
b1 F
b1 %
#268000
b1 '
b101010 )
b101010 *
b11000001001001111110111 $
1D
1C
0B
1@
1?
1=
0;
19
16
02
01
10
b110000010010011 H
b11110111 K
1$!
1#!
0"!
1~
1}
1^
0\
1Z
1W
0S
0R
1Q
1y
0p
b11 m
b10 m
b1 -!
b1 )!
b10 i
0j
1s
b1 l
b0 l
b0 f
b0 a
#269000
b101011 )
b101011 *
b1101010101000001010101 $
0D
0@
0>
0=
0<
17
06
15
13
11
0/
b11010101010000 H
b1010101 K
0$!
0~
0|
0^
0]
1X
0W
1V
1T
1R
0P
b11 z
b10 z
0y
b1 x
b1 o
1n
b0 m
b1 /!
b1 +!
b0 i
1h
b1 k
b1 t
0s
b10 v
b11 w
b10 w
b1 l
b1 ,!
b1 &!
b1 f
b10 q
b10 c
b1 a
b1 L
b11 e
b10 e
b10 _
b10 I
b11 N
b10 N
b10 F
b10 %
#270000
0#
b10 '
b101100 )
b101100 *
b10111100111110000001011 $
1D
0C
1B
0A
0?
1;
1:
18
05
14
12
00
1/
b101111001111100 H
b1011 K
1$!
0#!
1"!
0!!
0}
1\
1[
1Y
0V
1U
1S
0Q
1P
b0 z
b1 z
b0 x
0n
10!
b0 /!
b0 -!
b0 )!
b0 +!
1*!
0h
b0 t
b1 v
b0 w
b1 w
b101 ,!
b100 ,!
b100 &!
b1 q
b1 c
b100 L
b0 e
b1 e
b1 _
b1 I
b0 N
b1 N
b1 F
b1 %
#271000
b1 '
b101101 )
b101101 *
b11111100011011001001 $
0D
1?
1>
1<
0:
09
08
16
15
01
0/
b111111000110 H
b11001001 K
0$!
1}
1|
1]
0[
0Z
0Y
1W
1V
0R
0P
1{
b0 z
b0 o
b1 m
00!
0*!
b1 i
b0 k
b0 v
1u
b101 w
b100 w
b0 l
b0 ,!
b0 &!
b0 f
b100 q
b100 c
b0 a
b0 L
b101 e
b100 e
b100 _
b100 I
b101 N
b100 N
b100 F
b100 %
#272000
b100 '
b101110 )
b101110 *
b11111100000100111101001 $
1@
1=
0<
0;
1:
07
06
05
11
10
1/
b111111000001001 H
b11101001 K
1~
1^
0]
0\
1[
0X
0W
0V
1R
1Q
1P
0{
b1 z
1p
b0 m
b0 i
1j
b1 v
0u
b101 w
b1 w
b100 l
b100 f
b1 q
b1 c
b100 a
b0 e
b1 e
b1 _
b1 I
b0 N
b1 N
b1 F
b1 %
#273000
b1 '
b101111 )
b101111 *
b111110010010111010101010 $
0E
1D
0?
0=
1<
1;
18
15
04
03
1.
b1111100100101110 H
b10101010 K
0%!
1$!
0}
0^
1]
1\
1Y
1V
0U
0T
1O
b0 z
0p
b10 o
b10 k
0j
b0 v
b0 w
b110 l
b10 l
b10 f
b0 q
b0 c
b10 a
b0 e
b0 _
b0 I
b0 N
b0 F
b0 %
#274000
b0 '
b110000 )
b110000 *
b11010001101101100001101 $
1E
0D
1C
0@
0>
1=
0;
19
08
17
16
05
01
0.
b110100011011011 H
b1101 K
1%!
0$!
1#!
0~
0|
1^
0\
1Z
0Y
1X
1W
0V
0R
0O
b1 z
b0 o
10!
1*!
b0 k
b1 v
b1 w
b0 l
b100 ,!
b100 &!
b0 f
b1 q
b1 c
b0 a
b100 L
b1 e
b1 _
b1 I
b1 N
b1 F
b1 %
#275000
1#
b1 '
b110001 )
b110001 *
b10100111100111110001111 $
1D
1>
1;
09
15
14
02
11
00
b101001111001111 H
b10001111 K
1$!
1|
1\
0Z
1V
1U
0S
1R
0Q
b10 x
00!
0*!
b10 t
b0 ,!
b0 &!
b0 L
#276000
b110010 )
b110010 *
b110011011110001010111 $
0B
1A
1?
0>
0=
0<
19
18
07
04
12
0/
b1100110111100 H
b1010111 K
0"!
1!!
1}
0|
0^
0]
1Z
1Y
0X
0U
1S
0P
b11 z
b0 x
b1 /!
b1 -!
b1 )!
b1 +!
b0 t
b11 v
b11 w
b1 ,!
b1 &!
b11 q
b11 c
b1 L
b11 e
b11 _
b11 I
b11 N
b11 F
b11 %
#277000
b11 '
b110011 )
b110011 *
b110011001000110000100 $
0E
0D
0A
0?
1>
1=
0;
0:
08
b1100110010001 H
b10000100 K
0%!
0$!
0!!
0}
1|
1^
0\
0[
0Y
b10 m
b11 m
b0 /!
b0 +!
b11 i
b0 ,!
b0 &!
b0 L
#278000
b110100 )
b110100 *
b101111011000101010010010 $
1D
0C
1A
0=
1<
1:
09
13
10
1.
b1011110110001010 H
b10010010 K
1$!
0#!
1!!
0^
1]
1[
0Z
1T
1Q
1O
b1 z
b0 z
b1 m
b0 m
b11 -!
b10 -!
b10 )!
b0 i
b0 v
b1 w
b0 w
b0 q
b0 c
b1 e
b0 e
b0 _
b0 I
b1 N
b0 N
b0 F
b0 %
#279000
b0 '
b110101 )
b110101 *
b11000100111000000011100 $
0D
1C
1B
0>
0<
0:
19
18
17
06
05
14
03
02
01
1/
0.
b110001001110000 H
b11100 K
0$!
1#!
1"!
0|
0]
0[
1Z
1Y
1X
0W
0V
1U
0T
0S
0R
1P
0O
b1 z
b10 x
b1 o
1n
b10 /!
b11 /!
b0 -!
b0 )!
b11 +!
1h
b1 k
b10 t
b1 v
b1 w
b1 l
b10 ,!
b11 ,!
b11 &!
b1 f
b1 q
b1 c
b1 a
b11 L
b1 e
b1 _
b1 I
b1 N
b1 F
b1 %
#280000
0#
b1 '
b110110 )
b110110 *
b10110100100101101010001 $
1E
0C
0B
1?
1=
1<
1:
09
08
12
11
00
b101101001001011 H
b1010001 K
1%!
0#!
0"!
1}
1^
1]
1[
0Z
0Y
1S
1R
0Q
b0 x
0n
b1 /!
b10 -!
b11 -!
b11 )!
b1 +!
0h
b0 t
b1 ,!
b1 &!
b1 L
#281000
b110111 )
b110111 *
b110100101010001110101110 $
0E
1D
1C
1B
0A
1@
0?
1>
0:
18
07
16
02
1.
b1101001010100011 H
b10101110 K
0%!
1$!
1#!
1"!
0!!
1~
0}
1|
0[
1Y
0X
1W
0S
1O
b0 z
b10 x
b0 o
b10 m
b0 /!
b1 -!
b0 -!
b0 )!
b0 +!
b10 i
b0 k
b10 t
b0 v
b0 w
b0 l
b0 ,!
b0 &!
b0 f
b0 q
b0 c
b0 a
b0 L
b0 e
b0 _
b0 I
b0 N
b0 F
b0 %
