Version_Final2/03_verif/SubModule/COMP_UNIT/COMP_28BIT/Verilator/simulation.log

=== START 28-bit COMPARATOR TEST ===

[Random] a=158757828 (1001011101100111001111000100), b=186539420 (1011000111100101110110011100) => o_less=1
=> PASS: expect=1, dut=1
[Random] a=251516162 (1110111111011101010100000010), b=146989284 (1000110000101110000011100100) => o_less=0
=> PASS: expect=0, dut=0
[Random] a=35095416 (0010000101111000001101111000), b=198545084 (1011110101011000111010111100) => o_less=1
=> PASS: expect=1, dut=1
[Random] a=178560694 (1010101001001001111010110110), b=169148388 (1010000101001111111111100100) => o_less=0
=> PASS: expect=0, dut=0
[Random] a=225440695 (1101011011111111001110110111), b=214200659 (1100110001000111000101010011) => o_less=0
=> PASS: expect=0, dut=0
[Random] a=262018849 (1111100111100001011100100001), b=177896929 (1010100110100111110111100001) => o_less=0
=> PASS: expect=0, dut=0
[Random] a=260878277 (1111100011001010111111000101), b=39056258 (0010010100111111001110000010) => o_less=0
=> PASS: expect=0, dut=0
[Random] a=72482658 (0100010100011111111101100010), b=56104501 (0011010110000001011000110101) => o_less=0
=> PASS: expect=0, dut=0
[Random] a=234604818 (1101111110111100100100010010), b=49916758 (0010111110011010101101010110) => o_less=0
=> PASS: expect=0, dut=0
[Random] a=70401021 (0100001100100011101111111101), b=208355828 (1100011010110100000111110100) => o_less=1
=> PASS: expect=1, dut=1
[Random] a=112063803 (0110101011011111010100111011), b=107826520 (0110011011010100110101011000) => o_less=0
=> PASS: expect=0, dut=0
[Random] a=164562098 (1001110011110000010010110010), b=114362460 (0110110100010000100001011100) => o_less=0
=> PASS: expect=0, dut=0
[Random] a=169575710 (1010000110111000010100011110), b=220153246 (1101000111110100010110011110) => o_less=1
=> PASS: expect=1, dut=1
[Random] a=234396062 (1101111110001001100110011110), b=187899118 (1011001100110001110011101110) => o_less=0
=> PASS: expect=0, dut=0
[Random] a=138111760 (1000001110110110101100010000), b=16482166 (0000111110110111111101110110) => o_less=0
=> PASS: expect=0, dut=0
[Random] a=173075811 (1010010100001110110101100011), b=161456832 (1001100111111010001011000000) => o_less=0
=> PASS: expect=0, dut=0
[Random] a=29932317 (0001110010001011101100011101), b=18550562 (0001000110110000111100100010) => o_less=0
=> PASS: expect=0, dut=0
[Random] a=261328646 (1111100100111000111100000110), b=99507073 (0101111011100101101110000001) => o_less=0
=> PASS: expect=0, dut=0
[Random] a=153956963 (1001001011010011001001100011), b=72663672 (0100010101001100001001111000) => o_less=0
=> PASS: expect=0, dut=0
[Random] a=6471279 (0000011000101011111001101111), b=55892686 (0011010101001101101011001110) => o_less=1
=> PASS: expect=1, dut=1
[Random] a=58982135 (0011100000111111111011110111), b=58268369 (0011011110010001101011010001) => o_less=0
=> PASS: expect=0, dut=0
[Random] a=215593886 (1100110110011011001110011110), b=205772919 (1100010000111101100001110111) => o_less=0
=> PASS: expect=0, dut=0
[Random] a=207143278 (1100010110001100000101101110), b=27790504 (0001101010000000110010101000) => o_less=0
=> PASS: expect=0, dut=0
[Random] a=79225679 (0100101110001110001101001111), b=32673979 (0001111100101001000010111011) => o_less=0
=> PASS: expect=0, dut=0
[Random] a=162695572 (1001101100101000100110010100), b=218836706 (1101000010110010111011100010) => o_less=1
=> PASS: expect=1, dut=1
[Random] a=41939302 (0010011111111111000101100110), b=268180255 (1111111111000001101100011111) => o_less=1
=> PASS: expect=1, dut=1
[Random] a=223654665 (1101010101001011001100001001), b=261930211 (1111100111001011110011100011) => o_less=1
=> PASS: expect=1, dut=1
[Random] a=129037855 (0111101100001111011000011111), b=28159876 (0001101011011010111110000100) => o_less=0
=> PASS: expect=0, dut=0
[Random] a=252720837 (1111000100000011011011000101), b=153200179 (1001001000011010011000110011) => o_less=0
=> PASS: expect=0, dut=0
[Random] a=259189323 (1111011100101110101001001011), b=239214236 (1110010000100001111010011100) => o_less=0
=> PASS: expect=0, dut=0
[Random] a=113813747 (0110110010001010100011110011), b=246623433 (1110101100110010110011001001) => o_less=1
=> PASS: expect=1, dut=1
[Random] a=64847597 (0011110111010111111011101101), b=196699594 (1011101110010110010111001010) => o_less=1
=> PASS: expect=1, dut=1
[Random] a=206165341 (1100010010011101010101011101), b=241251399 (1110011000010011010001000111) => o_less=1
=> PASS: expect=1, dut=1
[Random] a=65400100 (0011111001011110110100100100), b=55161583 (0011010010011011001011101111) => o_less=0
=> PASS: expect=0, dut=0
[Random] a=223655081 (1101010101001011010010101001), b=199809389 (1011111010001101100101101101) => o_less=0
=> PASS: expect=0, dut=0
[Random] a=101201721 (0110000010000011011100111001), b=250780280 (1110111100101001101001111000) => o_less=1
=> PASS: expect=1, dut=1
[Random] a=176679146 (1010100001111110100011101010), b=233257154 (1101111001110011100011000010) => o_less=1
=> PASS: expect=1, dut=1
[Random] a=192086356 (1011011100110000000101010100), b=44714324 (0010101010100100100101010100) => o_less=0
=> PASS: expect=0, dut=0
[Random] a=144755491 (1000101000001100101100100011), b=140759453 (1000011000111101000110011101) => o_less=0
=> PASS: expect=0, dut=0
[Random] a=117982131 (0111000010000100001110110011), b=163348397 (1001101111000111111110101101) => o_less=1
=> PASS: expect=1, dut=1
[Random] a=82399445 (0100111010010101000011010101), b=247036718 (1110101110010111101100101110) => o_less=1
=> PASS: expect=1, dut=1
[Random] a=176666831 (1010100001111011100011001111), b=268415749 (1111111111111011001100000101) => o_less=1
=> PASS: expect=1, dut=1
[Random] a=12096983 (0000101110001001010111010111), b=265946249 (1111110110100000010010001001) => o_less=1
=> PASS: expect=1, dut=1
[Random] a=180896502 (1010110010000100001011110110), b=106471343 (0110010110001001111110101111) => o_less=0
=> PASS: expect=0, dut=0
[Random] a=16381423 (0000111110011111010111101111), b=199239581 (1011111000000010011110011101) => o_less=1
=> PASS: expect=1, dut=1
[Random] a=83772223 (0100111111100100001100111111), b=186437327 (1011000111001100111011001111) => o_less=1
=> PASS: expect=1, dut=1
[Random] a=259384106 (1111011101011110001100101010), b=152363895 (1001000101001110001101110111) => o_less=0
=> PASS: expect=0, dut=0
[Random] a=194288282 (1011100101001001101010011010), b=151422731 (1001000001101000011100001011) => o_less=0
=> PASS: expect=0, dut=0
[Random] a=76291923 (0100100011000001111101010011), b=192430767 (1011011110000100001010101111) => o_less=1
=> PASS: expect=1, dut=1
[Random] a=150190476 (1000111100111011100110001100), b=31109890 (0001110110101011001100000010) => o_less=0
=> PASS: expect=0, dut=0
[Random] a=177679355 (1010100101110010101111111011), b=253761000 (1111001000000001010111101000) => o_less=1
=> PASS: expect=1, dut=1
[Random] a=1038786 (0000000011111101100111000010), b=242077149 (1110011011011100110111011101) => o_less=1
=> PASS: expect=1, dut=1
[Random] a=57164232 (0011011010000100000111001000), b=57202788 (0011011010001101100001100100) => o_less=1
=> PASS: expect=1, dut=1
[Random] a=158770785 (1001011101101010011001100001), b=26295013 (0001100100010011101011100101) => o_less=0
=> PASS: expect=0, dut=0
[Random] a=99212577 (0101111010011101110100100001), b=12593139 (0000110000000010011111110011) => o_less=0
=> PASS: expect=0, dut=0
[Random] a=225510489 (1101011100010000010001011001), b=40442101 (0010011010010001100011110101) => o_less=0
=> PASS: expect=0, dut=0
[Random] a=202380989 (1100000100000001011010111101), b=11803518 (0000101101000001101101111110) => o_less=0
=> PASS: expect=0, dut=0
[Random] a=128591458 (0111101010100010011001100010), b=91660234 (0101011101101001111111001010) => o_less=0
=> PASS: expect=0, dut=0
[Random] a=129638032 (0111101110100001111010010000), b=210814789 (1100100100001100011101000101) => o_less=1
=> PASS: expect=1, dut=1
[Random] a=57794648 (0011011100011110000001011000), b=210443024 (1100100010110001101100010000) => o_less=1
=> PASS: expect=1, dut=1
[Random] a=265281120 (1111110011111101111001100000), b=230163315 (1101101110000000001101110011) => o_less=0
=> PASS: expect=0, dut=0
[Random] a=57642236 (0011011011111000110011111100), b=55689533 (0011010100011100000100111101) => o_less=0
=> PASS: expect=0, dut=0
[Random] a=97494124 (0101110011111010010001101100), b=13456142 (0000110011010101001100001110) => o_less=0
=> PASS: expect=0, dut=0
[Random] a=106142439 (0110010100111001101011100111), b=3822135 (0000001110100101001000110111) => o_less=0
=> PASS: expect=0, dut=0
[Random] a=149401159 (1000111001111010111001000111), b=231183168 (1101110001111001001101000000) => o_less=1
=> PASS: expect=1, dut=1
[Random] a=117786675 (0111000001010100100000110011), b=6361884 (0000011000010001001100011100) => o_less=0
=> PASS: expect=0, dut=0
[Random] a=180820662 (1010110001110001101010110110), b=230810327 (1101110000011110001011010111) => o_less=1
=> PASS: expect=1, dut=1
[Random] a=24438074 (0001011101001110010100111010), b=201542247 (1100000000110100101001100111) => o_less=1
=> PASS: expect=1, dut=1
[Random] a=222688851 (1101010001011111011001010011), b=17809028 (0001000011111011111010000100) => o_less=0
=> PASS: expect=0, dut=0
[Random] a=141420788 (1000011011011110100011110100), b=250513124 (1110111011101000011011100100) => o_less=1
=> PASS: expect=1, dut=1
[Random] a=6585128 (0000011001000111101100101000), b=50152295 (0010111111010100001101100111) => o_less=1
=> PASS: expect=1, dut=1
[Random] a=222288021 (1101001111111101100010010101), b=100968252 (0110000001001010011100111100) => o_less=0
=> PASS: expect=0, dut=0
[Random] a=79240036 (0100101110010001101101100100), b=249315733 (1110110111000100000110010101) => o_less=1
=> PASS: expect=1, dut=1
[Random] a=94017418 (0101100110101001011110001010), b=28264253 (0001101011110100011100111101) => o_less=0
=> PASS: expect=0, dut=0
[Random] a=80113791 (0100110001100111000001111111), b=194525531 (1011100110000011100101011011) => o_less=1
=> PASS: expect=1, dut=1
[Random] a=15378652 (0000111010101010100011011100), b=5950444 (0000010110101100101111101100) => o_less=0
=> PASS: expect=0, dut=0
[Random] a=122345158 (0111010010101101011011000110), b=153026630 (1001000111110000000001000110) => o_less=1
=> PASS: expect=1, dut=1
[Random] a=152498297 (1001000101101111000001111001), b=199743748 (1011111001111101100100000100) => o_less=1
=> PASS: expect=1, dut=1
[Random] a=58738900 (0011100000000100100011010100), b=218286388 (1101000000101100100100110100) => o_less=1
=> PASS: expect=1, dut=1
[Random] a=13465277 (0000110011010111011010111101), b=128080667 (0111101000100101101100011011) => o_less=1
=> PASS: expect=1, dut=1
[Random] a=48042754 (0010110111010001001100000010), b=176126321 (1010011111110111100101110001) => o_less=1
=> PASS: expect=1, dut=1
[Random] a=239259219 (1110010000101100111001010011), b=231780451 (1101110100001011000001100011) => o_less=0
=> PASS: expect=0, dut=0
[Random] a=185296094 (1011000010110110010011011110), b=136915184 (1000001010010010100011110000) => o_less=0
=> PASS: expect=0, dut=0
[Random] a=249606148 (1110111000001011000000000100), b=182541919 (1010111000010101111001011111) => o_less=0
=> PASS: expect=0, dut=0
[Random] a=39949560 (0010011000011001010011111000), b=243837987 (1110100010001010110000100011) => o_less=1
=> PASS: expect=1, dut=1
[Random] a=121351040 (0111001110111010101110000000), b=169376097 (1010000110000111100101100001) => o_less=1
=> PASS: expect=1, dut=1
[Random] a=240385889 (1110010100111111111101100001), b=48546391 (0010111001001100001001010111) => o_less=0
=> PASS: expect=0, dut=0
[Random] a=122458322 (0111010011001001000011010010), b=133196540 (0111111100000110101011111100) => o_less=1
=> PASS: expect=1, dut=1
[Random] a=101414588 (0110000010110111011010111100), b=30652027 (0001110100111011011001111011) => o_less=0
=> PASS: expect=0, dut=0
[Random] a=41229105 (0010011101010001101100110001), b=196483966 (1011101101100001101101111110) => o_less=1
=> PASS: expect=1, dut=1
[Random] a=259087085 (1111011100010101101011101101), b=241826148 (1110011010011111100101100100) => o_less=0
=> PASS: expect=0, dut=0
[Random] a=9069524 (0000100010100110001111010100), b=183063997 (1010111010010101010110111101) => o_less=1
=> PASS: expect=1, dut=1
[Random] a=106610964 (0110010110101100000100010100), b=225237195 (1101011011001101100011001011) => o_less=1
=> PASS: expect=1, dut=1
[Random] a=84937419 (0101000100000000101011001011), b=39465691 (0010010110100011001011011011) => o_less=0
=> PASS: expect=0, dut=0
[Random] a=246887401 (1110101101110011001111101001), b=35194190 (0010000110010000010101001110) => o_less=0
=> PASS: expect=0, dut=0
[Random] a=201618980 (1100000001000111011000100100), b=124745538 (0111011011110111011101000010) => o_less=0
=> PASS: expect=0, dut=0
[Random] a=237317127 (1110001001010010110000000111), b=134903040 (1000000010100111010100000000) => o_less=0
=> PASS: expect=0, dut=0
[Random] a=97726934 (0101110100110011000111010110), b=194831679 (1011100111001110010100111111) => o_less=1
=> PASS: expect=1, dut=1
[Random] a=69238073 (0100001000000111110100111001), b=45014265 (0010101011101101110011111001) => o_less=0
=> PASS: expect=0, dut=0
[Random] a=176587991 (1010100001101000010011010111), b=255319930 (1111001101111101111101111010) => o_less=1
=> PASS: expect=1, dut=1

================================
========== TEST SUMMARY ==========
Total test cases:    100
Passed          :    100
Failed          :      0
Pass rate       : 100.00%
================================

- /home/noname/Documents/project_tiny/Floating_point/Verision1/03_verif/SubModule/COMP_UNIT/COMP_28BIT/tb_COMP_28bit.sv:89: Verilog $finish
- S i m u l a t i o n   R e p o r t: Verilator 5.024 2024-04-05
- Verilator: $finish at 1us; walltime 0.002 s; speed 0.000 s/s
- Verilator: cpu 0.000 s on 1 threads; alloced 57 MB
