Version_Final/03_verif/SubModule/CLA/CLA_4BIT/tb_CLA_4bit.vcd
$date
	Mon Nov  3 18:15:34 2025
$end
$version
	Questa Intel Starter FPGA Edition Version 2024.3
$end
$timescale
	1ps
$end

$scope module tb_CLA_4bit $end
$var reg 1 ! i_clk $end
$var reg 1 " i_rst_n $end
$var reg 4 # a [3:0] $end
$var reg 4 $ b [3:0] $end
$var reg 1 % cin $end
$var reg 4 & sum [3:0] $end
$var reg 1 ' o_p $end
$var reg 1 ( o_g $end
$var reg 5 ) w_expect [4:0] $end
$var integer 32 * test_count $end
$var integer 32 + test_pass $end

$scope function f_CLA_expected $end
$upscope $end

$scope task Display_Result $end
$upscope $end

$scope module DUT $end
$var wire 1 , a [3] $end
$var wire 1 - a [2] $end
$var wire 1 . a [1] $end
$var wire 1 / a [0] $end
$var wire 1 0 b [3] $end
$var wire 1 1 b [2] $end
$var wire 1 2 b [1] $end
$var wire 1 3 b [0] $end
$var wire 1 4 cin $end
$var reg 4 5 sum [3:0] $end
$var reg 1 6 o_p $end
$var reg 1 7 o_g $end
$var reg 4 8 w_g [3:0] $end
$var reg 4 9 w_p [3:0] $end
$var reg 4 : w_c [3:0] $end
$upscope $end
$upscope $end
$enddefinitions $end
#0
$dumpvars
0!
0"
b0 #
b0 $
0%
b0 &
0'
0(
bx )
b0 5
06
07
b0 8
b0 9
b0 :
b0 *
b0 +
04
03
02
01
00
0/
0.
0-
0,
$end
#5000
1!
#10000
0!
#15000
1!
#20000
1"
0!
#25000
1!
#30000
0!
#35000
1!
b100 #
b110 $
12
11
1-
b100 8
b10 9
b10 5
b1000 :
b1010 5
b1010 &
#36000
b1010 )
b1 *
b1 +
#40000
0!
#45000
1!
b1110 #
b1 $
1%
13
02
01
1.
1,
14
b0 8
b1111 9
b1001 :
b1011 :
b1111 :
b0 5
16
17
1(
1'
b0 &
#46000
b10000 )
b10 *
b10 +
#50000
0!
#55000
1!
b1 #
b1001 $
0%
10
1/
0.
0-
0,
04
b1 8
b1000 9
b1110 :
b110 5
b1010 :
b10 :
06
07
0(
0'
b1010 5
b1010 &
#56000
b1010 )
b11 *
b11 +
#60000
0!
#65000
1!
b1011 #
b0 $
1%
03
00
1.
1,
14
b0 8
b1011 9
b11 :
b111 :
b1100 5
b1100 &
#66000
b1100 )
b100 *
b100 +
#70000
0!
#75000
1!
b1010 #
b111 $
0%
13
12
11
0/
04
b10 8
b1101 9
b110 :
b100 :
b1001 5
b1100 :
17
1(
b1 5
b1 &
#76000
b10001 )
b101 *
b101 +
#80000
0!
#85000
1!
b1000 #
b1001 $
1%
02
01
10
0.
14
b1000 8
b1 9
b1101 :
b1111 :
b1110 5
b1011 :
b11 :
b10 5
b10 &
#86000
b10010 )
b110 *
b110 +
#90000
0!
#95000
1!
b101 #
b1011 $
12
1/
1-
0,
b1 8
b1110 9
b1101 5
b1011 :
b1111 :
b1 5
b1 &
#96000
b10001 )
b111 *
b111 +
#100000
0!
#105000
1!
b1001 #
b1010 $
03
0-
1,
b1000 8
b11 9
b1100 5
b111 :
b100 5
b100 &
#106000
b10100 )
b1000 *
b1000 +
#110000
0!
#115000
1!
b1111 #
b111 $
0%
13
11
00
1.
1-
04
b111 8
b1000 9
b110 :
b1110 5
b1110 :
b110 5
b110 &
#116000
b10110 )
b1001 *
b1001 +
#120000
0!
#125000
1!
b10 #
b1100 $
1%
03
02
10
0/
0-
0,
14
b0 8
b1110 9
b1111 :
b1 5
07
b111 :
b11 :
b1 :
b1111 5
0(
b1111 &
#126000
b1111 )
b1010 *
b1010 +
#130000
0!
#135000
1!
b1110 #
b110 $
0%
12
00
1-
1,
04
b110 8
b1000 9
b0 :
b1000 5
17
b100 :
b1100 :
b100 5
1(
b100 &
#136000
b10100 )
b1011 *
b1011 +
#140000
0!
#145000
1!
b1100 #
b111 $
13
0.
b100 8
b1011 9
b111 5
b1000 :
b11 5
b11 &
#146000
b10011 )
b1100 *
b1100 +
#150000
0!
#155000
1!
b1000 #
b1000 $
1%
03
02
01
10
0-
14
b1000 8
b0 9
b1001 :
b1001 5
b1 :
b1 5
b1 &
#156000
b10001 )
b1101 *
b1101 +
#160000
0!
#165000
1!
b1 #
b1001 $
13
1/
0,
b1 8
b1000 9
b1001 5
07
b11 :
b1011 5
0(
b1011 &
#166000
b1011 )
b1110 *
b1110 +
#170000
0!
#175000
1!
b1010 #
b1011 $
12
0/
1.
1,
b1010 8
b1 9
b10 5
17
b111 :
b110 5
1(
b110 &
#176000
b10110 )
b1111 *
b1111 +
#180000
0!
#185000
1!
b111 #
b1101 $
0%
02
11
1/
1-
0,
04
b101 8
b1010 9
b110 :
b1100 5
b1110 :
b100 5
b100 &
#186000
b10100 )
b10000 *
b10000 +
#190000
0!
#195000
1!
b110 #
b1100 $
1%
03
0/
14
b100 8
b1111 :
b101 5
b1101 :
b1001 :
b11 5
b11 &
#196000
b10011 )
b10001 *
b10001 +
#200000
0!
#205000
1!
b1101 #
b110 $
12
00
1/
0.
1,
b1011 9
b10 5
b1011 :
b1111 :
b100 5
b100 &
#206000
b10100 )
b10010 *
b10010 +
#210000
0!
#215000
1!
b1000 #
b0 $
0%
02
01
0/
0-
04
b0 8
b1000 9
b1110 :
b110 5
b1100 :
b1000 :
07
b0 :
0(
b1000 5
b1000 &
#216000
b1000 )
b10011 *
b10011 +
#220000
0!
#225000
1!
b1001 #
b1001 $
13
10
1/
b1001 8
b0 9
b0 5
17
b10 :
b10 5
1(
b10 &
#226000
b10010 )
b10100 *
b10100 +
#230000
0!
#235000
1!
b1100 #
b1111 $
1%
12
11
0/
1-
14
b1100 8
b11 9
b11 :
b111 :
b100 5
b1111 :
b1100 5
b1100 &
#236000
b11100 )
b10101 *
b10101 +
#240000
0!
#245000
1!
b1110 #
b101 $
02
00
1.
b100 8
b1011 9
b100 5
b100 &
#246000
b10100 )
b10110 *
b10110 +
#250000
0!
#255000
1!
b1111 #
b100 $
0%
03
1/
04
b1110 :
b101 5
b1100 :
b1000 :
b11 5
b11 &
#256000
b10011 )
b10111 *
b10111 +
#260000
0!
#265000
1!
b1000 #
b1111 $
13
12
10
0/
0.
0-
b1000 8
b111 9
b1111 5
b0 :
b111 5
b111 &
#266000
b10111 )
b11000 *
b11000 +
#270000
0!
#275000
1!
b1 #
b100 $
03
02
00
1/
0,
b0 8
b101 9
b101 5
07
0(
b101 &
#276000
b101 )
b11001 *
b11001 +
#280000
0!
#285000
1!
b111 #
b111 $
1%
13
12
1.
1-
14
b111 8
b0 9
b1 :
b1 5
b101 :
b1101 :
b1111 :
b1111 5
b1111 &
#286000
b1111 )
b11010 *
b11010 +
#290000
0!
#295000
1!
b10 #
b1101 $
0%
02
10
0/
0-
04
b0 8
b1111 9
b1110 :
b1 5
16
b110 :
b10 :
b0 :
b1111 5
1'
#296000
b11011 *
b11011 +
#300000
0!
#305000
1!
b1 #
b101 $
1%
00
1/
0.
14
b1 8
b100 9
b1 :
b101 5
06
b11 :
b111 5
0'
b111 &
#306000
b111 )
b11100 *
b11100 +
#310000
0!
#315000
1!
b1001 #
b1010 $
0%
03
12
01
10
1,
04
b1000 8
b11 9
b10 :
b1 5
17
b0 :
b11 5
1(
b11 &
#316000
b10011 )
b11101 *
b11101 +
#320000
0!
#325000
1!
b1011 #
b1110 $
1%
11
1.
14
b1010 8
b101 9
b1 :
b11 :
b110 5
b1011 :
b1111 :
b1010 5
b1010 &
#326000
b11010 )
b11110 *
b11110 +
#330000
0!
#335000
1!
b1 #
b110 $
0%
00
0.
0,
04
b0 8
b111 9
b1110 :
b1100 :
b1011 5
07
b1000 :
b0 :
b111 5
0(
b111 &
#336000
b111 )
b11111 *
b11111 +
#340000
0!
#345000
1!
b1001 #
b1111 $
13
10
1,
b1001 8
b110 9
b110 5
17
b10 :
b110 :
b1110 :
b1000 5
1(
b1000 &
#346000
b11000 )
b100000 *
b100000 +
#350000
0!
#355000
1!
b1100 #
b0 $
1%
03
02
01
00
0/
1-
14
b0 8
b1100 9
b1111 :
b11 5
07
b1101 :
b1001 :
b1 :
b1101 5
0(
b1101 &
#356000
b1101 )
b100001 *
b100001 +
#360000
0!
#365000
1!
b11 #
b110 $
0%
12
11
1/
1.
0-
0,
04
b10 8
b101 9
b0 :
b101 5
b100 :
b1100 :
b1001 5
b1001 &
#366000
b1001 )
b100010 *
b100010 +
#370000
0!
#375000
1!
b0 #
b1000 $
02
01
10
0/
0.
b0 8
b1000 9
b100 5
b1000 :
b0 :
b1000 5
b1000 &
#376000
b1000 )
b100011 *
b100011 +
#380000
0!
#385000
1!
b101 #
b1001 $
13
1/
1-
b1 8
b1100 9
b1100 5
b10 :
b1110 5
b1110 &
#386000
b1110 )
b100100 *
b100100 +
#390000
0!
#395000
1!
b1001 #
b1100 $
1%
03
11
0-
1,
14
b1000 8
b101 9
b11 :
b110 5
17
1(
b110 &
#396000
b10110 )
b100101 *
b100101 +
#400000
0!
#405000
1!
b111 #
b1101 $
0%
13
1.
1-
0,
04
b101 8
b1010 9
b10 :
b1000 5
b110 :
b1110 :
b100 5
b100 &
#406000
b10100 )
b100110 *
b100110 +
#410000
0!
#415000
1!
b10 #
b11 $
12
01
00
0/
0-
b10 8
b1 9
b1111 5
07
b110 :
b100 :
b101 5
0(
b101 &
#416000
b101 )
b100111 *
b100111 +
#420000
0!
#425000
1!
b101 #
b10 $
1%
03
1/
0.
1-
14
b0 8
b111 9
b101 :
b111 :
b1111 :
b1000 5
b1000 &
#426000
b1000 )
b101000 *
b101000 +
#430000
0!
#435000
1!
b1000 #
b1110 $
11
10
0/
0-
1,
b1000 8
b110 9
b1001 5
b1101 :
b1001 :
b1 :
17
1(
b111 5
b111 &
#436000
b10111 )
b101001 *
b101001 +
#440000
0!
#445000
1!
b0 #
b110 $
00
0,
b0 8
07
0(
#446000
b111 )
b101010 *
b101010 +
#450000
0!
#455000
1!
b1100 #
b0 $
0%
02
01
1-
1,
04
b1100 9
b0 :
b1100 5
b1100 &
#456000
b1100 )
b101011 *
b101011 +
#460000
0!
#465000
1!
b1001 #
b101 $
1%
13
11
1/
0-
14
b1 8
b1 :
b1101 5
b11 :
b1111 5
b1111 &
#466000
b1111 )
b101100 *
b101100 +
#470000
0!
#475000
1!
b101 #
b1111 $
12
10
1-
0,
b101 8
b1010 9
b1001 5
b111 :
17
b1111 :
1(
b101 5
b101 &
#476000
b10101 )
b101101 *
b101101 +
#480000
0!
#485000
1!
b11 #
b1110 $
0%
03
1.
0-
04
b10 8
b1101 9
b1110 :
b11 5
b1100 :
b1 5
b1 &
#486000
b10001 )
b101110 *
b101110 +
#490000
0!
#495000
1!
b101 #
b0 $
1%
02
01
00
0.
1-
14
b0 8
b101 9
b1101 :
b1111 :
b1010 5
07
b1011 :
b11 :
b110 5
0(
b110 &
#496000
b110 )
b101111 *
b101111 +
#500000
0!
#505000
1!
b111 #
b11 $
0%
13
12
1.
04
b11 8
b100 9
b10 :
b110 :
b1110 :
b1010 5
b1010 &
#506000
b1010 )
b110000 *
b110000 +
#510000
0!
#515000
1!
b1111 #
b1100 $
1%
03
02
11
10
1,
14
b1100 8
b11 9
b1111 :
b1100 5
17
1(
b1100 &
#516000
b11100 )
b110001 *
b110001 +
#520000
0!
#525000
1!
b1011 #
b101 $
0%
13
00
0-
04
b1 8
b1110 9
b1110 :
b0 5
b0 &
#526000
b10000 )
b110010 *
b110010 +
#530000
0!
#535000
1!
b1100 #
b1000 $
1%
03
01
10
0/
0.
1-
14
b1000 8
b100 9
b1111 :
b1011 5
b1101 :
b1001 :
b1 :
b101 5
b101 &
#536000
b10101 )
b110011 *
b110011 +
#540000
0!
#545000
1!
b1010 #
b1100 $
0%
11
1.
0-
04
b110 9
b0 :
b110 5
b110 &
#546000
b10110 )
b110100 *
b110100 +
#550000
0!
#555000
1!
b1101 #
b1000 $
1%
01
1/
0.
1-
14
b101 9
b1 :
b11 :
#556000
b110101 *
b110101 +
#560000
0!
#565000
1!
b1001 #
b110 $
12
11
00
0-
b0 8
b1111 9
b1100 5
16
b111 :
b1111 :
b0 5
1'
b0 &
#566000
b10000 )
b110110 *
b110110 +
#570000
0!
#575000
1!
b111 #
b1101 $
0%
13
02
10
1.
1-
0,
04
b101 8
b1010 9
b1110 :
b100 5
06
0'
b100 &
#576000
b10100 )
b110111 *
b110111 +
#580000
0!
#585000
1!
b10 #
0/
0-
b0 8
b1111 9
b1 5
16
07
b110 :
b100 :
b0 :
b1111 5
0(
1'
b1111 &
#586000
b1111 )
b111000 *
b111000 +
#590000
0!
#595000
1!
b1 #
b1011 $
12
01
1/
0.
b1 8
b1010 9
b1010 5
06
b10 :
b110 :
b1100 5
0'
b1100 &
#596000
b1100 )
b111001 *
b111001 +
#600000
0!
#605000
1!
b1000 #
b1111 $
1%
11
0/
1,
14
b1000 8
b111 9
b111 :
b1111 :
b1000 5
17
1(
b1000 &
#606000
b11000 )
b111010 *
b111010 +
#610000
0!
#615000
1!
b110 #
0%
1.
1-
0,
04
b110 8
b1001 9
b1110 :
b1100 :
b101 5
b101 &
#616000
b10101 )
b111011 *
b111011 +
#620000
0!
#625000
1!
b1000 #
b1110 $
03
0.
0-
1,
b1000 8
b110 9
b1010 5
b100 :
b0 :
b110 5
b110 &
#626000
b10110 )
b111100 *
b111100 +
#630000
0!
#635000
1!
1%
14
b1 :
b111 5
b111 &
#636000
b10111 )
b111101 *
b111101 +
#640000
0!
#645000
1!
b110 #
b0 $
02
01
00
1.
1-
0,
b0 8
07
0(
#646000
b111 )
b111110 *
b111110 +
#650000
0!
#655000
1!
b10 #
b101 $
13
11
0-
b111 9
b110 5
b11 :
b111 :
b1111 :
b1000 5
b1000 &
#656000
b1000 )
b111111 *
b111111 +
#660000
0!
#665000
1!
b0 #
b111 $
0%
12
0.
04
b1110 :
b1001 5
b1100 :
b1000 :
b0 :
b111 5
b111 &
#666000
b111 )
b1000000 *
b1000000 +
#670000
0!
#675000
1!
b1100 #
b10 $
1%
03
01
1-
1,
14
b1110 9
b1 :
b1111 5
b1111 &
#676000
b1111 )
b1000001 *
b1000001 +
#680000
0!
#685000
1!
0%
04
b0 :
b1110 5
b1110 &
#686000
b1110 )
b1000010 *
b1000010 +
#690000
0!
#695000
1!
b1011 #
b110 $
11
1/
1.
0-
b10 8
b1101 9
b1101 5
17
b100 :
b1100 :
b1 5
1(
b1 &
#696000
b10001 )
b1000011 *
b1000011 +
#700000
0!
#705000
1!
b0 #
b0 $
02
01
0/
0.
0,
b0 8
b0 9
b1100 5
07
b1000 :
b0 :
b0 5
0(
b0 &
#706000
b0 )
b1000100 *
b1000100 +
#710000
0!
#715000
1!
b11 #
1%
1/
1.
14
b11 9
b1 :
b11 :
b111 :
b100 5
b100 &
#716000
b100 )
b1000101 *
b1000101 +
#720000
0!
#725000
1!
b1 #
b110 $
0%
12
11
0.
04
b111 9
b110 :
b100 :
b0 :
b111 5
b111 &
#726000
b111 )
b1000110 *
b1000110 +
#730000
0!
#735000
1!
b1001 #
b111 $
1%
13
1,
14
b1 8
b1110 9
b1 :
b1111 5
17
b11 :
b111 :
b1111 :
b1 5
1(
b1 &
#736000
b10001 )
b1000111 *
b1000111 +
#740000
0!
#745000
1!
b101 #
b1100 $
03
02
10
1-
0,
b100 8
b1001 9
b110 5
b1011 :
b10 5
b10 &
#746000
b10010 )
b1001000 *
b1001000 +
#750000
0!
#755000
1!
b1011 #
b1000 $
0%
01
1.
0-
1,
04
b1000 8
b11 9
b1010 :
b1000 :
b1011 5
b0 :
b11 5
b11 &
#756000
b10011 )
b1001001 *
b1001001 +
#760000
0!
#765000
1!
b1 #
b1101 $
13
11
0.
0,
b1 8
b1100 9
b1100 5
07
b10 :
b1110 5
0(
b1110 &
#766000
b1110 )
b1001010 *
b1001010 +
#770000
0!
#775000
1!
b10 #
b1010 $
03
12
01
0/
1.
b10 8
b1000 9
b1010 5
b110 :
b100 :
b1100 5
b1100 &
#776000
b1100 )
b1001011 *
b1001011 +
#780000
0!
#785000
1!
b1 #
1/
0.
b0 8
b1011 9
b1111 5
b0 :
b1011 5
b1011 &
#786000
b1011 )
b1001100 *
b1001100 +
#790000
0!
#795000
1!
b1111 #
b1011 $
1%
13
1.
1-
1,
14
b1011 8
b100 9
b1 :
b101 5
b1001 :
17
b1011 :
b1111 :
1(
b1011 5
#796000
b11011 )
b1001101 *
b1001101 +
#800000
0!
#805000
1!
b100 #
b1101 $
02
11
0/
0.
0,
b100 8
b1001 9
b110 5
b1011 :
b10 5
b10 &
#806000
b10010 )
b1001110 *
b1001110 +
#810000
0!
#815000
1!
b110 #
b101 $
00
1.
b11 9
b1000 5
07
b1111 :
b1100 5
0(
b1100 &
#816000
b1100 )
b1001111 *
b1001111 +
#820000
0!
#825000
1!
b1001 #
b100 $
03
1/
0.
0-
1,
b0 8
b1101 9
b10 5
b1011 :
b11 :
b1110 5
b1110 &
#826000
b1110 )
b1010000 *
b1010000 +
#830000
0!
#835000
1!
b10 #
b1 $
0%
13
01
0/
1.
0,
04
b11 9
b10 :
b0 :
b11 5
b11 &
#836000
b11 )
b1010001 *
b1010001 +
#840000
0!
#845000
1!
b1010 #
b1011 $
1%
12
10
1,
14
b1010 8
b1 9
b1 :
b11 :
b10 5
17
b111 :
b110 5
1(
b110 &
#846000
b10110 )
b1010010 *
b1010010 +
#850000
0!
#855000
1!
b1 $
0%
02
00
04
b0 8
b1011 9
b110 :
b100 :
b1111 5
07
b0 :
b1011 5
0(
b1011 &
#856000
b1011 )
b1010011 *
b1010011 +
#860000
0!
#865000
1!
b1110 $
03
12
11
10
b1010 8
b100 9
b100 5
b1000 :
17
b1100 :
1(
b1000 5
b1000 &
#866000
b11000 )
b1010100 *
b1010100 +
#870000
0!
#875000
1!
b1110 #
b1 $
13
02
01
00
1-
b0 8
b1111 9
b11 5
16
07
b1000 :
b0 :
b1111 5
0(
1'
b1111 &
#876000
b1111 )
b1010101 *
b1010101 +
#880000
0!
#885000
1!
b100 #
0.
0,
b101 9
b101 5
06
0'
b101 &
#886000
b101 )
b1010110 *
b1010110 +
#890000
0!
#895000
1!
b110 #
b111 $
12
11
1.
b110 8
b1 9
b1 5
b100 :
b1100 :
b1101 5
b1101 &
#896000
b1101 )
b1010111 *
b1010111 +
#900000
0!
#905000
1!
b1101 #
b1 $
02
01
1/
0.
1,
b1 8
b1100 9
b0 5
b100 :
b0 :
b10 :
b1110 5
b1110 &
#906000
b1110 )
b1011000 *
b1011000 +
#910000
0!
#915000
1!
b1100 #
b1101 $
1%
11
10
0/
14
b1100 8
b1 9
b11 :
b10 5
17
b1011 :
b1010 5
1(
b1010 &
#916000
b11010 )
b1011001 *
b1011001 +
#920000
0!
#925000
1!
b0 #
b101 $
00
0-
0,
b0 8
b101 9
b1110 5
07
b11 :
b110 5
0(
b110 &
#926000
b110 )
b1011010 *
b1011010 +
#930000
0!
#935000
1!
#936000
b1011011 *
b1011011 +
#940000
0!
#945000
1!
b10 #
b0 $
0%
03
01
1.
04
b10 9
b10 :
b0 5
b0 :
b10 5
b10 &
#946000
b10 )
b1011100 *
b1011100 +
#950000
0!
#955000
1!
b1001 #
b1110 $
12
11
10
1/
0.
1,
b1000 8
b111 9
b111 5
17
1(
b111 &
#956000
b10111 )
b1011101 *
b1011101 +
#960000
0!
#965000
1!
b1110 #
b1 $
1%
13
02
01
00
0/
1.
1-
14
b0 8
b1111 9
b1 :
b11 :
b111 :
b1111 :
b0 5
16
1'
b0 &
#966000
b10000 )
b1011110 *
b1011110 +
#970000
0!
#975000
1!
b100 #
b111 $
0%
12
11
0.
0,
04
b100 8
b11 9
b1110 :
b1100 :
b1000 :
b1011 5
06
07
0(
0'
b1011 &
#976000
b1011 )
b1011111 *
b1011111 +
#980000
0!
#985000
1!
b1100 #
b1110 $
1%
03
10
1,
14
b1100 8
b10 9
b1001 :
17
1(
#986000
b11011 )
b1100000 *
b1100000 +
#990000
0!
#995000
1!
b1101 #
b1111 $
0%
13
1/
04
b1101 8
b1000 :
b1010 5
b1010 :
b1110 :
b1100 5
b1100 &
#996000
b11100 )
b1100001 *
b1100001 +
#1000000
0!
#1005000
1!
b1 #
b10 $
1%
03
01
00
0-
0,
14
b0 8
b11 9
b1111 :
07
b111 :
b100 5
0(
b100 &
#1006000
b100 )
b1100010 *
b1100010 +
#1010000
0!
#1015000
1!
b100 #
b110 $
0%
11
0/
1-
04
b100 8
b10 9
b110 :
b100 :
b0 :
b1000 :
b1010 5
b1010 &
#1016000
b1010 )
b1100011 *
b1100011 +
#1020000
0!
#1025000
1!
b1 #
b1000 $
02
01
10
1/
0-
b0 8
b1001 9
b1 5
b0 :
b1001 5
b1001 &
#1026000
b1001 )
b1100100 *
b1100100 +
