FLOATING_POINT_ADD_SUB/Verision2/03_verif/Imple/HEX/tb_HEX_block.vcd
$date
	Sun Nov  9 17:00:39 2025
$end
$version
	Questa Intel Starter FPGA Edition Version 2024.3
$end
$timescale
	1ps
$end

$scope module tb_HEX_block $end
$var reg 1 ! i_clk $end
$var reg 1 " i_rst_n $end
$var reg 1 # i_tx_en $end
$var reg 8 $ i_tx_data [7:0] $end
$var reg 1 % o_tx_serial $end
$var reg 1 & o_tx_done $end
$var reg 1 ' i_rx_en $end
$var reg 32 ( o_rx_data_a [31:0] $end
$var reg 32 ) o_rx_data_b [31:0] $end
$var reg 32 * i_hex_data [31:0] $end
$var reg 1 + o_rx_done $end
$var reg 7 , o_hex_0 [6:0] $end
$var reg 7 - o_hex_1 [6:0] $end
$var reg 7 . o_hex_2 [6:0] $end
$var reg 7 / o_hex_3 [6:0] $end
$var reg 7 0 o_hex_4 [6:0] $end
$var reg 7 1 o_hex_5 [6:0] $end
$var reg 7 2 o_hex_6 [6:0] $end
$var reg 7 3 o_hex_7 [6:0] $end

$scope task Trans_Value $end
$upscope $end

$scope function decode_hex7 $end
$upscope $end

$scope module UART_TX $end
$var parameter 32 4 SIZE_DATA $end
$var parameter 32 5 BAUDRATE_VALUE $end
$var wire 1 6 i_clk $end
$var wire 1 7 i_rst_n $end
$var wire 1 8 i_tx_en $end
$var wire 1 9 i_tx_data [7] $end
$var wire 1 : i_tx_data [6] $end
$var wire 1 ; i_tx_data [5] $end
$var wire 1 < i_tx_data [4] $end
$var wire 1 = i_tx_data [3] $end
$var wire 1 > i_tx_data [2] $end
$var wire 1 ? i_tx_data [1] $end
$var wire 1 @ i_tx_data [0] $end
$var reg 1 A o_tx_serial $end
$var wire 1 B o_tx_done $end
$var wire 1 C w_stick $end

$scope module BAUD_GEN_UNIT $end
$var parameter 32 D SIZE_BAUD $end
$var wire 1 6 i_clk $end
$var wire 1 7 i_rst_n $end
$var wire 1 E i_baud_rate [23] $end
$var wire 1 F i_baud_rate [22] $end
$var wire 1 G i_baud_rate [21] $end
$var wire 1 H i_baud_rate [20] $end
$var wire 1 I i_baud_rate [19] $end
$var wire 1 J i_baud_rate [18] $end
$var wire 1 K i_baud_rate [17] $end
$var wire 1 L i_baud_rate [16] $end
$var wire 1 M i_baud_rate [15] $end
$var wire 1 N i_baud_rate [14] $end
$var wire 1 O i_baud_rate [13] $end
$var wire 1 P i_baud_rate [12] $end
$var wire 1 Q i_baud_rate [11] $end
$var wire 1 R i_baud_rate [10] $end
$var wire 1 S i_baud_rate [9] $end
$var wire 1 T i_baud_rate [8] $end
$var wire 1 U i_baud_rate [7] $end
$var wire 1 V i_baud_rate [6] $end
$var wire 1 W i_baud_rate [5] $end
$var wire 1 X i_baud_rate [4] $end
$var wire 1 Y i_baud_rate [3] $end
$var wire 1 Z i_baud_rate [2] $end
$var wire 1 [ i_baud_rate [1] $end
$var wire 1 \ i_baud_rate [0] $end
$var reg 1 ] o_stick $end
$var reg 24 ^ bdr_count [23:0] $end
$var reg 24 _ n_bdr_count [23:0] $end
$var reg 1 ` w_stick $end

$scope begin proc_stick $end
$upscope $end

$scope begin proc_divider_baud $end
$upscope $end
$upscope $end

$scope module Transmitter_unit $end
$var parameter 32 a SIZE_DATA $end
$var parameter 32 b OVER_SAMPLE $end
$var parameter 32 c SIZE_STATUS $end
$var parameter 3 d IDLE $end
$var parameter 3 e START $end
$var parameter 3 f TRANSMIT $end
$var parameter 3 g STOP_I $end
$var parameter 3 h STOP_II $end
$var parameter 3 i DONE $end
$var parameter 32 j SIZE_INDEX $end
$var parameter 32 k SIZE_COUNT $end
$var wire 1 6 i_clk $end
$var wire 1 7 i_rst_n $end
$var wire 1 C i_stick $end
$var wire 1 8 i_tx_en $end
$var wire 1 l i_fifo_empty $end
$var wire 1 9 i_tx_data [7] $end
$var wire 1 : i_tx_data [6] $end
$var wire 1 ; i_tx_data [5] $end
$var wire 1 < i_tx_data [4] $end
$var wire 1 = i_tx_data [3] $end
$var wire 1 > i_tx_data [2] $end
$var wire 1 ? i_tx_data [1] $end
$var wire 1 @ i_tx_data [0] $end
$var reg 1 m o_tx_serial $end
$var reg 1 n o_tx_done $end
$var reg 1 o o_valid $end
$var reg 3 p state [2:0] $end
$var reg 3 q n_state [2:0] $end
$var reg 4 r index [3:0] $end
$var reg 4 s n_index [3:0] $end
$var wire 1 t w_update_data $end
$var reg 5 u count [4:0] $end
$var reg 5 v n_count [4:0] $end
$var wire 1 w w_update_sample $end
$var wire 1 x w_update_start $end
$var reg 1 y w_valid $end

$scope begin proc_state $end
$upscope $end

$scope begin proc_state_update $end
$upscope $end

$scope begin proc_tx_out $end
$upscope $end

$scope begin proc_tx_done $end
$upscope $end
$upscope $end
$upscope $end

$scope module UART_RX $end
$var parameter 32 z SIZE_DATA $end
$var wire 1 { i_clk $end
$var wire 1 | i_rst_n $end
$var wire 1 } i_rx_en $end
$var wire 1 ~ i_rx_data $end
$var reg 32 !! o_data_a [31:0] $end
$var reg 32 "! o_data_b [31:0] $end
$var reg 1 #! o_done $end
$var wire 1 $! o_rx_done $end
$var reg 8 %! w_rx_data [7:0] $end
$var wire 1 &! w_stick $end
$var reg 1 '! w_en_a $end
$var reg 1 (! w_en_b $end

$scope module BAUD_GEN_UNIT $end
$var parameter 32 )! SIZE_BAUD $end
$var wire 1 { i_clk $end
$var wire 1 | i_rst_n $end
$var wire 1 *! i_baud_rate [23] $end
$var wire 1 +! i_baud_rate [22] $end
$var wire 1 ,! i_baud_rate [21] $end
$var wire 1 -! i_baud_rate [20] $end
$var wire 1 .! i_baud_rate [19] $end
$var wire 1 /! i_baud_rate [18] $end
$var wire 1 0! i_baud_rate [17] $end
$var wire 1 1! i_baud_rate [16] $end
$var wire 1 2! i_baud_rate [15] $end
$var wire 1 3! i_baud_rate [14] $end
$var wire 1 4! i_baud_rate [13] $end
$var wire 1 5! i_baud_rate [12] $end
$var wire 1 6! i_baud_rate [11] $end
$var wire 1 7! i_baud_rate [10] $end
$var wire 1 8! i_baud_rate [9] $end
$var wire 1 9! i_baud_rate [8] $end
$var wire 1 :! i_baud_rate [7] $end
$var wire 1 ;! i_baud_rate [6] $end
$var wire 1 <! i_baud_rate [5] $end
$var wire 1 =! i_baud_rate [4] $end
$var wire 1 >! i_baud_rate [3] $end
$var wire 1 ?! i_baud_rate [2] $end
$var wire 1 @! i_baud_rate [1] $end
$var wire 1 A! i_baud_rate [0] $end
$var reg 1 B! o_stick $end
$var reg 24 C! bdr_count [23:0] $end
$var reg 24 D! n_bdr_count [23:0] $end
$var reg 1 E! w_stick $end

$scope begin proc_stick $end
$upscope $end

$scope begin proc_divider_baud $end
$upscope $end
$upscope $end

$scope module UART_RX_MEM $end
$var parameter 32 F! SIZE_DATA_I $end
$var parameter 32 G! SIZE_DATA_O $end
$var parameter 32 H! SIZE_DEPTH $end
$var parameter 32 I! SIZE_ADDR $end
$var wire 1 { i_clk $end
$var wire 1 | i_rst_n $end
$var wire 1 $! i_wr_en $end
$var wire 1 J! i_fifo_data [7] $end
$var wire 1 K! i_fifo_data [6] $end
$var wire 1 L! i_fifo_data [5] $end
$var wire 1 M! i_fifo_data [4] $end
$var wire 1 N! i_fifo_data [3] $end
$var wire 1 O! i_fifo_data [2] $end
$var wire 1 P! i_fifo_data [1] $end
$var wire 1 Q! i_fifo_data [0] $end
$var reg 1 R! o_done_a $end
$var reg 32 S! o_data_a [31:0] $end
$var reg 1 T! o_done_b $end
$var reg 32 U! o_data_b [31:0] $end
$var reg 3 V! ptr_wr [2:0] $end
$var reg 3 W! ptr_wr_n [2:0] $end
$var reg 1 X! w_update_a_n $end
$var reg 1 Y! w_update_b_n $end
$var reg 1 Z! w_update_a_n_1 $end
$var reg 1 [! w_update_b_n_1 $end

$scope begin pointer_for_write $end
$upscope $end

$scope begin proc_update_data_a_and_b $end
$upscope $end

$scope begin proc_memory $end
$upscope $end

$scope begin proc_fifo_read_data_a $end
$upscope $end
$upscope $end

$scope module UART_DETECT_DONE $end
$var wire 1 { i_clk $end
$var wire 1 | i_rst_n $end
$var wire 1 \! i_en_a $end
$var wire 1 ]! i_en_b $end
$var reg 1 ^! o_done $end
$var reg 1 _! w_en_a $end

$scope begin output_done $end
$upscope $end

$scope module SS_DETECT_START_A $end
$var wire 1 { i_clk $end
$var wire 1 | i_rst_n $end
$var wire 1 \! i_start $end
$var wire 1 `! i_done $end
$var reg 1 a! o_w_start $end
$var reg 1 b! w_start $end
$var reg 1 c! w_done $end
$var reg 1 d! w_start_save $end
$var wire 1 e! w_next_start $end

$scope module SS_detect_edge_unit $end
$var parameter 32 f! POS_EDGE $end
$var wire 1 { i_clk $end
$var wire 1 | i_rst_n $end
$var wire 1 \! i_signal $end
$var reg 1 g! o_signal $end
$var reg 1 h! w_p_signal $end
$var reg 1 i! w_n_signal $end

$scope begin genblk1 $end
$upscope $end
$upscope $end

$scope module SS_detect_edge_unit_2 $end
$var parameter 32 j! POS_EDGE $end
$var wire 1 { i_clk $end
$var wire 1 | i_rst_n $end
$var wire 1 `! i_signal $end
$var reg 1 k! o_signal $end
$var reg 1 l! w_p_signal $end
$var reg 1 m! w_n_signal $end

$scope begin genblk1 $end
$upscope $end
$upscope $end
$upscope $end
$upscope $end

$scope module UART_RX $end
$var parameter 32 n! SIZE_DATA $end
$var parameter 32 o! OVER_SAMPLING $end
$var parameter 32 p! MID_SAMPLING $end
$var parameter 32 q! SIZE_STATUS $end
$var parameter 3 r! IDLE $end
$var parameter 3 s! START $end
$var parameter 3 t! TRANSMIT $end
$var parameter 3 u! STOP_I $end
$var parameter 3 v! STOP_II $end
$var parameter 3 w! DONE $end
$var parameter 32 x! SIZE_COUNT $end
$var parameter 32 y! SIZE_INDEX $end
$var wire 1 { i_clk $end
$var wire 1 | i_rst_n $end
$var wire 1 &! i_stick $end
$var wire 1 } i_rx_en $end
$var wire 1 ~ i_rx_data $end
$var reg 8 z! o_rx_data [7:0] $end
$var reg 1 {! o_rx_done $end
$var reg 3 |! state [2:0] $end
$var reg 3 }! n_state [2:0] $end
$var reg 5 ~! count [4:0] $end
$var reg 5 !" n_count [4:0] $end
$var reg 4 "" index [3:0] $end
$var reg 4 #" n_index [3:0] $end
$var reg 1 $" w_update_sampling $end
$var reg 1 %" w_update_mid_sampling $end
$var reg 1 &" w_update_data $end
$var reg 1 '" w_detect_start $end
$var reg 8 (" w_o_rx_data [7:0] $end

$scope begin proc_next_state $end
$upscope $end

$scope begin proc_state $end
$upscope $end

$scope begin proc_w_out_data $end
$upscope $end

$scope begin proc_out_data $end
$upscope $end

$scope begin proc_done_rx $end
$upscope $end

$scope module UART_DETECT_NEG $end
$var parameter 32 )" POS_EDGE $end
$var wire 1 { i_clk $end
$var wire 1 | i_rst_n $end
$var wire 1 ~ i_signal $end
$var reg 1 *" o_signal $end
$var reg 1 +" w_p_signal $end
$var reg 1 ," w_n_signal $end

$scope begin genblk1 $end
$upscope $end
$upscope $end
$upscope $end
$upscope $end

$scope module DUT $end
$var parameter 32 -" SIZE_HEX $end
$var parameter 32 ." SIZE_DATA $end
$var parameter 32 /" TYPE_ANODE $end
$var wire 1 0" i_clk $end
$var wire 1 1" i_rst_n $end
$var wire 1 2" i_hex_en $end
$var wire 1 3" i_hex_data [31] $end
$var wire 1 4" i_hex_data [30] $end
$var wire 1 5" i_hex_data [29] $end
$var wire 1 6" i_hex_data [28] $end
$var wire 1 7" i_hex_data [27] $end
$var wire 1 8" i_hex_data [26] $end
$var wire 1 9" i_hex_data [25] $end
$var wire 1 :" i_hex_data [24] $end
$var wire 1 ;" i_hex_data [23] $end
$var wire 1 <" i_hex_data [22] $end
$var wire 1 =" i_hex_data [21] $end
$var wire 1 >" i_hex_data [20] $end
$var wire 1 ?" i_hex_data [19] $end
$var wire 1 @" i_hex_data [18] $end
$var wire 1 A" i_hex_data [17] $end
$var wire 1 B" i_hex_data [16] $end
$var wire 1 C" i_hex_data [15] $end
$var wire 1 D" i_hex_data [14] $end
$var wire 1 E" i_hex_data [13] $end
$var wire 1 F" i_hex_data [12] $end
$var wire 1 G" i_hex_data [11] $end
$var wire 1 H" i_hex_data [10] $end
$var wire 1 I" i_hex_data [9] $end
$var wire 1 J" i_hex_data [8] $end
$var wire 1 K" i_hex_data [7] $end
$var wire 1 L" i_hex_data [6] $end
$var wire 1 M" i_hex_data [5] $end
$var wire 1 N" i_hex_data [4] $end
$var wire 1 O" i_hex_data [3] $end
$var wire 1 P" i_hex_data [2] $end
$var wire 1 Q" i_hex_data [1] $end
$var wire 1 R" i_hex_data [0] $end
$var reg 7 S" o_hex_0 [6:0] $end
$var reg 7 T" o_hex_1 [6:0] $end
$var reg 7 U" o_hex_2 [6:0] $end
$var reg 7 V" o_hex_3 [6:0] $end
$var reg 7 W" o_hex_4 [6:0] $end
$var reg 7 X" o_hex_5 [6:0] $end
$var reg 7 Y" o_hex_6 [6:0] $end
$var reg 7 Z" o_hex_7 [6:0] $end
$var reg 1 [" w_hex_en_0 $end
$var reg 1 \" w_hex_en_1 $end

$scope begin gen_hex[7] $end
$var parameter 32 ]" i $end

$scope module u_hex_trans $end
$var parameter 32 ^" TYPE_ANODE $end
$var wire 1 3" i_hex_data [3] $end
$var wire 1 4" i_hex_data [2] $end
$var wire 1 5" i_hex_data [1] $end
$var wire 1 6" i_hex_data [0] $end
$var reg 7 _" o_hex [6:0] $end

$scope begin gen_anode $end
$upscope $end
$upscope $end
$upscope $end

$scope begin gen_hex[6] $end
$var parameter 32 `" i $end

$scope module u_hex_trans $end
$var parameter 32 a" TYPE_ANODE $end
$var wire 1 7" i_hex_data [3] $end
$var wire 1 8" i_hex_data [2] $end
$var wire 1 9" i_hex_data [1] $end
$var wire 1 :" i_hex_data [0] $end
$var reg 7 b" o_hex [6:0] $end

$scope begin gen_anode $end
$upscope $end
$upscope $end
$upscope $end

$scope begin gen_hex[5] $end
$var parameter 32 c" i $end

$scope module u_hex_trans $end
$var parameter 32 d" TYPE_ANODE $end
$var wire 1 ;" i_hex_data [3] $end
$var wire 1 <" i_hex_data [2] $end
$var wire 1 =" i_hex_data [1] $end
$var wire 1 >" i_hex_data [0] $end
$var reg 7 e" o_hex [6:0] $end

$scope begin gen_anode $end
$upscope $end
$upscope $end
$upscope $end

$scope begin gen_hex[4] $end
$var parameter 32 f" i $end

$scope module u_hex_trans $end
$var parameter 32 g" TYPE_ANODE $end
$var wire 1 ?" i_hex_data [3] $end
$var wire 1 @" i_hex_data [2] $end
$var wire 1 A" i_hex_data [1] $end
$var wire 1 B" i_hex_data [0] $end
$var reg 7 h" o_hex [6:0] $end

$scope begin gen_anode $end
$upscope $end
$upscope $end
$upscope $end

$scope begin gen_hex[3] $end
$var parameter 32 i" i $end

$scope module u_hex_trans $end
$var parameter 32 j" TYPE_ANODE $end
$var wire 1 C" i_hex_data [3] $end
$var wire 1 D" i_hex_data [2] $end
$var wire 1 E" i_hex_data [1] $end
$var wire 1 F" i_hex_data [0] $end
$var reg 7 k" o_hex [6:0] $end

$scope begin gen_anode $end
$upscope $end
$upscope $end
$upscope $end

$scope begin gen_hex[2] $end
$var parameter 32 l" i $end

$scope module u_hex_trans $end
$var parameter 32 m" TYPE_ANODE $end
$var wire 1 G" i_hex_data [3] $end
$var wire 1 H" i_hex_data [2] $end
$var wire 1 I" i_hex_data [1] $end
$var wire 1 J" i_hex_data [0] $end
$var reg 7 n" o_hex [6:0] $end

$scope begin gen_anode $end
$upscope $end
$upscope $end
$upscope $end

$scope begin gen_hex[1] $end
$var parameter 32 o" i $end

$scope module u_hex_trans $end
$var parameter 32 p" TYPE_ANODE $end
$var wire 1 K" i_hex_data [3] $end
$var wire 1 L" i_hex_data [2] $end
$var wire 1 M" i_hex_data [1] $end
$var wire 1 N" i_hex_data [0] $end
$var reg 7 q" o_hex [6:0] $end

$scope begin gen_anode $end
$upscope $end
$upscope $end
$upscope $end

$scope begin gen_hex[0] $end
$var parameter 32 r" i $end

$scope module u_hex_trans $end
$var parameter 32 s" TYPE_ANODE $end
$var wire 1 O" i_hex_data [3] $end
$var wire 1 P" i_hex_data [2] $end
$var wire 1 Q" i_hex_data [1] $end
$var wire 1 R" i_hex_data [0] $end
$var reg 7 t" o_hex [6:0] $end

$scope begin gen_anode $end
$upscope $end
$upscope $end
$upscope $end

$scope begin proc_output_hex $end
$upscope $end
$upscope $end
$upscope $end
$enddefinitions $end
#0
$dumpvars
0!
0"
0#
b0 $
1%
0&
0'
b0 (
b0 )
bx *
0+
1A
0]
b0 ^
b1 _
0`
1m
0n
0o
b0 p
b0 q
b0 r
b0 s
b0 u
b0 v
0y
b0 !!
b0 "!
0#!
b0 %!
0B!
b0 C!
b1 D!
0E!
0'!
0(!
0R!
b0 S!
0T!
b0 U!
b0 V!
b1 W!
0X!
0Y!
0Z!
0[!
0^!
0_!
0a!
0b!
0g!
0h!
0i!
0c!
0k!
0l!
0m!
0d!
b0 z!
0{!
b0 |!
b0 }!
b0 ~!
b0 !"
b0 ""
b0 #"
0$"
0%"
0&"
0'"
0*"
0+"
0,"
b0 ("
b1111111 ,
b1111111 -
b1111111 .
b1111111 /
b1111111 0
b1111111 1
b1111111 2
b1111111 3
b1111111 S"
b1111111 T"
b1111111 U"
b1111111 V"
b1111111 W"
b1111111 X"
b1111111 Y"
b1111111 Z"
b1111111 t"
b1111111 q"
b1111111 n"
b1111111 k"
b1111111 h"
b1111111 e"
b1111111 b"
b1111111 _"
0["
0\"
b1000 4
b101000101 5
b11000 D
b1000 a
b10000 b
b11 c
b0 d
b1 e
b10 f
b100 g
b101 h
b110 i
b100 j
b101 k
b100000 z
b11000 )!
b1000 F!
b100000 G!
b1000 H!
b11 I!
b1 f!
b0 j!
b1000 n!
b10000 o!
b1000 p!
b11 q!
b0 r!
b1 s!
b10 t!
b100 u!
b101 v!
b110 w!
b100 x!
b11 y!
b0 )"
b111 -"
b100000 ."
b1 /"
b0 r"
b1 s"
b1 o"
b1 p"
b10 l"
b1 m"
b11 i"
b1 j"
b100 f"
b1 g"
b101 c"
b1 d"
b110 `"
b1 a"
b111 ]"
b1 ^"
0C
0t
0w
0x
0$!
0&!
0e!
xR"
xQ"
xP"
xO"
xN"
xM"
xL"
xK"
xJ"
xI"
xH"
xG"
xF"
xE"
xD"
xC"
xB"
xA"
x@"
x?"
x>"
x="
x<"
x;"
x:"
x9"
x8"
x7"
x6"
x5"
x4"
x3"
02"
01"
00"
1~
0}
0|
0{
0@
0?
0>
0=
0<
0;
0:
09
08
07
06
0B
0l
1\
0[
0Z
0Y
0X
0W
0V
0U
0T
0S
0R
0Q
0P
0O
0N
0M
0L
0K
0J
0I
0H
0G
0F
0E
0]!
0\!
0Q!
0P!
0O!
0N!
0M!
0L!
0K!
0J!
1A!
0@!
0?!
0>!
0=!
0<!
0;!
0:!
09!
08!
07!
06!
05!
04!
03!
02!
01!
00!
0/!
0.!
0-!
0,!
0+!
0*!
0`!
$end
#5000
1!
16
1{
10"
#10000
0!
06
0{
00"
#15000
1!
16
1{
10"
#20000
0!
06
0{
00"
#25000
1!
16
1{
10"
#30000
0!
06
0{
00"
#35000
1!
16
1{
10"
#40000
0!
06
0{
00"
#45000
1!
16
1{
10"
#50000
0!
06
0{
00"
#55000
1!
16
1{
10"
#60000
0!
06
0{
00"
#65000
1!
16
1{
10"
#70000
0!
06
0{
00"
#75000
1!
16
1{
10"
#80000
0!
06
0{
00"
#85000
1!
16
1{
10"
#90000
0!
06
0{
00"
#95000
1!
16
1{
10"
#100000
1"
0!
17
1|
11"
06
0{
00"
#105000
1!
16
1{
10"
b1 C!
1+"
b1 ^
1y
1o
1`
b10 _
1E!
b10 D!
#110000
0!
06
0{
00"
#115000
1!
16
1{
10"
1B!
1,"
b10 C!
1]
b10 ^
0`
b0 _
0E!
b0 D!
1&!
1C
#120000
0!
06
0{
00"
#125000
1!
16
1{
10"
b0 C!
0B!
b0 ^
0]
b1 _
b1 D!
0&!
0C
#130000
0!
06
0{
00"
#135000
1!
16
1{
10"
b1 C!
b1 ^
1`
b10 _
1E!
b10 D!
#140000
0!
06
0{
00"
#145000
1!
16
1{
10"
1B!
b10 C!
1]
b10 ^
0`
b0 _
0E!
b0 D!
1&!
1C
#150000
0!
06
0{
00"
#155000
1!
16
1{
10"
b0 C!
0B!
b0 ^
0]
b1 _
b1 D!
0&!
0C
#160000
0!
06
0{
00"
#165000
1!
16
1{
10"
b1 C!
b1 ^
1`
b10 _
1E!
b10 D!
#170000
0!
06
0{
00"
#175000
1!
16
1{
10"
1B!
b10 C!
1]
b10 ^
0`
b0 _
0E!
b0 D!
1&!
1C
#180000
0!
06
0{
00"
#185000
1!
16
1{
10"
b0 C!
0B!
b0 ^
0]
b1 _
b1 D!
0&!
0C
#190000
0!
06
0{
00"
#195000
1!
16
1{
10"
b1 C!
b1 ^
1`
b10 _
1E!
b10 D!
#200000
0!
06
0{
00"
#205000
1!
16
1{
10"
1#
1'
b11000000 $
18
1}
1:
19
1x
b1 q
1B!
b10 C!
1]
b10 ^
0`
b0 _
0E!
b0 D!
1&!
1C
#210000
0!
06
0{
00"
#215000
1!
16
1{
10"
b0 C!
0B!
b0 ^
0]
b1 p
b1 _
b1 D!
0&!
0C
#220000
0!
06
0{
00"
#225000
1!
16
1{
10"
b1 C!
0m
b1 ^
1`
b10 _
0A
1E!
b10 D!
0%
0~
#230000
0!
06
0{
00"
#235000
1!
16
1{
10"
0+"
1B!
b10 C!
1]
b10 ^
0`
b0 _
0E!
b0 D!
1*"
1'"
1&!
1C
b1 v
b1 }!
#240000
0!
06
0{
00"
#245000
1!
16
1{
10"
b1 |!
b0 C!
0B!
0,"
b1 u
b0 ^
0]
b1 _
0*"
b1 D!
0'"
0&!
0C
#250000
0!
06
0{
00"
#255000
1!
16
1{
10"
b1 C!
b1 ^
1`
b10 _
1E!
b10 D!
#260000
0!
06
0{
00"
#265000
1!
16
1{
10"
1B!
b10 C!
1]
b10 ^
0`
b0 _
0E!
b0 D!
1&!
1C
b10 v
b1 !"
#270000
0!
06
0{
00"
#275000
1!
16
1{
10"
b1 ~!
b0 C!
0B!
b10 u
b0 ^
0]
b1 _
b1 D!
0&!
0C
#280000
0!
06
0{
00"
#285000
1!
16
1{
10"
b1 C!
b1 ^
1`
b10 _
1E!
b10 D!
#290000
0!
06
0{
00"
#295000
1!
16
1{
10"
1B!
b10 C!
1]
b10 ^
0`
b0 _
0E!
b0 D!
1&!
1C
b11 v
b10 !"
#300000
0!
06
0{
00"
#305000
1!
16
1{
10"
b10 ~!
b0 C!
0B!
b11 u
b0 ^
0]
b1 _
b1 D!
0&!
0C
#310000
0!
06
0{
00"
#315000
1!
16
1{
10"
b1 C!
b1 ^
1`
b10 _
1E!
b10 D!
#320000
0!
06
0{
00"
#325000
1!
16
1{
10"
1B!
b10 C!
1]
b10 ^
0`
b0 _
0E!
b0 D!
1&!
1C
b100 v
b11 !"
#330000
0!
06
0{
00"
#335000
1!
16
1{
10"
b11 ~!
b0 C!
0B!
b100 u
b0 ^
0]
b1 _
b1 D!
0&!
0C
#340000
0!
06
0{
00"
#345000
1!
16
1{
10"
b1 C!
b1 ^
1`
b10 _
1E!
b10 D!
#350000
0!
06
0{
00"
#355000
1!
16
1{
10"
1B!
b10 C!
1]
b10 ^
0`
b0 _
0E!
b0 D!
1&!
1C
b101 v
b100 !"
#360000
0!
06
0{
00"
#365000
1!
16
1{
10"
b100 ~!
b0 C!
0B!
b101 u
b0 ^
0]
b1 _
b1 D!
0&!
0C
#370000
0!
06
0{
00"
#375000
1!
16
1{
10"
b1 C!
b1 ^
1`
b10 _
1E!
b10 D!
#380000
0!
06
0{
00"
#385000
1!
16
1{
10"
1B!
b10 C!
1]
b10 ^
0`
b0 _
0E!
b0 D!
1&!
1C
b110 v
b101 !"
#390000
0!
06
0{
00"
#395000
1!
16
1{
10"
b101 ~!
b0 C!
0B!
b110 u
b0 ^
0]
b1 _
b1 D!
0&!
0C
#400000
0!
06
0{
00"
#405000
1!
16
1{
10"
b1 C!
b1 ^
1`
b10 _
1E!
b10 D!
#410000
0!
06
0{
00"
#415000
1!
16
1{
10"
1B!
b10 C!
1]
b10 ^
0`
b0 _
0E!
b0 D!
1&!
1C
b111 v
b110 !"
#420000
0!
06
0{
00"
#425000
1!
16
1{
10"
b110 ~!
b0 C!
0B!
b111 u
b0 ^
0]
b1 _
b1 D!
0&!
0C
#430000
0!
06
0{
00"
#435000
1!
16
1{
10"
b1 C!
b1 ^
1`
b10 _
1E!
b10 D!
#440000
0!
06
0{
00"
#445000
1!
16
1{
10"
1B!
b10 C!
1]
b10 ^
0`
b0 _
0E!
b0 D!
1&!
1C
b1000 v
b111 !"
#450000
0!
06
0{
00"
#455000
1!
16
1{
10"
b111 ~!
b0 C!
0B!
b1000 u
b0 ^
0]
b1 _
b1 D!
1%"
0&!
0C
b10 }!
b0 !"
#460000
0!
06
0{
00"
#465000
1!
16
1{
10"
b1 C!
b10 |!
b0 ~!
b1 ^
1`
b10 _
1E!
b10 D!
0%"
#470000
0!
06
0{
00"
#475000
1!
16
1{
10"
1B!
b10 C!
1]
b10 ^
0`
b0 _
0E!
b0 D!
1&!
1C
b1001 v
b1 !"
#480000
0!
06
0{
00"
#485000
1!
16
1{
10"
b1 ~!
b0 C!
0B!
b1001 u
b0 ^
0]
b1 _
b1 D!
0&!
0C
#490000
0!
06
0{
00"
#495000
1!
16
1{
10"
b1 C!
b1 ^
1`
b10 _
1E!
b10 D!
#500000
0!
06
0{
00"
#505000
1!
16
1{
10"
1B!
b10 C!
1]
b10 ^
0`
b0 _
0E!
b0 D!
1&!
1C
b1010 v
b10 !"
#510000
0!
06
0{
00"
#515000
1!
16
1{
10"
b10 ~!
b0 C!
0B!
b1010 u
b0 ^
0]
b1 _
b1 D!
0&!
0C
#520000
0!
06
0{
00"
#525000
1!
16
1{
10"
b1 C!
b1 ^
1`
b10 _
1E!
b10 D!
#530000
0!
06
0{
00"
#535000
1!
16
1{
10"
1B!
b10 C!
1]
b10 ^
0`
b0 _
0E!
b0 D!
1&!
1C
b1011 v
b11 !"
#540000
0!
06
0{
00"
#545000
1!
16
1{
10"
b11 ~!
b0 C!
0B!
b1011 u
b0 ^
0]
b1 _
b1 D!
0&!
0C
#550000
0!
06
0{
00"
#555000
1!
16
1{
10"
b1 C!
b1 ^
1`
b10 _
1E!
b10 D!
#560000
0!
06
0{
00"
#565000
1!
16
1{
10"
1B!
b10 C!
1]
b10 ^
0`
b0 _
0E!
b0 D!
1&!
1C
b1100 v
b100 !"
#570000
0!
06
0{
00"
#575000
1!
16
1{
10"
b100 ~!
b0 C!
0B!
b1100 u
b0 ^
0]
b1 _
b1 D!
0&!
0C
#580000
0!
06
0{
00"
#585000
1!
16
1{
10"
b1 C!
b1 ^
1`
b10 _
1E!
b10 D!
#590000
0!
06
0{
00"
#595000
1!
16
1{
10"
1B!
b10 C!
1]
b10 ^
0`
b0 _
0E!
b0 D!
1&!
1C
b1101 v
b101 !"
#600000
0!
06
0{
00"
#605000
1!
16
1{
10"
b101 ~!
b0 C!
0B!
b1101 u
b0 ^
0]
b1 _
b1 D!
0&!
0C
#610000
0!
06
0{
00"
#615000
1!
16
1{
10"
b1 C!
b1 ^
1`
b10 _
1E!
b10 D!
#620000
0!
06
0{
00"
#625000
1!
16
1{
10"
1B!
b10 C!
1]
b10 ^
0`
b0 _
0E!
b0 D!
1&!
1C
b1110 v
b110 !"
#630000
0!
06
0{
00"
#635000
1!
16
1{
10"
b110 ~!
b0 C!
0B!
b1110 u
b0 ^
0]
b1 _
b1 D!
0&!
0C
#640000
0!
06
0{
00"
#645000
1!
16
1{
10"
b1 C!
b1 ^
1`
b10 _
1E!
b10 D!
#650000
0!
06
0{
00"
#655000
1!
16
1{
10"
1B!
b10 C!
1]
b10 ^
0`
b0 _
0E!
b0 D!
1&!
1C
b1111 v
b111 !"
#660000
0!
06
0{
00"
#665000
1!
16
1{
10"
b111 ~!
b0 C!
0B!
b1111 u
b0 ^
0]
b1 _
b1 D!
1%"
0&!
1w
0C
b10 q
b0 v
#670000
0!
06
0{
00"
#675000
1!
16
1{
10"
b1 C!
b1 ^
b10 p
b0 u
1`
b10 _
1E!
b10 D!
0w
#680000
0!
06
0{
00"
#685000
1!
16
1{
10"
1B!
b10 C!
1]
b10 ^
0`
b0 _
0E!
b0 D!
1&!
1C
b1 v
b1000 !"
#690000
0!
06
0{
00"
#695000
1!
16
1{
10"
b1000 ~!
b0 C!
0B!
b1 u
b0 ^
0]
b1 _
b1 D!
0%"
0&!
0C
#700000
0!
06
0{
00"
#705000
1!
16
1{
10"
b1 C!
b1 ^
1`
b10 _
1E!
b10 D!
#710000
0!
06
0{
00"
#715000
1!
16
1{
10"
1B!
b10 C!
1]
b10 ^
0`
b0 _
0E!
b0 D!
1&!
1C
b10 v
b1001 !"
#720000
0!
06
0{
00"
#725000
1!
16
1{
10"
b1001 ~!
b0 C!
0B!
b10 u
b0 ^
0]
b1 _
b1 D!
0&!
0C
#730000
0!
06
0{
00"
#735000
1!
16
1{
10"
b1 C!
b1 ^
1`
b10 _
1E!
b10 D!
#740000
0!
06
0{
00"
#745000
1!
16
1{
10"
1B!
b10 C!
1]
b10 ^
0`
b0 _
0E!
b0 D!
1&!
1C
b11 v
b1010 !"
#750000
0!
06
0{
00"
#755000
1!
16
1{
10"
b1010 ~!
b0 C!
0B!
b11 u
b0 ^
0]
b1 _
b1 D!
0&!
0C
#760000
0!
06
0{
00"
#765000
1!
16
1{
10"
b1 C!
b1 ^
1`
b10 _
1E!
b10 D!
#770000
0!
06
0{
00"
