Verision2/03_verif/SubModule/KSA/KSA_8bit/tb_KSA_8bit.vcd
$date
	Fri Nov  7 22:26:00 2025
$end
$version
	Questa Intel Starter FPGA Edition Version 2024.3
$end
$timescale
	1ps
$end

$scope module tb_KSA_8bit $end
$var reg 1 ! i_clk $end
$var reg 1 " i_rst_n $end
$var reg 8 # i_data_a [7:0] $end
$var reg 8 $ i_data_b [7:0] $end
$var reg 1 % i_carry $end
$var reg 8 & o_sum [7:0] $end
$var reg 1 ' o_carry $end
$var reg 9 ( w_expect [8:0] $end
$var integer 32 ) test_count $end
$var integer 32 * test_pass $end

$scope function f_KSA_expected $end
$upscope $end

$scope task Display_Result $end
$upscope $end

$scope module DUT $end
$var wire 1 + i_carry $end
$var wire 1 , i_data_a [7] $end
$var wire 1 - i_data_a [6] $end
$var wire 1 . i_data_a [5] $end
$var wire 1 / i_data_a [4] $end
$var wire 1 0 i_data_a [3] $end
$var wire 1 1 i_data_a [2] $end
$var wire 1 2 i_data_a [1] $end
$var wire 1 3 i_data_a [0] $end
$var wire 1 4 i_data_b [7] $end
$var wire 1 5 i_data_b [6] $end
$var wire 1 6 i_data_b [5] $end
$var wire 1 7 i_data_b [4] $end
$var wire 1 8 i_data_b [3] $end
$var wire 1 9 i_data_b [2] $end
$var wire 1 : i_data_b [1] $end
$var wire 1 ; i_data_b [0] $end
$var reg 8 < o_sum [7:0] $end
$var reg 1 = o_carry $end
$var reg 8 > g0 [7:0] $end
$var reg 8 ? p0 [7:0] $end
$var reg 8 @ g1 [7:0] $end
$var reg 8 A p1 [7:0] $end
$var reg 8 B g2 [7:0] $end
$var reg 8 C p2 [7:0] $end
$var reg 8 D g3 [7:0] $end
$var reg 8 E p3 [7:0] $end
$var reg 9 F c [8:0] $end

$scope begin genblk4[7] $end
$var parameter 32 G i $end

$scope module blk3 $end
$var wire 1 H i_p_0 $end
$var wire 1 I i_p_1 $end
$var wire 1 J i_g_0 $end
$var wire 1 K i_g_1 $end
$var reg 1 L o_g_2 $end
$var reg 1 M o_p_2 $end
$upscope $end
$upscope $end

$scope begin genblk4[6] $end
$var parameter 32 N i $end

$scope module blk3 $end
$var wire 1 O i_p_0 $end
$var wire 1 P i_p_1 $end
$var wire 1 Q i_g_0 $end
$var wire 1 R i_g_1 $end
$var reg 1 S o_g_2 $end
$var reg 1 T o_p_2 $end
$upscope $end
$upscope $end

$scope begin genblk4[5] $end
$var parameter 32 U i $end

$scope module blk3 $end
$var wire 1 V i_p_0 $end
$var wire 1 W i_p_1 $end
$var wire 1 X i_g_0 $end
$var wire 1 Y i_g_1 $end
$var reg 1 Z o_g_2 $end
$var reg 1 [ o_p_2 $end
$upscope $end
$upscope $end

$scope begin genblk4[4] $end
$var parameter 32 \ i $end

$scope module blk3 $end
$var wire 1 ] i_p_0 $end
$var wire 1 ^ i_p_1 $end
$var wire 1 _ i_g_0 $end
$var wire 1 ` i_g_1 $end
$var reg 1 a o_g_2 $end
$var reg 1 b o_p_2 $end
$upscope $end
$upscope $end

$scope begin genblk3[7] $end
$var parameter 32 c i $end

$scope module blk2 $end
$var wire 1 d i_p_0 $end
$var wire 1 e i_p_1 $end
$var wire 1 f i_g_0 $end
$var wire 1 g i_g_1 $end
$var reg 1 h o_g_2 $end
$var reg 1 i o_p_2 $end
$upscope $end
$upscope $end

$scope begin genblk3[6] $end
$var parameter 32 j i $end

$scope module blk2 $end
$var wire 1 k i_p_0 $end
$var wire 1 l i_p_1 $end
$var wire 1 m i_g_0 $end
$var wire 1 n i_g_1 $end
$var reg 1 o o_g_2 $end
$var reg 1 p o_p_2 $end
$upscope $end
$upscope $end

$scope begin genblk3[5] $end
$var parameter 32 q i $end

$scope module blk2 $end
$var wire 1 r i_p_0 $end
$var wire 1 s i_p_1 $end
$var wire 1 t i_g_0 $end
$var wire 1 u i_g_1 $end
$var reg 1 v o_g_2 $end
$var reg 1 w o_p_2 $end
$upscope $end
$upscope $end

$scope begin genblk3[4] $end
$var parameter 32 x i $end

$scope module blk2 $end
$var wire 1 y i_p_0 $end
$var wire 1 z i_p_1 $end
$var wire 1 { i_g_0 $end
$var wire 1 | i_g_1 $end
$var reg 1 } o_g_2 $end
$var reg 1 ~ o_p_2 $end
$upscope $end
$upscope $end

$scope begin genblk3[3] $end
$var parameter 32 !! i $end

$scope module blk2 $end
$var wire 1 "! i_p_0 $end
$var wire 1 #! i_p_1 $end
$var wire 1 $! i_g_0 $end
$var wire 1 %! i_g_1 $end
$var reg 1 &! o_g_2 $end
$var reg 1 '! o_p_2 $end
$upscope $end
$upscope $end

$scope begin genblk3[2] $end
$var parameter 32 (! i $end

$scope module blk2 $end
$var wire 1 )! i_p_0 $end
$var wire 1 *! i_p_1 $end
$var wire 1 +! i_g_0 $end
$var wire 1 ,! i_g_1 $end
$var reg 1 -! o_g_2 $end
$var reg 1 .! o_p_2 $end
$upscope $end
$upscope $end

$scope begin genblk2[7] $end
$var parameter 32 /! i $end

$scope module blk1 $end
$var wire 1 0! i_p_0 $end
$var wire 1 1! i_p_1 $end
$var wire 1 2! i_g_0 $end
$var wire 1 3! i_g_1 $end
$var reg 1 4! o_g_2 $end
$var reg 1 5! o_p_2 $end
$upscope $end
$upscope $end

$scope begin genblk2[6] $end
$var parameter 32 6! i $end

$scope module blk1 $end
$var wire 1 7! i_p_0 $end
$var wire 1 8! i_p_1 $end
$var wire 1 9! i_g_0 $end
$var wire 1 :! i_g_1 $end
$var reg 1 ;! o_g_2 $end
$var reg 1 <! o_p_2 $end
$upscope $end
$upscope $end

$scope begin genblk2[5] $end
$var parameter 32 =! i $end

$scope module blk1 $end
$var wire 1 >! i_p_0 $end
$var wire 1 ?! i_p_1 $end
$var wire 1 @! i_g_0 $end
$var wire 1 A! i_g_1 $end
$var reg 1 B! o_g_2 $end
$var reg 1 C! o_p_2 $end
$upscope $end
$upscope $end

$scope begin genblk2[4] $end
$var parameter 32 D! i $end

$scope module blk1 $end
$var wire 1 E! i_p_0 $end
$var wire 1 F! i_p_1 $end
$var wire 1 G! i_g_0 $end
$var wire 1 H! i_g_1 $end
$var reg 1 I! o_g_2 $end
$var reg 1 J! o_p_2 $end
$upscope $end
$upscope $end

$scope begin genblk2[3] $end
$var parameter 32 K! i $end

$scope module blk1 $end
$var wire 1 L! i_p_0 $end
$var wire 1 M! i_p_1 $end
$var wire 1 N! i_g_0 $end
$var wire 1 O! i_g_1 $end
$var reg 1 P! o_g_2 $end
$var reg 1 Q! o_p_2 $end
$upscope $end
$upscope $end

$scope begin genblk2[2] $end
$var parameter 32 R! i $end

$scope module blk1 $end
$var wire 1 S! i_p_0 $end
$var wire 1 T! i_p_1 $end
$var wire 1 U! i_g_0 $end
$var wire 1 V! i_g_1 $end
$var reg 1 W! o_g_2 $end
$var reg 1 X! o_p_2 $end
$upscope $end
$upscope $end

$scope begin genblk2[1] $end
$var parameter 32 Y! i $end

$scope module blk1 $end
$var wire 1 Z! i_p_0 $end
$var wire 1 [! i_p_1 $end
$var wire 1 \! i_g_0 $end
$var wire 1 ]! i_g_1 $end
$var reg 1 ^! o_g_2 $end
$var reg 1 _! o_p_2 $end
$upscope $end
$upscope $end

$scope begin genblk1[7] $end
$var parameter 32 `! i $end

$scope module pre $end
$var wire 1 , i_data_a $end
$var wire 1 4 i_data_b $end
$var reg 1 a! o_p $end
$var reg 1 b! o_g $end
$upscope $end
$upscope $end

$scope begin genblk1[6] $end
$var parameter 32 c! i $end

$scope module pre $end
$var wire 1 - i_data_a $end
$var wire 1 5 i_data_b $end
$var reg 1 d! o_p $end
$var reg 1 e! o_g $end
$upscope $end
$upscope $end

$scope begin genblk1[5] $end
$var parameter 32 f! i $end

$scope module pre $end
$var wire 1 . i_data_a $end
$var wire 1 6 i_data_b $end
$var reg 1 g! o_p $end
$var reg 1 h! o_g $end
$upscope $end
$upscope $end

$scope begin genblk1[4] $end
$var parameter 32 i! i $end

$scope module pre $end
$var wire 1 / i_data_a $end
$var wire 1 7 i_data_b $end
$var reg 1 j! o_p $end
$var reg 1 k! o_g $end
$upscope $end
$upscope $end

$scope begin genblk1[3] $end
$var parameter 32 l! i $end

$scope module pre $end
$var wire 1 0 i_data_a $end
$var wire 1 8 i_data_b $end
$var reg 1 m! o_p $end
$var reg 1 n! o_g $end
$upscope $end
$upscope $end

$scope begin genblk1[2] $end
$var parameter 32 o! i $end

$scope module pre $end
$var wire 1 1 i_data_a $end
$var wire 1 9 i_data_b $end
$var reg 1 p! o_p $end
$var reg 1 q! o_g $end
$upscope $end
$upscope $end

$scope begin genblk1[1] $end
$var parameter 32 r! i $end

$scope module pre $end
$var wire 1 2 i_data_a $end
$var wire 1 : i_data_b $end
$var reg 1 s! o_p $end
$var reg 1 t! o_g $end
$upscope $end
$upscope $end

$scope begin genblk1[0] $end
$var parameter 32 u! i $end

$scope module pre $end
$var wire 1 3 i_data_a $end
$var wire 1 ; i_data_b $end
$var reg 1 v! o_p $end
$var reg 1 w! o_g $end
$upscope $end
$upscope $end

$scope module gc0 $end
$var wire 1 + i_g_0 $end
$var wire 1 x! i_p_1 $end
$var wire 1 y! i_g_1 $end
$var reg 1 z! o_g_2 $end
$upscope $end

$scope module gc1 $end
$var wire 1 {! i_g_0 $end
$var wire 1 |! i_p_1 $end
$var wire 1 }! i_g_1 $end
$var reg 1 ~! o_g_2 $end
$upscope $end

$scope module gc2 $end
$var wire 1 !" i_g_0 $end
$var wire 1 "" i_p_1 $end
$var wire 1 #" i_g_1 $end
$var reg 1 $" o_g_2 $end
$upscope $end

$scope module gc3 $end
$var wire 1 %" i_g_0 $end
$var wire 1 &" i_p_1 $end
$var wire 1 '" i_g_1 $end
$var reg 1 (" o_g_2 $end
$upscope $end

$scope module gc4 $end
$var wire 1 )" i_g_0 $end
$var wire 1 *" i_p_1 $end
$var wire 1 +" i_g_1 $end
$var reg 1 ," o_g_2 $end
$upscope $end

$scope module gc5 $end
$var wire 1 -" i_g_0 $end
$var wire 1 ." i_p_1 $end
$var wire 1 /" i_g_1 $end
$var reg 1 0" o_g_2 $end
$upscope $end

$scope module gc6 $end
$var wire 1 1" i_g_0 $end
$var wire 1 2" i_p_1 $end
$var wire 1 3" i_g_1 $end
$var reg 1 4" o_g_2 $end
$upscope $end

$scope module gc7 $end
$var wire 1 5" i_g_0 $end
$var wire 1 6" i_p_1 $end
$var wire 1 7" i_g_1 $end
$var reg 1 8" o_g_2 $end
$upscope $end
$upscope $end
$upscope $end
$enddefinitions $end
#0
$dumpvars
0!
0"
b0 #
b0 $
0%
b0 &
0'
bx (
b0 <
0=
b0 >
b0 ?
0v!
0w!
0s!
0t!
0p!
0q!
0m!
0n!
0j!
0k!
0g!
0h!
0d!
0e!
0a!
0b!
b0 @
b0 A
0^!
0_!
0W!
0X!
0P!
0Q!
0I!
0J!
0B!
0C!
0;!
0<!
04!
05!
b0 B
b0 C
0-!
0.!
0&!
0'!
0}
0~
0v
0w
0o
0p
0h
0i
b0 D
b0 E
0a
0b
0Z
0[
0S
0T
0L
0M
b0 F
0z!
0~!
0$"
0("
0,"
00"
04"
08"
b0 u!
b1 r!
b10 o!
b11 l!
b100 i!
b101 f!
b110 c!
b111 `!
b1 Y!
b10 R!
b11 K!
b100 D!
b101 =!
b110 6!
b111 /!
b10 (!
b11 !!
b100 x
b101 q
b110 j
b111 c
b100 \
b101 U
b110 N
b111 G
b0 )
b0 *
0;
0:
09
08
07
06
05
04
03
02
01
00
0/
0.
0-
0,
0+
07"
06"
05"
03"
02"
01"
0/"
0."
0-"
0+"
0*"
0)"
0'"
0&"
0%"
0#"
0""
0!"
0}!
0|!
0{!
0y!
0x!
0]!
0\!
0[!
0Z!
0V!
0U!
0T!
0S!
0O!
0N!
0M!
0L!
0H!
0G!
0F!
0E!
0A!
0@!
0?!
0>!
0:!
09!
08!
07!
03!
02!
01!
00!
0,!
0+!
0*!
0)!
0%!
0$!
0#!
0"!
0|
0{
0z
0y
0u
0t
0s
0r
0n
0m
0l
0k
0g
0f
0e
0d
0`
0_
0^
0]
0Y
0X
0W
0V
0R
0Q
0P
0O
0K
0J
0I
0H
$end
#5000
1!
#10000
0!
#15000
1!
#20000
1"
0!
#25000
1!
#30000
0!
#35000
1!
1%
1+
b1 F
b1 <
b1 &
#36000
b1 (
b1 )
b1 *
#40000
0!
#45000
1!
b11111111 #
13
12
11
10
1/
1.
1-
1,
1a!
1d!
1g!
1j!
1m!
1p!
1s!
1v!
b1 ?
b11 ?
b111 ?
b1111 ?
b11111 ?
b111111 ?
b1111111 ?
b11111111 ?
11!
18!
10!
1?!
17!
1F!
1>!
1M!
1E!
1T!
1L!
1[!
1S!
1x!
1Z!
1_!
1z!
1X!
1Q!
1J!
1C!
1<!
15!
b11111110 <
b1 A
1)!
b1 C
b11111110 &
b10000001 A
b11000001 A
b11100001 A
b11110001 A
b11111001 A
b11111101 A
b11 F
b11111111 A
1|!
1"!
1*!
1y
1#!
1r
1z
1k
1s
1d
1l
1e
1]
1i
1p
1w
1~
1'!
1.!
b11 C
b11111100 <
b1 E
1V
b11111100 &
b11 E
b111 C
b1111 C
b11111 C
b111111 C
b1111111 C
b11111111 C
1I
1P
1W
1^
1H
1""
1O
1T
1M
1b
1[
b1011 E
b1111 E
1&"
b101111 E
b111111 E
b10111111 E
b11111111 E
12"
16"
1*"
1."
#46000
b100000000 (
b10 )
#50000
0!
#55000
1!
b11111111 $
1;
1:
19
18
17
16
15
14
0a!
1b!
0d!
1e!
0g!
1h!
0j!
1k!
0m!
1n!
0p!
1q!
0s!
1t!
0v!
1w!
b1 >
b11111110 ?
b11 >
b11111100 ?
b111 >
b11111000 ?
b1111 >
b11110000 ?
b11111 >
b11100000 ?
b111111 >
b11000000 ?
b1111111 >
b10000000 ?
b11111111 >
b0 ?
01!
13!
08!
00!
1:!
12!
0?!
07!
1A!
19!
0F!
0>!
1H!
1@!
0M!
0E!
1O!
1G!
0T!
0L!
1V!
1N!
0[!
0S!
1]!
1U!
0x!
0Z!
1{!
1y!
1\!
1~!
1^!
0_!
1W!
0X!
1P!
0Q!
1I!
0J!
1B!
0C!
1;!
0<!
14!
05!
b11 <
b11111110 A
b1 @
1+!
0)!
0.!
1-!
b1 B
b11111110 C
b11 &
b1111110 A
b10000001 @
b111110 A
b11000001 @
b11110 A
b11100001 @
b1110 A
b11110001 @
b110 A
b11111001 @
b10 A
b11111101 @
b0 A
b11111111 @
b111 F
1!"
1}!
1$!
0|!
0"!
1,!
1{
0*!
0y
1%!
1t
0#!
0r
1|
1m
0z
0k
1u
1f
0s
0d
1n
0l
1g
0e
0]
1_
1a
0b
0i
1h
0p
1o
0w
1v
0~
1}
0'!
1&!
1$"
b111 <
b11 B
b11111100 C
b11111110 E
b1 D
b111 B
b11111000 C
0""
0O
1%"
1#"
1Q
0V
1X
1Z
0[
1S
1("
0T
b11111010 E
b101 D
b11111000 E
b111 D
b111 &
b1111 F
b1111 B
b11110000 C
b11111 B
b11100000 C
b111111 B
b11000000 C
b1111111 B
b10000000 C
b11111111 B
b0 C
b11101000 E
b10111 D
1-"
1+"
0*"
0I
1K
0P
1R
0W
1Y
0^
1`
0H
1J
1L
0M
1,"
10"
b11100000 E
b11111 D
b1111 <
b10100000 E
b11111 F
b1011111 D
b10000000 E
b1111111 D
11"
1/"
0."
15"
13"
02"
1)"
1'"
0&"
18"
14"
b11111 <
b11111 &
b1011111 F
b1111111 F
b0 E
b11111111 D
17"
06"
b1111111 <
b11111111 F
b111111111 F
1=
b11111111 <
b11111111 &
1'
#56000
b111111111 (
b11 )
b10 *
#60000
0!
#65000
1!
b100 #
b110 $
0%
0;
08
07
06
05
04
03
02
00
0/
0.
0-
0,
0+
b111111110 F
1s!
0t!
0b!
0e!
0h!
0k!
0n!
0w!
b11111110 >
b11110110 >
b11100110 >
b11000110 >
b10000110 >
b110 >
b100 >
b10 ?
b11111100 <
1[!
1S!
0]!
0U!
03!
0:!
02!
0A!
09!
0H!
0@!
0O!
0G!
0{!
0y!
0\!
0^!
0z!
0P!
0I!
0B!
0;!
04!
b11111100 &
b11111110 @
0+!
b11111110 B
b1111110 @
b111110 @
b11110 @
b1110 @
b110 @
b111111100 F
b100 @
0!"
0}!
0$!
0%!
0t
0|
0m
0u
0f
0n
0g
0_
0h
0o
0v
0}
0&!
0~!
b11111100 B
b11111110 <
b11111110 D
0X
b11111110 &
b11111100 D
b111111000 F
b11110100 B
b11100100 B
b11000100 B
b10000100 B
b100 B
0K
0R
0Y
0`
0J
0a
0Z
0S
0L
b11110100 D
b11111010 <
0)"
0'"
0("
b11111010 &
b1110100 D
b110100 D
b10100 D
b100 D
0-"
0+"
01"
0/"
05"
03"
07"
08"
04"
00"
0,"
b111101000 F
b11101010 <
b111001000 F
b110001000 F
b100001000 F
b1000 F
0=
b1010 <
b1010 &
0'
#66000
b1010 (
b100 )
b11 *
#70000
0!
#75000
1!
b11110 #
b10001 $
1%
1;
0:
09
17
12
10
1/
1+
b1001 F
1k!
1m!
1p!
0q!
1v!
b11 ?
b0 >
b111 ?
b1111 ?
b10000 >
b110 <
1H!
1@!
1M!
1E!
1T!
1L!
0V!
0N!
1x!
1Z!
1_!
1z!
0W!
1Q!
1X!
1I!
b110 &
b1 A
1)!
b1 C
b10100 @
b101 A
b1101 A
b10000 @
b1011 F
b1111 A
1|!
1"!
0,!
0{
1#!
1r
1*!
1y
1|
1m
1]
1}
1.!
1'!
0-!
b11 C
b100 <
b1 E
1V
b100 &
b11 E
b0 B
b1011 C
b1111 C
b10000 B
1`
1""
1O
1H
0%"
0#"
0Q
0$"
1a
b111 E
b1111 E
b0 D
1&"
b10000 D
b11 F
1-"
1+"
1,"
b1100 <
b1100 &
b100011 F
b101100 <
b101100 &
#76000
b110000 (
b101 )
#80000
0!
#85000
1!
b10001 #
b11001 $
0%
18
13
02
01
00
0+
b100010 F
0z!
0p!
0s!
0v!
1w!
b10001 >
b1110 ?
b1100 ?
b1000 ?
b100000 F
b101000 <
0T!
0L!
0[!
0S!
0x!
0Z!
1{!
1y!
1\!
1z!
1~!
0_!
0Q!
0X!
b101000 &
b1110 A
b10001 @
1+!
0)!
0.!
1-!
b10001 B
b1110 C
b1010 A
b10 A
b0 A
b100100 F
b100110 F
0|!
0"!
0#!
0r
0*!
0y
0]
1_
0-!
0'!
0~!
b101110 <
b1100 C
b1110 E
b10001 D
b1000 C
0""
0O
0V
b1010 E
b1000 E
b101110 &
b100010 F
b0 C
0H
b0 E
b101010 <
0&"
b101010 &
#86000
b101010 (
b110 )
b100 *
#90000
0!
#95000
1!
b1011 #
b0 $
1%
0;
08
07
12
10
0/
1+
b100011 F
1s!
0k!
1v!
0w!
b10000 >
b1001 ?
b0 >
b1011 ?
b101000 <
1[!
1S!
0H!
0@!
1x!
1Z!
0{!
0y!
0\!
1_!
0I!
b101000 &
b1 A
b10000 @
0+!
1)!
b10000 B
b1 C
b0 @
b11 A
1|!
1"!
0|
0m
1]
0_
0}
b11 C
b1 E
b10000 D
1V
b11 E
b0 B
0`
0a
b0 D
0-"
0+"
0,"
b11 F
b1000 <
b1000 &
#96000
b1100 (
b111 )
#100000
0!
#105000
1!
b11010 #
b10111 $
0%
1;
1:
19
17
03
1/
0+
b10 F
0z!
1k!
1p!
0s!
1t!
b10 >
b1001 ?
b1101 ?
b10010 >
b0 F
b1101 <
1H!
1@!
1T!
1L!
0[!
0S!
1]!
1U!
1W!
1^!
0_!
1Q!
1I!
b1101 &
b10000 @
b1011 A
b1001 A
b10010 @
b10110 @
1,!
1{
1!"
1}!
1$!
0|!
0"!
1#!
1r
1|
1m
1}
1&!
1~!
1-!
b10 B
b1 C
0V
1X
b1 E
b10 D
b110 B
b100 F
b1110 B
b11110 B
1`
1J
1%"
1#"
1Q
1$"
1a
b1010 D
b1001 <
b1110 D
1)"
1'"
1("
b1001 &
b11110 D
b1100 F
1-"
1+"
1,"
b1 <
b11100 F
b10001 <
b10001 &
b111100 F
b110001 <
b110001 &
#106000
b110001 (
b1000 )
b101 *
#110000
0!
#115000
1!
b11000 #
b11001 $
1%
0:
09
18
02
1+
b111101 F
1z!
0m!
1n!
0p!
0t!
b10000 >
b1001 ?
b11000 >
b1 ?
b111111 F
b111110 <
0M!
0E!
1O!
1G!
0T!
0L!
0]!
0U!
0^!
0W!
1P!
0Q!
b111110 &
b1 A
b11110 @
b11010 @
b11000 @
0!"
0}!
0$!
0,!
0{
1%!
1t
0#!
0r
0-!
0~!
b11100 B
0X
b11100 D
b111011 F
b11000 B
0%"
0#"
0Q
0$"
b11000 D
b111010 <
b111010 &
b110011 F
b110010 <
b110010 &
#116000
b110010 (
b1001 )
b110 *
#120000
0!
#125000
1!
b10101 #
b1011 $
1:
07
13
11
00
1m!
0n!
1p!
0v!
1w!
1j!
0k!
1s!
b11 ?
b1000 >
b10011 ?
b1001 >
b10010 ?
b10110 ?
b1 >
b11110 ?
1M!
1E!
0O!
0G!
1T!
1L!
0x!
0Z!
1{!
1y!
1\!
1F!
1>!
0H!
0@!
1[!
1S!
1X!
1^!
0I!
1J!
1Q!
0P!
b0 A
b11001 @
b101101 <
1+!
0)!
b101101 &
b11001 B
b0 C
b10001 @
b1000 A
b11000 A
b1 @
b11 @
b11100 A
1*!
1y
1!"
1}!
1$!
0|
0m
1z
1k
1#!
1r
0%!
0t
0]
1_
1~
0}
1~!
1-!
b11011 B
b0 E
b11001 D
1X
b11011 D
b11111 B
b110111 F
b1111 B
b10000 C
1^
0`
1%"
1#"
1Q
1$"
b101001 <
b11111 D
b101001 &
b111111 F
b100001 <
b100001 &
#126000
b100001 (
b1010 )
b111 *
#130000
0!
#135000
1!
b1001 #
b1010 $
0;
01
10
0/
0j!
0m!
1n!
0p!
1v!
0w!
b0 >
b11111 ?
b11011 ?
b1000 >
b10011 ?
b11 ?
0F!
0>!
0M!
0E!
1O!
1G!
0T!
0L!
1x!
1Z!
0{!
0y!
0\!
0^!
1_!
0X!
1P!
0Q!
0J!
b111100 <
b11101 A
b10 @
0+!
1)!
1.!
0-!
b1110 B
b10001 C
b111100 &
b1101 A
b101 A
b1010 @
b1 A
b11 A
b1000 @
0!"
0}!
0$!
1|!
1"!
0*!
0y
1%!
1t
0#!
0r
0z
0k
1]
0_
0a
1b
0~
0.!
0~!
b1100 B
b10011 C
b1 E
b11110 D
b1000 B
0%"
0#"
0Q
1V
0X
0$"
b11010 D
b11 E
b11000 D
b111011 F
b11 C
b10011 E
b1000 D
0-"
0+"
1*"
0^
0b
b111000 <
b110011 F
b110000 <
b110000 &
b11 E
0*"
0,"
b10011 F
b10000 <
b10000 &
#136000
b10100 (
b1011 )
#140000
0!
#145000
1!
b1111 #
b10111 $
0%
1;
19
08
17
12
11
0+
b10010 F
0z!
1q!
0s!
1t!
1j!
1m!
0n!
0v!
1w!
b1001 >
b10 ?
b1 >
b1010 ?
b11010 ?
b11 >
b11000 ?
b111 >
b10000 F
b1000 <
1V!
1N!
0[!
0S!
1]!
1U!
1F!
1>!
1M!
1E!
0O!
0G!
0x!
0Z!
1{!
1y!
1\!
1z!
1~!
1J!
1^!
0_!
1W!
b1000 &
b10 A
b1001 @
1+!
0)!
b1001 B
b10 C
b1101 @
b0 A
b1111 @
b10000 A
b10100 F
b10110 F
1z
1k
1!"
1}!
1$!
0|!
0"!
1,!
1{
0]
1_
1}
1-!
b1110 <
b1011 B
b0 C
b10 E
b1001 D
0V
1X
b0 E
b1011 D
b1110 &
b1111 B
b11111 B
1`
1%"
1#"
1Q
1$"
1a
b1111 D
b11111 D
b11110 F
1-"
1+"
1,"
b110 <
b110 &
b111110 F
b100110 <
b100110 &
#146000
b100110 (
b1100 )
b1000 *
#150000
0!
#155000
1!
b10010 #
b11100 $
1%
0;
0:
18
03
01
00
1/
1+
b111111 F
0j!
1k!
1p!
0q!
1s!
0t!
0w!
b110 >
b100 >
b11010 ?
b0 >
b11110 ?
b10000 >
b1110 ?
b110001 <
0F!
0>!
1H!
1@!
1T!
1L!
0V!
0N!
1[!
1S!
0]!
0U!
0{!
0y!
0\!
0^!
0z!
0W!
1X!
0P!
1Q!
1I!
0J!
b110001 &
b1110 @
0+!
b11110 B
b0 A
b11110 @
b1000 A
b10110 @
b1100 A
b10010 @
b111101 F
b10000 @
0!"
0}!
0$!
0,!
0{
1*!
1y
0%!
0t
1#!
1r
1|
1m
0z
0k
0_
0&!
0-!
0~!
b11100 B
b110011 <
b11110 D
0X
b110011 &
b11100 D
b111001 F
b11000 B
b10000 B
0J
0%"
0#"
0Q
0$"
b10100 D
b10000 D
b110111 <
0)"
0'"
0("
b110111 &
b110001 F
b111111 <
b100001 F
b101111 <
b101111 &
#156000
b101111 (
b1101 )
b1001 *
#160000
0!
#165000
1!
b1110 #
b10110 $
0%
1:
08
11
10
0/
0+
b100000 F
1j!
0k!
0p!
1q!
0s!
1t!
b10010 >
b1100 ?
b10110 >
b1000 ?
b110 >
b11000 ?
b111000 <
1F!
1>!
0H!
0@!
0T!
0L!
1V!
1N!
0[!
0S!
1]!
1U!
1^!
1P!
1W!
0Q!
0X!
0I!
1J!
b111000 &
b11100 A
b0 @
b11000 A
b10000 A
b100 @
b1100 @
b1110 @
1!"
1}!
1$!
1%!
1t
1,!
1{
0#!
0r
0*!
0y
0|
0m
1z
1k
1-!
1&!
1~!
b10010 B
1X
b10010 D
b100100 F
b11010 B
b11110 B
1%"
1#"
1Q
1J
1$"
b10110 D
b11110 D
b111100 <
1)"
1'"
1("
b111100 &
b101100 F
b110100 <
b111100 F
b100100 <
b100100 &
#166000
b100100 (
b1110 )
b1010 *
#170000
0!
#175000
1!
b11100 #
b10111 $
1;
02
1/
0j!
1k!
1s!
0t!
1v!
b11001 ?
b100 >
b11011 ?
b10100 >
b1011 ?
0F!
0>!
1H!
1@!
1[!
1S!
0]!
0U!
1x!
1Z!
1_!
0^!
1I!
0J!
b110111 <
b10001 A
1)!
b1 C
b110111 &
b1 A
b11110 @
b11100 @
b11 A
1|!
1"!
0!"
0}!
0$!
1|
1m
0z
0k
1]
0~!
b11 C
b11100 B
b1 E
0X
1V
b11100 D
b11 E
b111000 F
b110011 <
b110011 &
#176000
b110011 (
b1111 )
b1011 *
#180000
0!
#185000
1!
b11000 #
b1000 $
1%
0;
0:
09
18
07
01
1+
b111001 F
1z!
1j!
0k!
0m!
1n!
0q!
0s!
0v!
b1010 ?
b1000 ?
b10000 >
b11000 >
b0 ?
b1000 >
b10000 ?
b111011 F
b101011 <
1F!
1>!
0H!
0@!
0M!
0E!
1O!
1G!
0V!
0N!
0[!
0S!
0x!
0Z!
0z!
0_!
0W!
b101011 &
b10 A
0)!
b10 C
b11000 @
b0 A
b111001 F
0|!
0"!
0,!
0{
0]
0-!
b101001 <
b0 C
b10 E
0V
b0 E
b101001 &
b11000 B
0%"
0#"
0Q
0$"
b11000 D
b110001 F
b100001 <
b100001 &
#186000
b100001 (
b10000 )
b1100 *
#190000
0!
#195000
1!
b1 #
b11001 $
1;
17
13
00
0/
1m!
0n!
1w!
b1001 >
b1 >
b11000 ?
1M!
1E!
0O!
0G!
1{!
1y!
1\!
1z!
0I!
0P!
1J!
b101001 <
b11001 @
1+!
b11001 B
b101001 &
b10000 A
b10001 @
b1 @
b110011 F
0|
0m
0%!
0t
1z
1k
1_
0&!
0}
b101011 <
b11001 D
b101011 &
b1001 B
b1 B
0J
0`
0a
b10001 D
0)"
0'"
0("
b1 D
0-"
0+"
0,"
b100011 F
b111011 <
b11 F
b11011 <
b11011 &
#196000
b11011 (
b10001 )
b1101 *
#200000
0!
#205000
1!
b1010 #
b11011 $
1:
03
12
10
0m!
1n!
1t!
1v!
0w!
b0 >
b11001 ?
b10 >
b1010 >
b10001 ?
0M!
0E!
1O!
1G!
1]!
1U!
1x!
1Z!
0{!
0y!
0\!
1^!
1I!
1P!
0J!
b10010 <
b10001 A
b0 @
0+!
1)!
b0 B
b1 C
b10010 &
b1 A
b1000 @
b11000 @
b11010 @
1!"
1}!
1$!
1|
1m
1%!
1t
0z
0k
1]
0_
1&!
1}
1~!
b10 B
b1 E
b0 D
1X
b10 D
b111 F
b10010 B
b11010 B
1J
1`
1a
b1010 D
b10110 <
1)"
1'"
1("
b10110 &
b11010 D
1-"
1+"
1,"
b10111 F
b110 <
b110111 F
b100110 <
b100110 &
#206000
b100110 (
b10010 )
b1110 *
#210000
0!
#215000
1!
b111 #
b11101 $
0%
0:
19
13
11
00
0+
b110110 F
0z!
1m!
0n!
1q!
0v!
1w!
1s!
0t!
b1000 >
b10011 ?
b1001 >
b10010 ?
b1101 >
b101 >
b11010 ?
b110100 F
b101110 <
1M!
1E!
0O!
0G!
1V!
1N!
0x!
0Z!
1{!
1y!
1\!
1[!
1S!
0]!
0U!
1z!
1W!
0I!
1J!
b101110 &
b0 A
b11011 @
1+!
0)!
b11011 B
b0 C
b10000 A
b1011 @
b1111 @
b110110 F
1,!
1{
0|
0m
1z
1k
0]
1_
1-!
b101100 <
b0 E
b11011 D
b101100 &
b11111 B
1%"
1#"
1Q
1$"
b11111 D
b111110 F
b100100 <
b100100 &
#216000
b100100 (
b10011 )
b1111 *
#220000
0!
#225000
1!
b110 #
b11100 $
1%
0;
03
1+
b111111 F
0w!
b100 >
b100101 <
0{!
0y!
0\!
0^!
0z!
b100101 &
b1110 @
0+!
b11110 B
b111101 F
b1100 @
0!"
0}!
0$!
0_
0~!
b11100 B
b100111 <
b11110 D
0X
b100111 &
b11100 D
b111001 F
b100011 <
b100011 &
#226000
b100011 (
b10100 )
b10000 *
#230000
0!
