Verision2/03_verif/Imple/UART/TX_DATA/Verilator/tb_UART_Tx_Data.vcd
$version Generated by VerilatedVcd $end
$timescale 1ps $end
 $scope module TOP $end
  $var wire 1 A i_clk $end
  $var wire 1 B i_rst_n $end
  $var wire 1 C i_start $end
  $var wire 1 D i_done $end
  $var wire 1 E o_w_start $end
  $scope module UART_SS_detect_start $end
   $var wire 1 A i_clk $end
   $var wire 1 B i_rst_n $end
   $var wire 1 C i_start $end
   $var wire 1 D i_done $end
   $var wire 1 E o_w_start $end
   $var wire 1 9 w_start $end
   $var wire 1 : w_done $end
   $var wire 1 ; w_start_save $end
   $var wire 1 < w_next_start $end
   $scope module SS_detect_edge_unit $end
    $var wire 32 L POS_EDGE [31:0] $end
    $var wire 1 A i_clk $end
    $var wire 1 B i_rst_n $end
    $var wire 1 C i_signal $end
    $var wire 1 9 o_signal $end
    $var wire 1 = w_p_signal $end
    $var wire 1 > w_n_signal $end
   $upscope $end
   $scope module SS_detect_edge_unit_2 $end
    $var wire 32 M POS_EDGE [31:0] $end
    $var wire 1 A i_clk $end
    $var wire 1 B i_rst_n $end
    $var wire 1 D i_signal $end
    $var wire 1 : o_signal $end
    $var wire 1 ? w_p_signal $end
    $var wire 1 @ w_n_signal $end
   $upscope $end
  $upscope $end
  $scope module tb_UART_Tx_Data $end
   $var wire 32 N SIZE_DATA_I [31:0] $end
   $var wire 32 O SIZE_DATA_O [31:0] $end
   $var wire 1 F i_clk $end
   $var wire 1 G i_rst_n $end
   $var wire 1 # o_stick $end
   $var wire 1 H i_tx_en $end
   $var wire 32 I i_data [31:0] $end
   $var wire 1 $ o_tx_data $end
   $var wire 1 % o_tx_done $end
   $scope module DUT $end
    $var wire 32 N SIZE_DATA_I [31:0] $end
    $var wire 32 O SIZE_DATA_O [31:0] $end
    $var wire 1 F i_clk $end
    $var wire 1 G i_rst_n $end
    $var wire 1 # i_stick $end
    $var wire 1 H i_tx_en $end
    $var wire 32 I i_data [31:0] $end
    $var wire 1 $ o_tx_data $end
    $var wire 1 % o_tx_done $end
    $var wire 8 & mem[0] [7:0] $end
    $var wire 8 ' mem[1] [7:0] $end
    $var wire 8 ( mem[2] [7:0] $end
    $var wire 8 ) mem[3] [7:0] $end
    $var wire 2 * ptr_rd [1:0] $end
    $var wire 2 + ptr_rd_n [1:0] $end
    $var wire 1 , w_tx_done $end
    $scope module UART_TX_UNIT $end
     $var wire 32 O SIZE_DATA [31:0] $end
     $var wire 32 P OVER_SAMPLE [31:0] $end
     $var wire 1 F i_clk $end
     $var wire 1 G i_rst_n $end
     $var wire 1 # i_stick $end
     $var wire 1 J i_tx_en $end
     $var wire 1 Q i_fifo_empty $end
     $var wire 8 - i_tx_data [7:0] $end
     $var wire 1 $ o_tx_serial $end
     $var wire 1 , o_tx_done $end
     $var wire 32 R SIZE_STATUS [31:0] $end
     $var wire 3 S IDLE [2:0] $end
     $var wire 3 T START [2:0] $end
     $var wire 3 U TRANSMIT [2:0] $end
     $var wire 3 V STOP_I [2:0] $end
     $var wire 3 W STOP_II [2:0] $end
     $var wire 3 X DONE [2:0] $end
     $var wire 3 . state [2:0] $end
     $var wire 3 K n_state [2:0] $end
     $var wire 32 R SIZE_INDEX [31:0] $end
     $var wire 4 / index [3:0] $end
     $var wire 4 0 n_index [3:0] $end
     $var wire 1 1 w_update_data $end
     $var wire 32 Y SIZE_COUNT [31:0] $end
     $var wire 5 2 count [4:0] $end
     $var wire 5 3 n_count [4:0] $end
     $var wire 1 4 w_update_sample $end
     $var wire 1 J w_update_start $end
     $var wire 8 5 w_i_data [7:0] $end
    $upscope $end
   $upscope $end
   $scope module UART_BAUD_GEN_UNIT $end
    $var wire 32 Z SIZE_BAUD [31:0] $end
    $var wire 1 F i_clk $end
    $var wire 1 G i_rst_n $end
    $var wire 24 [ i_baud_rate [23:0] $end
    $var wire 1 # o_stick $end
    $var wire 24 6 bdr_count [23:0] $end
    $var wire 24 7 n_bdr_count [23:0] $end
    $var wire 1 8 w_stick $end
   $upscope $end
  $upscope $end
 $upscope $end
$enddefinitions $end


#0
0#
0$
0%
b00000000 &
b00000000 '
b00000000 (
b00000000 )
b00 *
b00 +
0,
b00000000 -
b000 .
b0000 /
b0000 0
01
b00000 2
b00000 3
04
b00000000 5
b000000000000000000000000 6
b000000000000000000000001 7
08
09
0:
0;
0<
0=
0>
0?
0@
0A
0B
0C
0D
0E
0F
0G
0H
b00000000000000000000000000000000 I
0J
b000 K
b00000000000000000000000000000001 L
b00000000000000000000000000000000 M
b00000000000000000000000000100000 N
b00000000000000000000000000001000 O
b00000000000000000000000000010000 P
0Q
b00000000000000000000000000000011 R
b000 S
b001 T
b010 U
b100 V
b101 W
b110 X
b00000000000000000000000000000100 Y
b00000000000000000000000000011000 Z
b000000000000000000000001 [
#5000
1$
1F
#10000
0F
#15000
1F
#20000
0F
#25000
1F
#30000
0F
#35000
1F
#40000
0F
#45000
1F
#50000
0F
#55000
1F
#60000
0F
#65000
1F
#70000
0F
#75000
1F
#80000
0F
#85000
1F
#90000
0F
#95000
1F
#100000
0F
1G
#105000
b000000000000000000000001 6
b000000000000000000000010 7
18
1F
#110000
0F
#115000
1#
b000000000000000000000010 6
b000000000000000000000000 7
08
1F
#120000
0F
#125000
0#
b000000000000000000000000 6
b000000000000000000000001 7
1F
#130000
0F
#135000
b000000000000000000000001 6
b000000000000000000000010 7
18
1F
#140000
0F
#145000
1#
b000000000000000000000010 6
b000000000000000000000000 7
08
1F
#150000
0F
#155000
0#
b000000000000000000000000 6
b000000000000000000000001 7
1F
#160000
0F
#165000
b000000000000000000000001 6
b000000000000000000000010 7
18
1F
#170000
0F
#175000
1#
b000000000000000000000010 6
b000000000000000000000000 7
08
1F
#180000
0F
#185000
0#
b000000000000000000000000 6
b000000000000000000000001 7
1F
#190000
0F
#195000
b000000000000000000000001 6
b000000000000000000000010 7
18
1F
#200000
0F
#205000
1#
b10111011 &
b10111011 '
b10101010 (
b10101010 )
b10111011 -
b001 .
b00001 3
b000000000000000000000010 6
b000000000000000000000000 7
08
1F
1H
b10101010101010101011101110111011 I
1J
b001 K
#210000
0F
#215000
0#
0$
b00001 2
b000000000000000000000000 6
b000000000000000000000001 7
1F
0H
0J
#220000
0F
#225000
b000000000000000000000001 6
b000000000000000000000010 7
18
1F
#230000
0F
#235000
1#
b00010 3
b000000000000000000000010 6
b000000000000000000000000 7
08
1F
#240000
0F
#245000
0#
b00010 2
b000000000000000000000000 6
b000000000000000000000001 7
1F
#250000
0F
#255000
b000000000000000000000001 6
b000000000000000000000010 7
18
1F
#260000
0F
#265000
1#
b00011 3
b000000000000000000000010 6
b000000000000000000000000 7
08
1F
#270000
0F
#275000
0#
b00011 2
b000000000000000000000000 6
b000000000000000000000001 7
1F
#280000
0F
#285000
b000000000000000000000001 6
b000000000000000000000010 7
18
1F
#290000
0F
#295000
1#
b00100 3
b000000000000000000000010 6
b000000000000000000000000 7
08
1F
#300000
0F
#305000
0#
b00100 2
b000000000000000000000000 6
b000000000000000000000001 7
1F
#310000
0F
#315000
b000000000000000000000001 6
b000000000000000000000010 7
18
1F
#320000
0F
#325000
1#
b00101 3
b000000000000000000000010 6
b000000000000000000000000 7
08
1F
#330000
0F
#335000
0#
b00101 2
b000000000000000000000000 6
b000000000000000000000001 7
1F
#340000
0F
#345000
b000000000000000000000001 6
b000000000000000000000010 7
18
1F
#350000
0F
#355000
1#
b00110 3
b000000000000000000000010 6
b000000000000000000000000 7
08
1F
#360000
0F
#365000
0#
b00110 2
b000000000000000000000000 6
b000000000000000000000001 7
1F
#370000
0F
#375000
b000000000000000000000001 6
b000000000000000000000010 7
18
1F
#380000
0F
#385000
1#
b00111 3
b000000000000000000000010 6
b000000000000000000000000 7
08
1F
#390000
0F
#395000
0#
b00111 2
b000000000000000000000000 6
b000000000000000000000001 7
1F
#400000
0F
#405000
b000000000000000000000001 6
b000000000000000000000010 7
18
1F
#410000
0F
#415000
1#
b01000 3
b000000000000000000000010 6
b000000000000000000000000 7
08
1F
#420000
0F
#425000
0#
b01000 2
b000000000000000000000000 6
b000000000000000000000001 7
1F
#430000
0F
#435000
b000000000000000000000001 6
b000000000000000000000010 7
18
1F
#440000
0F
#445000
1#
b01001 3
b000000000000000000000010 6
b000000000000000000000000 7
08
1F
#450000
0F
#455000
0#
b01001 2
b000000000000000000000000 6
b000000000000000000000001 7
1F
#460000
0F
#465000
b000000000000000000000001 6
b000000000000000000000010 7
18
1F
#470000
0F
#475000
1#
b01010 3
b000000000000000000000010 6
b000000000000000000000000 7
08
1F
#480000
0F
#485000
0#
b01010 2
b000000000000000000000000 6
b000000000000000000000001 7
1F
#490000
0F
#495000
b000000000000000000000001 6
b000000000000000000000010 7
18
1F
#500000
0F
#505000
1#
b01011 3
b000000000000000000000010 6
b000000000000000000000000 7
08
1F
#510000
0F
#515000
0#
b01011 2
b000000000000000000000000 6
b000000000000000000000001 7
1F
#520000
0F
#525000
b000000000000000000000001 6
b000000000000000000000010 7
18
1F
#530000
0F
#535000
1#
b01100 3
b000000000000000000000010 6
b000000000000000000000000 7
08
1F
#540000
0F
#545000
0#
b01100 2
b000000000000000000000000 6
b000000000000000000000001 7
1F
#550000
0F
#555000
b000000000000000000000001 6
b000000000000000000000010 7
18
1F
#560000
0F
#565000
1#
b01101 3
b000000000000000000000010 6
b000000000000000000000000 7
08
1F
#570000
0F
#575000
0#
b01101 2
b000000000000000000000000 6
b000000000000000000000001 7
1F
#580000
0F
#585000
b000000000000000000000001 6
b000000000000000000000010 7
18
1F
#590000
0F
#595000
1#
b01110 3
b000000000000000000000010 6
b000000000000000000000000 7
08
1F
#600000
0F
#605000
0#
b01110 2
b000000000000000000000000 6
b000000000000000000000001 7
1F
#610000
0F
#615000
b000000000000000000000001 6
b000000000000000000000010 7
18
1F
#620000
0F
#625000
1#
b01111 3
b000000000000000000000010 6
b000000000000000000000000 7
08
1F
#630000
0F
#635000
0#
b01111 2
b00000 3
14
b000000000000000000000000 6
b000000000000000000000001 7
1F
b010 K
#640000
0F
#645000
b010 .
b00000 2
04
b000000000000000000000001 6
b000000000000000000000010 7
18
1F
#650000
0F
#655000
1#
b00001 3
b000000000000000000000010 6
b000000000000000000000000 7
08
1F
#660000
0F
#665000
0#
b00001 2
b000000000000000000000000 6
b000000000000000000000001 7
1F
#670000
0F
#675000
b000000000000000000000001 6
b000000000000000000000010 7
18
1F
#680000
0F
#685000
1#
b00010 3
b000000000000000000000010 6
b000000000000000000000000 7
08
1F
#690000
0F
#695000
0#
b00010 2
b000000000000000000000000 6
b000000000000000000000001 7
1F
#700000
0F
#705000
b000000000000000000000001 6
b000000000000000000000010 7
18
1F
#710000
0F
#715000
1#
b00011 3
b000000000000000000000010 6
b000000000000000000000000 7
08
1F
#720000
0F
#725000
0#
b00011 2
b000000000000000000000000 6
b000000000000000000000001 7
1F
#730000
0F
#735000
b000000000000000000000001 6
b000000000000000000000010 7
18
1F
#740000
0F
#745000
1#
b00100 3
b000000000000000000000010 6
b000000000000000000000000 7
08
1F
#750000
0F
#755000
0#
b00100 2
b000000000000000000000000 6
b000000000000000000000001 7
1F
#760000
0F
#765000
b000000000000000000000001 6
b000000000000000000000010 7
18
1F
#770000
0F
#775000
1#
b00101 3
b000000000000000000000010 6
b000000000000000000000000 7
08
1F
#780000
0F
#785000
0#
b00101 2
b000000000000000000000000 6
b000000000000000000000001 7
1F
#790000
0F
#795000
b000000000000000000000001 6
b000000000000000000000010 7
18
1F
#800000
0F
#805000
1#
b00110 3
b000000000000000000000010 6
b000000000000000000000000 7
08
1F
#810000
0F
#815000
0#
b00110 2
b000000000000000000000000 6
b000000000000000000000001 7
1F
#820000
0F
#825000
b000000000000000000000001 6
b000000000000000000000010 7
18
1F
#830000
0F
#835000
1#
b00111 3
b000000000000000000000010 6
b000000000000000000000000 7
08
1F
#840000
0F
#845000
0#
b00111 2
b000000000000000000000000 6
b000000000000000000000001 7
1F
#850000
0F
#855000
b000000000000000000000001 6
b000000000000000000000010 7
18
1F
#860000
0F
#865000
1#
b01000 3
b000000000000000000000010 6
b000000000000000000000000 7
08
1F
#870000
0F
#875000
0#
b01000 2
b000000000000000000000000 6
b000000000000000000000001 7
1F
#880000
0F
#885000
b000000000000000000000001 6
b000000000000000000000010 7
18
1F
#890000
0F
#895000
1#
b01001 3
b000000000000000000000010 6
b000000000000000000000000 7
08
1F
#900000
0F
#905000
0#
b01001 2
b000000000000000000000000 6
b000000000000000000000001 7
1F
#910000
0F
#915000
b000000000000000000000001 6
b000000000000000000000010 7
18
1F
#920000
0F
#925000
1#
b01010 3
b000000000000000000000010 6
b000000000000000000000000 7
08
1F
#930000
0F
#935000
0#
b01010 2
b000000000000000000000000 6
b000000000000000000000001 7
1F
#940000
0F
#945000
b000000000000000000000001 6
b000000000000000000000010 7
18
1F
#950000
0F
#955000
1#
b01011 3
b000000000000000000000010 6
b000000000000000000000000 7
08
1F
#960000
0F
#965000
0#
b01011 2
b000000000000000000000000 6
b000000000000000000000001 7
1F
#970000
0F
#975000
b000000000000000000000001 6
b000000000000000000000010 7
18
1F
#980000
0F
#985000
1#
b01100 3
b000000000000000000000010 6
b000000000000000000000000 7
08
1F
#990000
0F
#995000
0#
b01100 2
b000000000000000000000000 6
b000000000000000000000001 7
1F
#1000000
0F
#1005000
b000000000000000000000001 6
b000000000000000000000010 7
18
1F
#1010000
0F
#1015000
1#
b01101 3
b000000000000000000000010 6
b000000000000000000000000 7
08
1F
#1020000
0F
#1025000
0#
b01101 2
b000000000000000000000000 6
b000000000000000000000001 7
1F
#1030000
0F
#1035000
b000000000000000000000001 6
b000000000000000000000010 7
18
1F
#1040000
0F
#1045000
1#
b01110 3
b000000000000000000000010 6
b000000000000000000000000 7
08
1F
#1050000
0F
#1055000
0#
b01110 2
b000000000000000000000000 6
b000000000000000000000001 7
1F
#1060000
0F
#1065000
b000000000000000000000001 6
b000000000000000000000010 7
18
1F
#1070000
0F
#1075000
1#
b01111 3
b000000000000000000000010 6
b000000000000000000000000 7
08
1F
#1080000
0F
#1085000
0#
b0001 0
b01111 2
b00000 3
14
b000000000000000000000000 6
b000000000000000000000001 7
1F
#1090000
0F
#1095000
b0001 /
b00000 2
04
b000000000000000000000001 6
b000000000000000000000010 7
18
1F
#1100000
0F
#1105000
1#
b00001 3
b000000000000000000000010 6
b000000000000000000000000 7
08
1F
#1110000
0F
#1115000
0#
b00001 2
b000000000000000000000000 6
b000000000000000000000001 7
1F
#1120000
0F
#1125000
b000000000000000000000001 6
b000000000000000000000010 7
18
1F
#1130000
0F
#1135000
1#
b00010 3
b000000000000000000000010 6
b000000000000000000000000 7
08
1F
#1140000
0F
#1145000
0#
b00010 2
b000000000000000000000000 6
b000000000000000000000001 7
1F
#1150000
0F
#1155000
b000000000000000000000001 6
b000000000000000000000010 7
18
1F
#1160000
0F
#1165000
1#
b00011 3
b000000000000000000000010 6
b000000000000000000000000 7
08
1F
#1170000
0F
#1175000
0#
b00011 2
b000000000000000000000000 6
b000000000000000000000001 7
1F
#1180000
0F
#1185000
b000000000000000000000001 6
b000000000000000000000010 7
18
1F
#1190000
0F
#1195000
1#
b00100 3
b000000000000000000000010 6
b000000000000000000000000 7
08
1F
#1200000
0F
#1205000
0#
b00100 2
b000000000000000000000000 6
b000000000000000000000001 7
1F
#1210000
0F
#1215000
b000000000000000000000001 6
b000000000000000000000010 7
18
1F
#1220000
0F
#1225000
1#
b00101 3
b000000000000000000000010 6
b000000000000000000000000 7
08
1F
#1230000
0F
#1235000
0#
b00101 2
b000000000000000000000000 6
b000000000000000000000001 7
1F
#1240000
0F
#1245000
b000000000000000000000001 6
b000000000000000000000010 7
18
1F
#1250000
0F
#1255000
1#
b00110 3
b000000000000000000000010 6
b000000000000000000000000 7
08
1F
#1260000
0F
#1265000
0#
b00110 2
b000000000000000000000000 6
b000000000000000000000001 7
1F
#1270000
0F
#1275000
b000000000000000000000001 6
b000000000000000000000010 7
18
1F
#1280000
0F
#1285000
1#
b00111 3
b000000000000000000000010 6
b000000000000000000000000 7
08
1F
#1290000
0F
#1295000
0#
b00111 2
b000000000000000000000000 6
b000000000000000000000001 7
1F
#1300000
0F
#1305000
b000000000000000000000001 6
b000000000000000000000010 7
18
1F
#1310000
0F
#1315000
1#
b01000 3
b000000000000000000000010 6
b000000000000000000000000 7
08
1F
#1320000
0F
#1325000
0#
b01000 2
b000000000000000000000000 6
b000000000000000000000001 7
1F
#1330000
0F
#1335000
b000000000000000000000001 6
b000000000000000000000010 7
18
1F
#1340000
0F
#1345000
1#
b01001 3
b000000000000000000000010 6
b000000000000000000000000 7
08
1F
#1350000
0F
#1355000
0#
b01001 2
b000000000000000000000000 6
b000000000000000000000001 7
1F
#1360000
0F
#1365000
b000000000000000000000001 6
b000000000000000000000010 7
18
1F
#1370000
0F
#1375000
1#
b01010 3
b000000000000000000000010 6
b000000000000000000000000 7
08
1F
#1380000
0F
#1385000
0#
b01010 2
b000000000000000000000000 6
b000000000000000000000001 7
1F
#1390000
0F
#1395000
b000000000000000000000001 6
b000000000000000000000010 7
18
1F
#1400000
0F
#1405000
1#
b01011 3
b000000000000000000000010 6
b000000000000000000000000 7
08
1F
#1410000
0F
#1415000
0#
b01011 2
b000000000000000000000000 6
b000000000000000000000001 7
1F
#1420000
0F
#1425000
b000000000000000000000001 6
b000000000000000000000010 7
18
1F
#1430000
0F
#1435000
1#
b01100 3
b000000000000000000000010 6
b000000000000000000000000 7
08
1F
#1440000
0F
#1445000
0#
b01100 2
b000000000000000000000000 6
b000000000000000000000001 7
1F
#1450000
0F
#1455000
b000000000000000000000001 6
b000000000000000000000010 7
18
1F
#1460000
0F
#1465000
1#
b01101 3
b000000000000000000000010 6
b000000000000000000000000 7
08
1F
#1470000
0F
#1475000
0#
b01101 2
b000000000000000000000000 6
b000000000000000000000001 7
1F
#1480000
0F
#1485000
b000000000000000000000001 6
b000000000000000000000010 7
18
1F
#1490000
0F
#1495000
1#
b01110 3
b000000000000000000000010 6
b000000000000000000000000 7
08
1F
#1500000
0F
#1505000
0#
b01110 2
b000000000000000000000000 6
b000000000000000000000001 7
1F
#1510000
0F
#1515000
b000000000000000000000001 6
b000000000000000000000010 7
18
1F
#1520000
0F
#1525000
1#
b01111 3
b000000000000000000000010 6
b000000000000000000000000 7
08
1F
#1530000
0F
#1535000
0#
b0010 0
b01111 2
b00000 3
14
b000000000000000000000000 6
b000000000000000000000001 7
1F
#1540000
0F
#1545000
b0010 /
b00000 2
04
b000000000000000000000001 6
b000000000000000000000010 7
18
1F
#1550000
0F
#1555000
1#
b00001 3
b000000000000000000000010 6
b000000000000000000000000 7
08
1F
#1560000
0F
#1565000
0#
b00001 2
b000000000000000000000000 6
b000000000000000000000001 7
1F
#1570000
0F
#1575000
b000000000000000000000001 6
b000000000000000000000010 7
18
1F
#1580000
0F
#1585000
1#
b00010 3
b000000000000000000000010 6
b000000000000000000000000 7
08
1F
#1590000
0F
#1595000
0#
b00010 2
b000000000000000000000000 6
b000000000000000000000001 7
1F
#1600000
0F
#1605000
b000000000000000000000001 6
b000000000000000000000010 7
18
1F
#1610000
0F
#1615000
1#
b00011 3
b000000000000000000000010 6
b000000000000000000000000 7
08
1F
#1620000
0F
#1625000
0#
b00011 2
b000000000000000000000000 6
b000000000000000000000001 7
1F
#1630000
0F
#1635000
b000000000000000000000001 6
b000000000000000000000010 7
18
1F
#1640000
0F
#1645000
1#
b00100 3
b000000000000000000000010 6
b000000000000000000000000 7
08
1F
#1650000
0F
#1655000
0#
b00100 2
b000000000000000000000000 6
b000000000000000000000001 7
1F
#1660000
0F
#1665000
b000000000000000000000001 6
b000000000000000000000010 7
18
1F
#1670000
0F
#1675000
1#
b00101 3
b000000000000000000000010 6
b000000000000000000000000 7
08
1F
#1680000
0F
#1685000
0#
b00101 2
b000000000000000000000000 6
b000000000000000000000001 7
1F
#1690000
0F
#1695000
b000000000000000000000001 6
b000000000000000000000010 7
18
1F
#1700000
0F
#1705000
1#
b00110 3
b000000000000000000000010 6
b000000000000000000000000 7
08
1F
#1710000
0F
#1715000
0#
b00110 2
b000000000000000000000000 6
b000000000000000000000001 7
1F
#1720000
0F
#1725000
b000000000000000000000001 6
b000000000000000000000010 7
18
1F
#1730000
0F
#1735000
1#
b00111 3
b000000000000000000000010 6
b000000000000000000000000 7
08
1F
#1740000
0F
#1745000
0#
b00111 2
b000000000000000000000000 6
b000000000000000000000001 7
1F
#1750000
0F
#1755000
b000000000000000000000001 6
b000000000000000000000010 7
18
1F
#1760000
0F
#1765000
1#
b01000 3
b000000000000000000000010 6
b000000000000000000000000 7
08
1F
#1770000
0F
#1775000
0#
b01000 2
b000000000000000000000000 6
b000000000000000000000001 7
1F
#1780000
0F
#1785000
b000000000000000000000001 6
b000000000000000000000010 7
18
1F
#1790000
0F
#1795000
1#
b01001 3
b000000000000000000000010 6
b000000000000000000000000 7
08
1F
#1800000
0F
#1805000
0#
b01001 2
b000000000000000000000000 6
b000000000000000000000001 7
1F
#1810000
0F
#1815000
b000000000000000000000001 6
b000000000000000000000010 7
18
1F
#1820000
0F
#1825000
1#
b01010 3
b000000000000000000000010 6
b000000000000000000000000 7
08
1F
#1830000
0F
#1835000
0#
b01010 2
b000000000000000000000000 6
b000000000000000000000001 7
1F
#1840000
0F
#1845000
b000000000000000000000001 6
b000000000000000000000010 7
18
1F
#1850000
0F
#1855000
1#
b01011 3
b000000000000000000000010 6
b000000000000000000000000 7
08
1F
#1860000
0F
#1865000
0#
b01011 2
b000000000000000000000000 6
b000000000000000000000001 7
1F
#1870000
0F
#1875000
b000000000000000000000001 6
b000000000000000000000010 7
18
1F
#1880000
0F
#1885000
1#
b01100 3
b000000000000000000000010 6
b000000000000000000000000 7
08
1F
#1890000
0F
#1895000
0#
b01100 2
b000000000000000000000000 6
b000000000000000000000001 7
1F
#1900000
0F
#1905000
b000000000000000000000001 6
b000000000000000000000010 7
18
1F
#1910000
0F
#1915000
1#
b01101 3
b000000000000000000000010 6
b000000000000000000000000 7
08
1F
#1920000
0F
#1925000
0#
b01101 2
b000000000000000000000000 6
b000000000000000000000001 7
1F
#1930000
0F
#1935000
b000000000000000000000001 6
b000000000000000000000010 7
18
1F
#1940000
0F
#1945000
1#
b01110 3
b000000000000000000000010 6
b000000000000000000000000 7
08
1F
#1950000
0F
#1955000
0#
b01110 2
b000000000000000000000000 6
b000000000000000000000001 7
1F
#1960000
0F
#1965000
b000000000000000000000001 6
b000000000000000000000010 7
18
1F
#1970000
0F
#1975000
1#
b01111 3
b000000000000000000000010 6
b000000000000000000000000 7
08
1F
#1980000
0F
#1985000
0#
b0011 0
b01111 2
b00000 3
14
b000000000000000000000000 6
b000000000000000000000001 7
1F
#1990000
0F
#1995000
b0011 /
b00000 2
04
b000000000000000000000001 6
b000000000000000000000010 7
18
1F
#2000000
0F
#2005000
1#
b00001 3
b000000000000000000000010 6
b000000000000000000000000 7
08
1F
#2010000
0F
#2015000
0#
b00001 2
b000000000000000000000000 6
b000000000000000000000001 7
1F
#2020000
0F
#2025000
b000000000000000000000001 6
b000000000000000000000010 7
18
1F
#2030000
0F
#2035000
1#
b00010 3
b000000000000000000000010 6
b000000000000000000000000 7
08
1F
#2040000
0F
#2045000
0#
b00010 2
b000000000000000000000000 6
b000000000000000000000001 7
1F
#2050000
0F
#2055000
b000000000000000000000001 6
b000000000000000000000010 7
18
1F
#2060000
0F
#2065000
1#
b00011 3
b000000000000000000000010 6
b000000000000000000000000 7
08
1F
#2070000
0F
#2075000
0#
b00011 2
b000000000000000000000000 6
b000000000000000000000001 7
1F
#2080000
0F
#2085000
b000000000000000000000001 6
b000000000000000000000010 7
18
1F
#2090000
0F
#2095000
1#
b00100 3
b000000000000000000000010 6
b000000000000000000000000 7
08
1F
#2100000
0F
#2105000
0#
b00100 2
b000000000000000000000000 6
b000000000000000000000001 7
1F
#2110000
0F
#2115000
b000000000000000000000001 6
b000000000000000000000010 7
18
1F
#2120000
0F
#2125000
1#
b00101 3
b000000000000000000000010 6
b000000000000000000000000 7
08
1F
#2130000
0F
#2135000
0#
b00101 2
b000000000000000000000000 6
b000000000000000000000001 7
1F
#2140000
0F
#2145000
b000000000000000000000001 6
b000000000000000000000010 7
18
1F
#2150000
0F
#2155000
1#
b00110 3
b000000000000000000000010 6
b000000000000000000000000 7
08
1F
#2160000
0F
#2165000
0#
b00110 2
b000000000000000000000000 6
b000000000000000000000001 7
1F
#2170000
0F
#2175000
b000000000000000000000001 6
b000000000000000000000010 7
18
1F
#2180000
0F
#2185000
1#
b00111 3
b000000000000000000000010 6
b000000000000000000000000 7
08
1F
#2190000
0F
#2195000
0#
b00111 2
b000000000000000000000000 6
b000000000000000000000001 7
1F
#2200000
0F
#2205000
b000000000000000000000001 6
b000000000000000000000010 7
18
1F
#2210000
0F
#2215000
1#
b01000 3
b000000000000000000000010 6
b000000000000000000000000 7
08
1F
#2220000
0F
#2225000
0#
b01000 2
b000000000000000000000000 6
b000000000000000000000001 7
1F
#2230000
0F
#2235000
b000000000000000000000001 6
b000000000000000000000010 7
18
1F
#2240000
0F
#2245000
1#
b01001 3
b000000000000000000000010 6
b000000000000000000000000 7
08
1F
#2250000
0F
#2255000
0#
b01001 2
b000000000000000000000000 6
b000000000000000000000001 7
1F
#2260000
0F
#2265000
b000000000000000000000001 6
b000000000000000000000010 7
18
1F
#2270000
0F
#2275000
1#
b01010 3
b000000000000000000000010 6
b000000000000000000000000 7
08
1F
#2280000
0F
#2285000
0#
b01010 2
b000000000000000000000000 6
b000000000000000000000001 7
1F
#2290000
0F
#2295000
b000000000000000000000001 6
b000000000000000000000010 7
18
1F
#2300000
0F
#2305000
1#
b01011 3
b000000000000000000000010 6
b000000000000000000000000 7
08
1F
#2310000
0F
#2315000
0#
b01011 2
b000000000000000000000000 6
b000000000000000000000001 7
1F
#2320000
0F
#2325000
b000000000000000000000001 6
b000000000000000000000010 7
18
1F
#2330000
0F
#2335000
1#
b01100 3
b000000000000000000000010 6
b000000000000000000000000 7
08
1F
#2340000
0F
#2345000
0#
b01100 2
b000000000000000000000000 6
b000000000000000000000001 7
1F
#2350000
0F
#2355000
b000000000000000000000001 6
b000000000000000000000010 7
18
1F
#2360000
0F
#2365000
1#
b01101 3
b000000000000000000000010 6
b000000000000000000000000 7
08
1F
#2370000
0F
#2375000
0#
b01101 2
b000000000000000000000000 6
b000000000000000000000001 7
1F
#2380000
0F
#2385000
b000000000000000000000001 6
b000000000000000000000010 7
18
1F
#2390000
0F
#2395000
1#
b01110 3
b000000000000000000000010 6
b000000000000000000000000 7
08
1F
#2400000
0F
#2405000
0#
b01110 2
b000000000000000000000000 6
b000000000000000000000001 7
1F
#2410000
0F
#2415000
b000000000000000000000001 6
b000000000000000000000010 7
18
1F
#2420000
0F
#2425000
1#
b01111 3
b000000000000000000000010 6
b000000000000000000000000 7
08
1F
#2430000
0F
#2435000
0#
b0100 0
b01111 2
b00000 3
14
b000000000000000000000000 6
b000000000000000000000001 7
1F
#2440000
0F
#2445000
b0100 /
b00000 2
04
b000000000000000000000001 6
b000000000000000000000010 7
18
1F
#2450000
0F
#2455000
1#
b00001 3
b000000000000000000000010 6
b000000000000000000000000 7
08
1F
#2460000
0F
#2465000
0#
b00001 2
b000000000000000000000000 6
b000000000000000000000001 7
1F
#2470000
0F
#2475000
b000000000000000000000001 6
b000000000000000000000010 7
18
1F
#2480000
0F
#2485000
1#
b00010 3
b000000000000000000000010 6
b000000000000000000000000 7
08
1F
#2490000
0F
#2495000
0#
b00010 2
b000000000000000000000000 6
b000000000000000000000001 7
1F
#2500000
0F
#2505000
b000000000000000000000001 6
b000000000000000000000010 7
18
1F
#2510000
0F
#2515000
1#
b00011 3
b000000000000000000000010 6
b000000000000000000000000 7
08
1F
#2520000
0F
#2525000
0#
b00011 2
b000000000000000000000000 6
b000000000000000000000001 7
1F
#2530000
0F
#2535000
b000000000000000000000001 6
b000000000000000000000010 7
18
1F
#2540000
0F
#2545000
1#
b00100 3
b000000000000000000000010 6
b000000000000000000000000 7
08
1F
#2550000
0F
#2555000
0#
b00100 2
b000000000000000000000000 6
b000000000000000000000001 7
1F
#2560000
0F
#2565000
b000000000000000000000001 6
b000000000000000000000010 7
18
1F
#2570000
0F
#2575000
1#
b00101 3
b000000000000000000000010 6
b000000000000000000000000 7
08
1F
#2580000
0F
#2585000
0#
b00101 2
b000000000000000000000000 6
b000000000000000000000001 7
1F
#2590000
0F
#2595000
b000000000000000000000001 6
b000000000000000000000010 7
18
1F
#2600000
0F
#2605000
1#
b00110 3
b000000000000000000000010 6
b000000000000000000000000 7
08
1F
#2610000
0F
#2615000
0#
b00110 2
b000000000000000000000000 6
b000000000000000000000001 7
1F
#2620000
0F
#2625000
b000000000000000000000001 6
b000000000000000000000010 7
18
1F
#2630000
0F
#2635000
1#
b00111 3
b000000000000000000000010 6
b000000000000000000000000 7
08
1F
#2640000
0F
#2645000
0#
b00111 2
b000000000000000000000000 6
b000000000000000000000001 7
1F
#2650000
0F
#2655000
b000000000000000000000001 6
b000000000000000000000010 7
18
1F
#2660000
0F
#2665000
1#
b01000 3
b000000000000000000000010 6
b000000000000000000000000 7
08
1F
#2670000
0F
#2675000
0#
b01000 2
b000000000000000000000000 6
b000000000000000000000001 7
1F
#2680000
0F
#2685000
b000000000000000000000001 6
b000000000000000000000010 7
18
1F
#2690000
0F
#2695000
1#
b01001 3
b000000000000000000000010 6
b000000000000000000000000 7
08
1F
#2700000
0F
#2705000
0#
b01001 2
b000000000000000000000000 6
b000000000000000000000001 7
1F
#2710000
0F
#2715000
b000000000000000000000001 6
b000000000000000000000010 7
18
1F
#2720000
0F
