FLOATING_POINT_ADD_SUB/Verision1/03_verif/SubModule/COMP_UNIT/COMP_28BIT/Verilator/tb_COMP_28bit.vcd
$version Generated by VerilatedVcd $end
$timescale 1ps $end
 $scope module TOP $end
  $scope module tb_COMP_28bit $end
   $var wire 1 } i_clk $end
   $var wire 1 ~ i_rst_n $end
   $var wire 28 # i_data_a [27:0] $end
   $var wire 28 $ i_data_b [27:0] $end
   $var wire 1 R o_less $end
   $var wire 1 % w_expect $end
   $var wire 32 & test_count [31:0] $end
   $var wire 32 ' test_pass [31:0] $end
   $scope module DUT $end
    $var wire 32 !! SIZE_DATA [31:0] $end
    $var wire 28 # i_data_a [27:0] $end
    $var wire 28 $ i_data_b [27:0] $end
    $var wire 1 R o_less $end
    $var wire 1 S w_less_0_0 $end
    $var wire 1 T w_less_0_1 $end
    $var wire 1 U w_less_0_2 $end
    $var wire 1 V w_less_0_3 $end
    $var wire 1 W w_less_0_4 $end
    $var wire 1 X w_less_0_5 $end
    $var wire 1 Y w_less_0_6 $end
    $var wire 1 Z w_equal_0_0 $end
    $var wire 1 [ w_equal_0_1 $end
    $var wire 1 \ w_equal_0_2 $end
    $var wire 1 ] w_equal_0_3 $end
    $var wire 1 ^ w_equal_0_4 $end
    $var wire 1 _ w_equal_0_5 $end
    $var wire 1 ` w_equal_0_6 $end
    $scope module u_i_data_0 $end
     $var wire 4 ( i_data_a [3:0] $end
     $var wire 4 ) i_data_b [3:0] $end
     $var wire 1 S o_less $end
     $var wire 1 Z o_equal $end
     $var wire 1 a w_less_low $end
     $var wire 1 b w_equal_low $end
     $var wire 1 c w_less_high $end
     $var wire 1 d w_equal_high $end
     $scope module u_high $end
      $var wire 2 * i_data_a [1:0] $end
      $var wire 2 + i_data_b [1:0] $end
      $var wire 1 c o_less $end
      $var wire 1 d o_equal $end
     $upscope $end
     $scope module u_low $end
      $var wire 2 , i_data_a [1:0] $end
      $var wire 2 - i_data_b [1:0] $end
      $var wire 1 a o_less $end
      $var wire 1 b o_equal $end
     $upscope $end
    $upscope $end
    $scope module u_i_data_1 $end
     $var wire 4 . i_data_a [3:0] $end
     $var wire 4 / i_data_b [3:0] $end
     $var wire 1 T o_less $end
     $var wire 1 [ o_equal $end
     $var wire 1 e w_less_low $end
     $var wire 1 f w_equal_low $end
     $var wire 1 g w_less_high $end
     $var wire 1 h w_equal_high $end
     $scope module u_high $end
      $var wire 2 0 i_data_a [1:0] $end
      $var wire 2 1 i_data_b [1:0] $end
      $var wire 1 g o_less $end
      $var wire 1 h o_equal $end
     $upscope $end
     $scope module u_low $end
      $var wire 2 2 i_data_a [1:0] $end
      $var wire 2 3 i_data_b [1:0] $end
      $var wire 1 e o_less $end
      $var wire 1 f o_equal $end
     $upscope $end
    $upscope $end
    $scope module u_i_data_2 $end
     $var wire 4 4 i_data_a [3:0] $end
     $var wire 4 5 i_data_b [3:0] $end
     $var wire 1 U o_less $end
     $var wire 1 \ o_equal $end
     $var wire 1 i w_less_low $end
     $var wire 1 j w_equal_low $end
     $var wire 1 k w_less_high $end
     $var wire 1 l w_equal_high $end
     $scope module u_high $end
      $var wire 2 6 i_data_a [1:0] $end
      $var wire 2 7 i_data_b [1:0] $end
      $var wire 1 k o_less $end
      $var wire 1 l o_equal $end
     $upscope $end
     $scope module u_low $end
      $var wire 2 8 i_data_a [1:0] $end
      $var wire 2 9 i_data_b [1:0] $end
      $var wire 1 i o_less $end
      $var wire 1 j o_equal $end
     $upscope $end
    $upscope $end
    $scope module u_i_data_3 $end
     $var wire 4 : i_data_a [3:0] $end
     $var wire 4 ; i_data_b [3:0] $end
     $var wire 1 V o_less $end
     $var wire 1 ] o_equal $end
     $var wire 1 m w_less_low $end
     $var wire 1 n w_equal_low $end
     $var wire 1 o w_less_high $end
     $var wire 1 p w_equal_high $end
     $scope module u_high $end
      $var wire 2 < i_data_a [1:0] $end
      $var wire 2 = i_data_b [1:0] $end
      $var wire 1 o o_less $end
      $var wire 1 p o_equal $end
     $upscope $end
     $scope module u_low $end
      $var wire 2 > i_data_a [1:0] $end
      $var wire 2 ? i_data_b [1:0] $end
      $var wire 1 m o_less $end
      $var wire 1 n o_equal $end
     $upscope $end
    $upscope $end
    $scope module u_i_data_4 $end
     $var wire 4 @ i_data_a [3:0] $end
     $var wire 4 A i_data_b [3:0] $end
     $var wire 1 W o_less $end
     $var wire 1 ^ o_equal $end
     $var wire 1 q w_less_low $end
     $var wire 1 r w_equal_low $end
     $var wire 1 s w_less_high $end
     $var wire 1 t w_equal_high $end
     $scope module u_high $end
      $var wire 2 B i_data_a [1:0] $end
      $var wire 2 C i_data_b [1:0] $end
      $var wire 1 s o_less $end
      $var wire 1 t o_equal $end
     $upscope $end
     $scope module u_low $end
      $var wire 2 D i_data_a [1:0] $end
      $var wire 2 E i_data_b [1:0] $end
      $var wire 1 q o_less $end
      $var wire 1 r o_equal $end
     $upscope $end
    $upscope $end
    $scope module u_i_data_5 $end
     $var wire 4 F i_data_a [3:0] $end
     $var wire 4 G i_data_b [3:0] $end
     $var wire 1 X o_less $end
     $var wire 1 _ o_equal $end
     $var wire 1 u w_less_low $end
     $var wire 1 v w_equal_low $end
     $var wire 1 w w_less_high $end
     $var wire 1 x w_equal_high $end
     $scope module u_high $end
      $var wire 2 H i_data_a [1:0] $end
      $var wire 2 I i_data_b [1:0] $end
      $var wire 1 w o_less $end
      $var wire 1 x o_equal $end
     $upscope $end
     $scope module u_low $end
      $var wire 2 J i_data_a [1:0] $end
      $var wire 2 K i_data_b [1:0] $end
      $var wire 1 u o_less $end
      $var wire 1 v o_equal $end
     $upscope $end
    $upscope $end
    $scope module u_i_data_6 $end
     $var wire 4 L i_data_a [3:0] $end
     $var wire 4 M i_data_b [3:0] $end
     $var wire 1 Y o_less $end
     $var wire 1 ` o_equal $end
     $var wire 1 y w_less_low $end
     $var wire 1 z w_equal_low $end
     $var wire 1 { w_less_high $end
     $var wire 1 | w_equal_high $end
     $scope module u_high $end
      $var wire 2 N i_data_a [1:0] $end
      $var wire 2 O i_data_b [1:0] $end
      $var wire 1 { o_less $end
      $var wire 1 | o_equal $end
     $upscope $end
     $scope module u_low $end
      $var wire 2 P i_data_a [1:0] $end
      $var wire 2 Q i_data_b [1:0] $end
      $var wire 1 y o_less $end
      $var wire 1 z o_equal $end
     $upscope $end
    $upscope $end
   $upscope $end
  $upscope $end
 $upscope $end
$enddefinitions $end


#0
b0000000000000000000000000000 #
b0000000000000000000000000000 $
0%
b00000000000000000000000000000000 &
b00000000000000000000000000000000 '
b0000 (
b0000 )
b00 *
b00 +
b00 ,
b00 -
b0000 .
b0000 /
b00 0
b00 1
b00 2
b00 3
b0000 4
b0000 5
b00 6
b00 7
b00 8
b00 9
b0000 :
b0000 ;
b00 <
b00 =
b00 >
b00 ?
b0000 @
b0000 A
b00 B
b00 C
b00 D
b00 E
b0000 F
b0000 G
b00 H
b00 I
b00 J
b00 K
b0000 L
b0000 M
b00 N
b00 O
b00 P
b00 Q
0R
0S
0T
0U
0V
0W
0X
0Y
1Z
1[
1\
1]
1^
1_
1`
0a
1b
0c
1d
0e
1f
0g
1h
0i
1j
0k
1l
0m
1n
0o
1p
0q
1r
0s
1t
0u
1v
0w
1x
0y
1z
0{
1|
0}
0~
b00000000000000000000000000011100 !!
#5000
b1001011101100111001111000100 #
b1011000111100101110110011100 $
b0100 (
b1100 )
b01 *
b11 +
b1100 .
b1001 /
b11 0
b10 1
b01 3
b0011 4
b1101 5
b11 7
b11 8
b01 9
b0111 :
b0101 ;
b01 <
b01 =
b11 >
b01 ?
b0110 @
b1110 A
b01 B
b11 C
b10 D
b10 E
b0111 F
b0001 G
b01 H
b11 J
b01 K
b1001 L
b1011 M
b10 N
b10 O
b01 P
b11 Q
1R
1S
1U
1W
1Y
0Z
0[
0\
0]
0^
0_
0`
1c
0d
1e
0f
0h
0j
1k
0l
0n
1s
0t
0v
0x
1y
0z
1}
#6000
1%
b00000000000000000000000000000001 &
b00000000000000000000000000000001 '
#10000
0}
#15000
b1110111111011101010100000010 #
b1000110000101110000011100100 $
b0010 (
b0100 )
b00 *
b01 +
b10 ,
b0000 .
b1110 /
b00 0
b11 1
b10 3
b0101 4
b0000 5
b01 6
b00 7
b01 8
b00 9
b1101 :
b1110 ;
b11 <
b11 =
b01 >
b10 ?
b1101 @
b0010 A
b11 B
b00 C
b01 D
b1111 F
b1100 G
b11 H
b11 I
b00 K
b1110 L
b1000 M
b11 N
b10 P
b00 Q
0R
1T
0U
1V
0W
0Y
0b
1g
0k
1m
1q
0r
0s
1x
0y
0|
1}
#16000
0%
b00000000000000000000000000000010 &
b00000000000000000000000000000010 '
#20000
0}
#25000
b0010000101111000001101111000 #
b1011110101011000111010111100 $
b1000 (
b1100 )
b10 *
b11 +
b00 ,
b0111 .
b1011 /
b01 0
b10 1
b11 2
b11 3
b0011 4
b1110 5
b00 6
b11 7
b11 8
b10 9
b1000 :
b1000 ;
b10 <
b10 =
b00 >
b00 ?
b0111 @
b0101 A
b01 B
b01 C
b11 D
b01 E
b0001 F
b1101 G
b00 H
b01 J
b01 K
b0010 L
b1011 M
b00 N
b11 Q
1R
1U
0V
1X
1Y
1]
1b
0e
1f
1k
0m
1n
0q
1t
1v
1w
0x
1y
1{
1}
#26000
1%
b00000000000000000000000000000011 &
b00000000000000000000000000000011 '
#30000
0}
#35000
b1010101001001001111010110110 #
b1010000101001111111111100100 $
b0110 (
b0100 )
b01 *
b01 +
b10 ,
b1011 .
b1110 /
b10 0
b11 1
b10 3
b1110 4
b1111 5
b11 6
b10 8
b11 9
b1001 :
b1111 ;
b11 =
b01 >
b11 ?
b0100 @
b0100 A
b00 D
b00 E
b1010 F
b0001 G
b10 H
b00 I
b10 J
b1010 L
b1010 M
b10 N
b10 Q
0R
0S
1V
0X
0Y
0]
1^
1`
0b
0c
1d
0f
1i
0k
1l
1m
0n
1o
0p
1r
0v
0w
0y
1z
0{
1|
1}
#36000
0%
b00000000000000000000000000000100 &
b00000000000000000000000000000100 '
#40000
0}
#45000
b1101011011111111001110110111 #
b1100110001000111000101010011 $
b0111 (
b0011 )
b00 +
b11 ,
b11 -
b0101 /
b01 1
b01 3
b0011 4
b0001 5
b00 6
b00 7
b11 8
b01 9
b1111 :
b0111 ;
b11 <
b01 =
b11 >
b1111 @
b11 B
b11 D
b0110 F
b1100 G
b01 H
b11 I
b00 K
b1101 L
b1100 M
b11 N
b11 O
b01 P
b00 Q
0T
0U
0V
1X
0^
0`
1b
0d
0g
0i
0m
1n
0o
0r
0t
1w
0z
1}
#46000
b00000000000000000000000000000101 &
b00000000000000000000000000000101 '
#50000
0}
#55000
b1111100111100001011100100001 #
b1010100110100111110111100001 $
b0001 (
b0001 )
b00 *
b01 ,
b01 -
b0010 .
b1110 /
b00 0
b11 1
b10 2
b10 3
b0111 4
b1101 5
b01 6
b11 7
b0001 :
b00 <
b01 >
b1110 @
b1010 A
b10 C
b10 D
b10 E
b1001 F
b1001 G
b10 H
b10 I
b01 J
b01 K
b1111 L
b1010 M
b10 O
b11 P
b10 Q
1T
1U
1V
0X
1Z
1_
1d
1f
1g
1k
0l
1m
0n
1o
1r
1v
0w
1x
0|
1}
#56000
b00000000000000000000000000000110 &
b00000000000000000000000000000110 '
#60000
0}
#65000
b1111100011001010111111000101 #
b0010010100111111001110000010 $
b0101 (
b0010 )
b01 *
b10 -
b1100 .
b1000 /
b11 0
b10 1
b00 2
b00 3
b1111 4
b0011 5
b11 6
b00 7
b11 9
b1010 :
b1111 ;
b10 <
b11 =
b10 >
b1100 @
b0011 A
b00 C
b00 D
b11 E
b1000 F
b0101 G
b01 I
b00 J
b0010 M
b00 O
0T
0U
0Z
0_
1a
0b
0d
0g
1j
0k
1q
0r
1u
0v
0x
1}
#66000
b00000000000000000000000000000111 &
b00000000000000000000000000000111 '
#70000
0}
#75000
b0100010100011111111101100010 #
b0011010110000001011000110101 $
b0010 (
b0101 )
b00 *
b01 +
b10 ,
b01 -
b0110 .
b0011 /
b01 0
b00 1
b10 2
b11 3
b0110 5
b01 7
b10 9
b1111 :
b0001 ;
b11 <
b00 =
b11 >
b01 ?
b0001 @
b1000 A
b00 B
b10 C
b01 D
b00 E
b0101 F
b01 H
b01 J
b0100 L
b0011 M
b01 N
b00 P
b11 Q
1S
0V
1W
1_
0a
1c
1e
0f
0j
0m
0o
0q
1s
0u
1v
1x
1y
1}
#76000
b00000000000000000000000000001000 &
b00000000000000000000000000001000 '
#80000
0}
#85000
b1101111110111100100100010010 #
b0010111110011010101101010110 $
b0110 )
b10 -
b0001 .
b0101 /
b00 0
b01 1
b01 2
b01 3
b1001 4
b1011 5
b10 6
b10 7
b01 8
b11 9
b1100 :
b1010 ;
b10 =
b00 >
b10 ?
b1011 @
b1001 A
b10 B
b11 D
b01 E
b1111 F
b1111 G
b11 H
b11 I
b11 J
b11 K
b1101 L
b0010 M
b11 N
b01 P
b10 Q
1T
1U
0W
1b
0e
1f
1g
1i
1l
1m
0s
1t
1}
#86000
b00000000000000000000000000001001 &
b00000000000000000000000000001001 '
#90000
0}
#95000
b0100001100100011101111111101 #
b1100011010110100000111110100 $
b1101 (
b0100 )
b11 *
b01 ,
b00 -
b1111 .
b1111 /
b11 0
b11 1
b11 2
b11 3
b1011 4
b0001 5
b00 7
b11 8
b01 9
b0011 :
b0100 ;
b00 <
b01 =
b11 >
b00 ?
b0010 @
b1011 A
b00 B
b10 D
b11 E
b0011 F
b0110 G
b00 H
b01 I
b10 K
b0100 L
b1100 M
b01 N
b11 O
b00 P
b00 Q
1R
0S
0T
0U
1V
1W
1X
1Y
1[
0_
0b
0c
0g
1h
0i
0l
0m
1o
1q
1s
0t
0v
1w
0x
0y
1z
1{
1}
#96000
1%
b00000000000000000000000000001010 &
b00000000000000000000000000001010 '
#100000
0}
#105000
b0110101011011111010100111011 #
b0110011011010100110101011000 $
b1011 (
b1000 )
b10 *
b10 +
b11 ,
b0011 .
b0101 /
b00 0
b01 1
b01 3
b0101 4
b1101 5
b01 6
b11 7
b01 8
b1111 :
b11 <
b1101 @
b1101 A
b11 B
b11 C
b01 D
b01 E
b1010 F
b10 H
b10 J
b0110 L
b0110 M
b01 O
b10 P
b10 Q
0R
1T
1U
0V
0W
0X
0Y
0[
1^
1`
1d
0f
1g
0h
1j
1k
0o
0q
1r
0s
1t
1v
0w
0{
1|
1}
#106000
0%
b00000000000000000000000000001011 &
b00000000000000000000000000001011 '
#110000
0}
#115000
b1001110011110000010010110010 #
b0110110100010000100001011100 $
b0010 (
b1100 )
b00 *
b11 +
b10 ,
b1011 .
b10 0
b0100 4
b1000 5
b10 7
b00 8
b00 9
b0000 :
b0000 ;
b00 <
b00 =
b00 >
b1111 @
b0001 A
b00 C
b11 D
b1100 F
b1101 G
b11 H
b11 I
b00 J
b01 K
b1001 L
b10 N
b01 P
1S
0T
1X
1]
0^
0`
1c
0d
0g
1n
1p
0r
0t
1u
0v
1x
1y
0z
0|
1}
#116000
b00000000000000000000000000001100 &
b00000000000000000000000000001100 '
#120000
0}
#125000
b1010000110111000010100011110 #
b1101000111110100010110011110 $
b1110 (
b1110 )
b11 *
b10 -
b0001 .
b1001 /
b00 0
b10 1
b01 2
b0101 4
b0101 5
b01 7
b01 8
b01 9
b1000 :
b0100 ;
b10 <
b01 =
b1011 @
b1111 A
b10 B
b11 C
b11 E
b0001 F
b0001 G
b00 H
b00 I
b01 J
b1010 L
b1101 M
b11 O
b10 P
b01 Q
1R
0S
1T
0U
1W
0X
1Y
1Z
1\
0]
1_
1b
0c
1d
1f
1g
0k
1l
0p
1r
1s
0u
1v
0y
1{
1}
#126000
1%
b00000000000000000000000000001101 &
b00000000000000000000000000001101 '
#130000
0}
#135000
b1101111110001001100110011110 #
b1011001100110001110011101110 $
b1001 .
b1110 /
b10 0
b11 1
b10 3
b1001 4
b1100 5
b10 6
b11 7
b00 9
b1001 :
b0001 ;
b00 =
b01 >
b01 ?
b1000 @
b0011 A
b00 C
b00 D
b1111 F
b0011 G
b11 H
b11 J
b11 K
b1101 L
b1011 M
b11 N
b10 O
b01 P
b11 Q
0R
1U
0W
0Y
0\
0_
1e
0f
0j
1k
0l
1q
0r
0s
0x
1y
0{
1}
#136000
0%
b00000000000000000000000000001110 &
b00000000000000000000000000001110 '
#140000
0}
#145000
b1000001110110110101100010000 #
b0000111110110111111101110110 $
b0000 (
b0110 )
b00 *
b01 +
b00 ,
b0001 .
b0111 /
b00 0
b01 1
b11 3
b1011 4
b1111 5
b11 8
b11 9
b0110 :
b0111 ;
b01 <
b01 =
b10 >
b11 ?
b1011 @
b1011 A
b10 C
b11 D
b0011 F
b1111 G
b00 H
b11 I
b1000 L
b0000 M
b10 N
b00 O
b00 P
b00 Q
1S
1V
1X
0Z
1^
1a
0b
1c
0d
1j
1m
0n
1p
0q
1r
1t
1w
0y
1z
1}
#146000
b00000000000000000000000000001111 &
b00000000000000000000000000001111 '
#150000
0}
#155000
b1010010100001110110101100011 #
b1001100111111010001011000000 $
b0011 (
b0000 )
b00 +
b11 ,
b00 -
b0110 .
b1100 /
b01 0
b11 1
b10 2
b00 3
b1101 4
b0010 5
b11 6
b00 7
b01 8
b10 9
b1110 :
b1010 ;
b11 <
b10 =
b10 ?
b0000 @
b1111 A
b00 B
b11 C
b00 D
b0101 F
b1001 G
b01 H
b10 I
b01 J
b01 K
b1010 L
b1001 M
b10 O
b10 P
b01 Q
0S
0U
0V
1W
0^
0a
0c
1d
0e
1i
0j
0k
0m
1n
0p
1q
0r
1s
0t
0z
1|
1}
#156000
b00000000000000000000000000010000 &
b00000000000000000000000000010000 '
#160000
0}
#165000
b0001110010001011101100011101 #
b0001000110110000111100100010 $
b1101 (
b0010 )
b11 *
b01 ,
b10 -
b0001 .
b0010 /
b00 0
b00 1
b01 2
b10 3
b1011 4
b1111 5
b10 6
b11 7
b11 8
b11 9
b1011 :
b0000 ;
b10 <
b00 =
b11 >
b00 ?
b1000 @
b1011 A
b10 B
b10 C
b1100 F
b0001 G
b11 H
b00 I
b00 J
b0001 L
b0001 M
b00 N
b00 O
b01 P
1U
0X
1`
1a
0d
1e
0g
1h
0i
1j
1k
0n
0s
1t
1u
0v
0w
1z
1}
#166000
b00000000000000000000000000010001 &
b00000000000000000000000000010001 '
#170000
0}
#175000
b1111100100111000111100000110 #
b0101111011100101101110000001 $
b0110 (
b0001 )
b01 *
b10 ,
b01 -
b0000 .
b1000 /
b10 1
b00 2
b00 3
b1111 4
b1011 5
b11 6
b10 7
b1000 :
b0101 ;
b01 =
b00 >
b01 ?
b0011 @
b1110 A
b00 B
b11 C
b11 D
b10 E
b1001 F
b1110 G
b10 H
b11 I
b01 J
b10 K
b1111 L
b0101 M
b11 N
b01 O
b11 P
0U
1X
0`
0a
0e
1f
1g
0h
0k
1m
0q
1s
0t
1w
0z
0|
1}
#176000
b00000000000000000000000000010010 &
b00000000000000000000000000010010 '
#180000
0}
#185000
b1001001011010011001001100011 #
b0100010101001100001001111000 $
b0011 (
b1000 )
b00 *
b10 +
b11 ,
b00 -
b0110 .
b0111 /
b01 0
b01 1
b10 2
b11 3
b0010 4
b0010 5
b00 6
b00 7
b10 8
b10 9
b0011 :
b1100 ;
b00 <
b11 =
b11 >
b00 ?
b1101 @
b0100 A
b11 B
b01 C
b01 D
b00 E
b0010 F
b0101 G
b00 H
b01 I
b10 J
b01 K
b1001 L
b0100 M
b10 N
b01 P
b00 Q
1S
1V
0W
1\
1c
1e
0f
0g
1h
1l
0m
1o
0s
0u
1}
#186000
b00000000000000000000000000010011 &
b00000000000000000000000000010011 '
#190000
0}
#195000
b0000011000101011111001101111 #
b0011010101001101101011001110 $
b1111 (
b1110 )
b11 *
b11 +
b10 -
b1100 /
b11 1
b00 3
b1110 4
b1010 5
b11 6
b10 7
b1011 :
b1101 ;
b10 <
b01 ?
b0010 @
b00 B
b10 D
b0110 F
b01 H
b0000 L
b0011 M
b00 N
b00 O
b00 P
b11 Q
1R
0S
1W
0X
1Y
0\
0c
1d
0e
1g
0h
0l
1s
0w
1x
1y
1|
1}
#196000
1%
b00000000000000000000000000010100 &
b00000000000000000000000000010100 '
#200000
0}
#205000
b0011100000111111111011110111 #
b0011011110010001101011010001 $
b0111 (
b0001 )
b01 *
b00 +
b01 -
b1111 .
b1101 /
b11 0
b11 2
b01 3
b1111 :
b0001 ;
b11 <
b00 =
b0011 @
b1001 A
b10 C
b11 D
b01 E
b1000 F
b0111 G
b10 H
b00 J
b11 K
b0011 L
b11 P
0R
0T
0V
0Y
1`
0d
0g
1h
0o
1u
0x
0y
1z
1}
#206000
0%
b00000000000000000000000000010101 &
b00000000000000000000000000010101 '
#210000
0}
#215000
b1100110110011011001110011110 #
b1100010000111101100001110111 $
b1110 (
b0111 )
b11 *
b01 +
b10 ,
b11 -
b1001 .
b0111 /
b10 0
b01 1
b01 2
b11 3
b0011 4
b1000 5
b00 6
b11 8
b00 9
b1011 :
b1101 ;
b10 <
b11 =
b1001 @
b0011 A
b10 B
b00 C
b01 D
b11 E
b1101 F
b0100 G
b11 H
b01 J
b00 K
b1100 L
b1100 M
b11 N
b11 O
b00 P
b00 Q
1U
1V
0W
1a
1e
0h
0j
1k
1o
1q
0s
0u
1}
#216000
b00000000000000000000000000010110 &
b00000000000000000000000000010110 '
#220000
0}
#225000
b1100010110001100000101101110 #
b0001101010000000110010101000 $
b1000 )
b10 +
b00 -
b0110 .
b1010 /
b01 0
b10 1
b10 2
b10 3
b0001 4
b1100 5
b11 7
b01 8
b1100 :
b0000 ;
b11 <
b00 =
b00 >
b00 ?
b1000 @
b1000 A
b10 C
b00 D
b00 E
b0101 F
b1010 G
b01 H
b10 I
b10 K
b0001 M
b00 O
b01 Q
1T
0V
1X
1^
0`
0a
0e
1f
1g
1n
0o
0q
1r
1t
1u
1w
1y
0z
0|
1}
#226000
b00000000000000000000000000010111 &
b00000000000000000000000000010111 '
#230000
0}
#235000
b0100101110001110001101001111 #
b0001111100101001000010111011 $
b1111 (
b1011 )
b11 ,
b11 -
b0100 .
b1011 /
b00 2
b11 3
b0011 4
b0000 5
b00 7
b11 8
b1110 :
b1001 ;
b10 =
b10 >
b01 ?
b0010 A
b00 C
b10 E
b1011 F
b1111 G
b10 H
b11 I
b11 J
b11 K
b0100 L
b01 N
0U
0^
1b
1e
0f
0k
1l
0n
1q
0r
0t
0u
1v
1}
#236000
b00000000000000000000000000011000 &
b00000000000000000000000000011000 '
#240000
0}
#245000
b1001101100101000100110010100 #
b1101000010110010111011100010 $
b0100 (
b0010 )
b01 *
b00 +
b00 ,
b10 -
b1001 .
b1110 /
b10 0
b11 1
b01 2
b10 3
b1001 4
b1110 5
b10 6
b11 7
b01 8
b10 9
b1000 :
b0010 ;
b10 <
b00 =
b00 >
b10 ?
b0010 @
b1011 A
b00 B
b10 C
b10 D
b11 E
b0000 G
b00 I
b00 K
b1001 L
b1101 M
b10 N
b11 O
b01 P
1R
1U
1W
0X
1Y
1a
0b
1i
1k
0l
1m
1s
0v
0w
0y
1z
1{
1}
#246000
1%
b00000000000000000000000000011001 &
b00000000000000000000000000011001 '
#250000
0}
#255000
b0010011111111111000101100110 #
b1111111111000001101100011111 $
b0110 (
b1111 )
b11 +
b10 ,
b11 -
b0110 .
b0001 /
b01 0
b00 1
b10 2
b01 3
b0001 4
b1011 5
b00 6
b10 7
b11 9
b1111 :
b0001 ;
b11 <
b11 >
b01 ?
b1111 @
b1100 A
b11 B
b11 C
b11 D
b00 E
b0111 F
b1111 G
b01 H
b11 I
b11 K
b0010 L
b1111 M
b00 N
b10 P
b11 Q
1S
0T
0W
1X
1c
0e
0g
0m
0q
0s
1t
1v
1w
1y
0z
1}
#256000
b00000000000000000000000000011010 &
b00000000000000000000000000011010 '
#260000
0}
#265000
b1101010101001011001100001001 #
b1111100111001011110011100011 $
b1001 (
b0011 )
b10 *
b00 +
b01 ,
b0000 .
b1110 /
b00 0
b11 1
b00 2
b10 3
b0011 4
b1100 5
b11 7
b11 8
b00 9
b1011 :
b1011 ;
b10 <
b10 =
b11 ?
b0100 @
b01 B
b00 D
b0101 F
b1001 G
b10 I
b01 J
b01 K
b1101 L
b11 N
b01 P
0S
1T
1W
1]
0c
1e
1g
0i
1n
1p
1r
1s
0t
0{
1|
1}
#266000
b00000000000000000000000000011011 &
b00000000000000000000000000011011 '
#270000
0}
#275000
b0111101100001111011000011111 #
b0001101011011010111110000100 $
b1111 (
b0100 )
b11 *
b01 +
b11 ,
b00 -
b0001 .
b1000 /
b10 1
b01 2
b00 3
b0110 4
b1111 5
b01 6
b10 8
b11 9
b1111 :
b1010 ;
b11 <
b10 ?
b0000 @
b1101 A
b00 B
b01 E
b1011 F
b1010 G
b10 H
b11 J
b10 K
b0111 L
b0001 M
b01 N
b00 O
b11 P
b01 Q
0R
0X
0Y
0]
0a
0e
1i
0n
0p
1q
0r
0v
0w
1x
0y
0|
1}
#276000
0%
b00000000000000000000000000011100 &
b00000000000000000000000000011100 '
#280000
0}
#285000
b1111000100000011011011000101 #
b1001001000011010011000110011 $
b0101 (
b0011 )
b01 *
b00 +
b01 ,
b11 -
b1100 .
b0011 /
b11 0
b00 1
b00 2
b11 3
b0110 5
b01 7
b10 9
b0011 :
b00 <
b0001 A
b00 C
b0001 F
b0010 G
b00 H
b00 I
b01 J
b1111 L
b1001 M
b11 N
b10 O
0T
0U
1V
1X
1\
1a
1e
0g
0i
1j
0k
1l
1o
0s
1t
1u
1}
#286000
b00000000000000000000000000011101 &
b00000000000000000000000000011101 '
#290000
0}
#295000
b1111011100101110101001001011 #
b1110010000100001111010011100 $
b1011 (
b1100 )
b10 *
b11 +
b11 ,
b00 -
b0100 .
b1001 /
b01 0
b10 1
b01 3
b1010 4
b1110 5
b10 6
b11 7
b1110 :
b0001 ;
b11 <
b00 =
b10 >
b01 ?
b0010 @
b0010 A
b10 D
b10 E
b0111 F
b0100 G
b01 H
b01 I
b11 J
b00 K
b1110 M
b11 O
b10 Q
1S
1T
1U
0V
0W
0X
0\
1^
0a
1c
1g
1k
0l
0o
0q
1r
0u
1|
1}
#296000
b00000000000000000000000000011110 &
b00000000000000000000000000011110 '
#300000
0}
#305000
b0110110010001010100011110011 #
b1110101100110010110011001001 $
b0011 (
b1001 )
b00 *
b10 +
b01 -
b1111 .
b1100 /
b11 0
b11 1
b11 2
b00 3
b1000 4
b1100 5
b00 8
b00 9
b1010 :
b0010 ;
b10 <
b10 ?
b1000 @
b0011 A
b10 B
b00 D
b11 E
b1100 F
b1011 G
b11 H
b10 I
b00 J
b11 K
b0110 L
b01 N
b10 P
1R
0T
1Y
0^
0e
0g
1h
1n
1q
0r
0t
1u
0x
1z
1{
0|
1}
#306000
1%
b00000000000000000000000000011111 &
b00000000000000000000000000011111 '
#310000
0}
#315000
b0011110111010111111011101101 #
b1011101110010110010111001010 $
b1101 (
b1010 )
b11 *
b01 ,
b10 -
b1110 .
b10 2
b1110 4
b0101 5
b11 6
b01 7
b10 8
b01 9
b0111 :
b0110 ;
b01 <
b01 =
b11 >
b1101 @
b1001 A
b11 B
b10 C
b01 D
b01 E
b1101 F
b01 J
b0011 L
b1011 M
b00 N
b10 O
b11 P
b11 Q
0S
0U
1a
0c
0j
0k
0n
1p
0q
1r
1}
#316000
b00000000000000000000000000100000 &
b00000000000000000000000000100000 '
#320000
0}
#325000
b1100010010011101010101011101 #
b1110011000010011010001000111 $
b0111 )
b01 +
b11 -
b0101 .
b0100 /
b01 0
b01 1
b01 2
b0101 4
b0100 5
b01 6
b01 8
b00 9
b1101 :
b0011 ;
b11 <
b00 =
b01 >
b11 ?
b1001 @
b0001 A
b10 B
b00 C
b0100 F
b0110 G
b01 H
b01 I
b00 J
b10 K
b1100 L
b1110 M
b11 N
b11 O
b00 P
b10 Q
1X
1l
1m
0p
1x
1y
0z
0{
1|
1}
#326000
b00000000000000000000000000100001 &
b00000000000000000000000000100001 '
#330000
0}
#335000
b0011111001011110110100100100 #
b0011010010011011001011101111 $
b0100 (
b1111 )
b01 *
b11 +
b00 ,
b0010 .
b1110 /
b00 0
b11 1
b10 2
b10 3
b1101 4
b0010 5
b11 6
b00 7
b10 9
b1110 :
b1011 ;
b10 =
b10 >
b0101 @
b1001 A
b01 B
b10 C
b1110 F
b0100 G
b11 H
b10 J
b00 K
b0011 L
b0011 M
b00 N
b00 O
b11 P
b11 Q
0R
1S
1T
1W
0X
0Y
1`
1c
1f
1g
0h
1i
0l
1s
0u
0x
0y
1z
1}
#336000
0%
b00000000000000000000000000100010 &
b00000000000000000000000000100010 '
#340000
0}
#345000
b1101010101001011010010101001 #
b1011111010001101100101101101 $
b1001 (
b1101 )
b10 *
b01 ,
b01 -
b1010 .
b0110 /
b10 0
b01 1
b0100 4
b1001 5
b01 6
b10 7
b00 8
b01 9
b1011 :
b1101 ;
b10 <
b11 =
b11 >
b01 ?
b0100 @
b1000 A
b00 D
b00 E
b0101 F
b1110 G
b01 H
b11 I
b01 J
b10 K
b1101 L
b1011 M
b11 N
b10 O
b01 P
0T
1U
1V
1X
0`
0a
1b
0g
1k
0m
1o
1u
1w
1y
0z
0|
1}
#346000
b00000000000000000000000000100011 &
b00000000000000000000000000100011 '
#350000
0}
#355000
b0110000010000011011100111001 #
b1110111100101001101001111000 $
b1000 )
b10 +
b00 -
b0011 .
b0111 /
b00 0
b11 2
b11 3
b0111 4
b1010 5
b11 8
b10 9
b0011 :
b1001 ;
b00 <
b10 =
b1000 @
b0010 A
b10 B
b00 C
b10 E
b0000 F
b1111 G
b00 H
b00 J
b11 K
b0110 L
b1110 M
b01 N
b11 O
b10 P
b10 Q
1R
0S
1T
0W
1Y
0b
0c
1d
1g
0i
1q
0r
0s
0y
1z
1{
1}
