Version_Final_IsWrong/03_verif/SubModule/COMP_UNIT/COMP_28BIT/tb_COMP_28bit.vcd
$date
	Mon Nov  3 19:26:05 2025
$end
$version
	Questa Intel Starter FPGA Edition Version 2024.3
$end
$timescale
	1ps
$end

$scope module tb_COMP_28bit $end
$var reg 1 ! i_clk $end
$var reg 28 " i_data_a [27:0] $end
$var reg 28 # i_data_b [27:0] $end
$var reg 1 $ o_less $end
$var reg 1 % w_expect $end
$var integer 32 & test_count $end
$var integer 32 ' test_pass $end

$scope function f_expected_less $end
$upscope $end

$scope task Display_Result $end
$upscope $end

$scope module DUT $end
$var reg 1 ( o_less $end
$var reg 1 ) o_equal $end
$var reg 1 * w_less_0_0 $end
$var reg 1 + w_less_0_1 $end
$var reg 1 , w_less_0_2 $end
$var reg 1 - w_less_0_3 $end
$var reg 1 . w_less_0_4 $end
$var reg 1 / w_less_0_5 $end
$var reg 1 0 w_less_0_6 $end
$var reg 1 1 w_equal_0_0 $end
$var reg 1 2 w_equal_0_1 $end
$var reg 1 3 w_equal_0_2 $end
$var reg 1 4 w_equal_0_3 $end
$var reg 1 5 w_equal_0_4 $end
$var reg 1 6 w_equal_0_5 $end
$var reg 1 7 w_equal_0_6 $end

$scope module u_i_data_0 $end
$var reg 1 8 o_less $end
$var reg 1 9 o_equal $end
$var reg 1 : w_less_low $end
$var reg 1 ; w_equal_low $end
$var reg 1 < w_less_high $end
$var reg 1 = w_equal_high $end

$scope module u_low $end
$var reg 1 > o_less $end
$var reg 1 ? o_equal $end
$upscope $end

$scope module u_high $end
$var reg 1 @ o_less $end
$var reg 1 A o_equal $end
$upscope $end
$upscope $end

$scope module u_i_data_1 $end
$var reg 1 B o_less $end
$var reg 1 C o_equal $end
$var reg 1 D w_less_low $end
$var reg 1 E w_equal_low $end
$var reg 1 F w_less_high $end
$var reg 1 G w_equal_high $end

$scope module u_low $end
$var reg 1 H o_less $end
$var reg 1 I o_equal $end
$upscope $end

$scope module u_high $end
$var reg 1 J o_less $end
$var reg 1 K o_equal $end
$upscope $end
$upscope $end

$scope module u_i_data_2 $end
$var reg 1 L o_less $end
$var reg 1 M o_equal $end
$var reg 1 N w_less_low $end
$var reg 1 O w_equal_low $end
$var reg 1 P w_less_high $end
$var reg 1 Q w_equal_high $end

$scope module u_low $end
$var reg 1 R o_less $end
$var reg 1 S o_equal $end
$upscope $end

$scope module u_high $end
$var reg 1 T o_less $end
$var reg 1 U o_equal $end
$upscope $end
$upscope $end

$scope module u_i_data_3 $end
$var reg 1 V o_less $end
$var reg 1 W o_equal $end
$var reg 1 X w_less_low $end
$var reg 1 Y w_equal_low $end
$var reg 1 Z w_less_high $end
$var reg 1 [ w_equal_high $end

$scope module u_low $end
$var reg 1 \ o_less $end
$var reg 1 ] o_equal $end
$upscope $end

$scope module u_high $end
$var reg 1 ^ o_less $end
$var reg 1 _ o_equal $end
$upscope $end
$upscope $end

$scope module u_i_data_4 $end
$var reg 1 ` o_less $end
$var reg 1 a o_equal $end
$var reg 1 b w_less_low $end
$var reg 1 c w_equal_low $end
$var reg 1 d w_less_high $end
$var reg 1 e w_equal_high $end

$scope module u_low $end
$var reg 1 f o_less $end
$var reg 1 g o_equal $end
$upscope $end

$scope module u_high $end
$var reg 1 h o_less $end
$var reg 1 i o_equal $end
$upscope $end
$upscope $end

$scope module u_i_data_5 $end
$var reg 1 j o_less $end
$var reg 1 k o_equal $end
$var reg 1 l w_less_low $end
$var reg 1 m w_equal_low $end
$var reg 1 n w_less_high $end
$var reg 1 o w_equal_high $end

$scope module u_low $end
$var reg 1 p o_less $end
$var reg 1 q o_equal $end
$upscope $end

$scope module u_high $end
$var reg 1 r o_less $end
$var reg 1 s o_equal $end
$upscope $end
$upscope $end

$scope module u_i_data_6 $end
$var reg 1 t o_less $end
$var reg 1 u o_equal $end
$var reg 1 v w_less_low $end
$var reg 1 w w_equal_low $end
$var reg 1 x w_less_high $end
$var reg 1 y w_equal_high $end

$scope module u_low $end
$var reg 1 z o_less $end
$var reg 1 { o_equal $end
$upscope $end

$scope module u_high $end
$var reg 1 | o_less $end
$var reg 1 } o_equal $end
$upscope $end
$upscope $end
$upscope $end
$upscope $end
$enddefinitions $end
#0
$dumpvars
0!
b0 "
b0 #
0$
x%
0(
1)
0*
0+
0,
0-
0.
0/
00
11
12
13
14
15
16
17
08
19
0:
1;
0<
1=
0>
1?
0@
1A
0B
1C
0D
1E
0F
1G
0H
1I
0J
1K
0L
1M
0N
1O
0P
1Q
0R
1S
0T
1U
0V
1W
0X
1Y
0Z
1[
0\
1]
0^
1_
0`
1a
0b
1c
0d
1e
0f
1g
0h
1i
0j
1k
0l
1m
0n
1o
0p
1q
0r
1s
0t
1u
0v
1w
0x
1y
0z
1{
0|
1}
b0 &
b0 '
$end
#5000
1!
b11001100110111110110100100 "
b110100001001100011111000110 #
1|
0}
1r
0s
1h
0i
1>
0?
0{
0q
0g
1^
0_
0]
0U
1R
0S
1J
0K
0I
0E
0G
1F
0O
1N
0Q
0Y
0[
1Z
0c
0m
0w
0;
1:
0e
1d
0o
1n
0y
1x
1t
1j
1`
18
09
0u
0k
0a
1V
0W
0M
1B
0C
02
1+
03
04
1-
05
06
07
01
1*
1.
1/
10
1(
0)
1$
#6000
1%
b1 &
b1 '
#10000
0!
#15000
1!
b1000011110110100110011110 "
b111110111101001111010111110 #
0J
1K
1z
1p
0h
1i
1T
1H
0>
1?
1;
0:
1D
1P
1e
0d
1l
1v
1G
0F
0`
1L
08
19
11
0*
1,
0.
#16000
b10 &
b10 '
#20000
0!
#25000
1!
b1001011000011100100000010001 "
b1011100011111101011101000101 #
0T
0H
0|
1}
0p
1h
0i
1f
0^
1_
1\
1J
0K
1@
0A
0=
1<
0G
1F
1X
1[
0Z
1b
0e
1d
0l
1y
0x
0D
0P
0L
1`
18
09
01
1*
1.
0,
#26000
b11 &
b11 '
#30000
0!
#35000
1!
b1101110011011110010110110001 "
b11100011110110101101111001 #
0_
0}
0r
1q
0h
1i
0\
1]
1T
0J
1I
1E
0F
1P
1Y
0X
1e
0d
1m
0n
0y
0[
0t
0j
0V
1L
0B
0+
1,
0-
0/
00
0(
0$
#36000
0%
b100 &
b100 '
#40000
0!
#45000
1!
b10010110010011111000111000 "
b1101010001000000010000101011 #
0f
0I
1|
0z
1s
0q
0i
1_
0]
0T
0R
1K
0@
1A
1>
0?
0;
1:
1=
0<
1G
0N
0P
0Y
1[
0e
0m
1o
0v
1x
0E
0b
1t
0`
0L
0,
0.
10
1(
1$
#46000
1%
b101 &
b101 '
#50000
0!
#55000
1!
b1010101001111101110100000000 "
b100111010100100110010001011 #
1U
1J
0K
0|
1r
0s
1q
1h
0_
1I
1@
0A
0=
1<
1E
0[
1d
1m
0o
1n
0x
0G
1F
1Q
1B
0t
1j
1`
1.
1/
00
1+
0(
0$
#56000
0%
b110 &
b110 '
#60000
0!
#65000
1!
b10001011010110000000011010 "
b1001000110011010000011110111 #
0q
1|
0r
1s
0h
1g
1^
1]
1S
1H
0I
0@
0<
0E
1D
1O
1Y
1Z
1c
0d
1o
0n
1x
0m
1t
0j
0`
1V
1M
08
0*
13
1-
0.
0/
10
1(
1$
#66000
1%
b111 &
b111 '
#70000
0!
#75000
1!
b10011110001000000100101110 "
b1000110110000001110100111000 #
1T
0U
0J
1K
0>
1r
0s
1i
0^
1\
0]
0Y
1X
0Z
1e
0o
1n
0:
1G
0F
0Q
1P
1L
0M
1j
1a
0V
0-
15
1/
03
1,
#76000
b1000 &
b1000 '
#80000
0!
#85000
1!
b10110000000011010011001 "
b100011000001001001111110111 #
0r
1s
0i
1{
1p
1^
0T
1R
0S
1J
0K
1>
1:
0G
1F
0O
1N
0P
1Z
1l
1w
0e
1o
0n
0a
1V
0L
0,
1-
05
#86000
b1001 &
b1001 '
#90000
0!
#95000
1!
b110001101010101000001010101 "
b100010111100111110000001011 #
0H
0|
1}
0{
1r
0s
0p
1h
1f
0g
0^
1_
1T
0R
1S
0J
1@
1<
0F
1O
0N
1P
1[
0Z
0c
1b
1d
0l
0o
1n
0w
1y
0x
0D
0t
1`
1L
0B
18
1*
0+
1,
1.
00
0(
0$
#96000
0%
b1010 &
b1010 '
#100000
0!
#105000
1!
b10000011111100011011001001 "
b1011111100000100111101001 #
0>
1?
1p
0h
1i
0f
0_
0\
1]
0S
1K
1H
0@
1A
1=
0<
1D
1G
0O
1Y
0X
0[
0b
1e
0d
1l
1;
0:
0`
0V
1B
08
19
11
0*
1+
0-
0.
#106000
b1011 &
b1011 '
#110000
0!
#115000
1!
b101111110010010111010101010 "
b11010001101101100001101 #
1R
1@
0A
0}
0r
0p
1^
0]
0T
0K
0H
0?
0;
0D
0G
0P
0Y
1Z
0l
0n
0y
0=
1<
1N
18
0j
1V
0L
0B
09
01
0+
0,
1-
0/
1*
#116000
b1100 &
b1100 '
#120000
0!
#125000
1!
b1010010100111100111110001111 "
b1000000110011011110001010111 #
1U
1}
1q
1h
0i
0^
1\
0R
1H
0@
1?
1;
0<
1D
0N
1X
0Z
0e
1d
1m
1y
1Q
1`
0V
08
0*
0-
1.
#126000
b1101 &
b1101 '
#130000
0!
#135000
1!
b1000000110011001000110000100 "
b10101111011000101010010010 #
0}
1p
0q
1K
1z
1r
1g
1_
0\
1T
0U
1R
1>
0?
0;
1:
1N
0Q
1P
0X
1[
1c
1n
1v
1G
0m
1l
0y
1B
1j
1L
1,
1/
1+
#136000
b1110 &
b1110 '
#140000
0!
#145000
1!
b1011000100111000000011100 "
b1110010110100100101101010001 #
1|
0r
1s
0p
1J
0K
0H
1I
1E
0D
0G
1F
0l
1o
0n
1x
1t
0j
0/
10
1(
1$
#146000
1%
b1111 &
b1111 '
#150000
0!
#155000
1!
b100110100101010001110101110 "
b1010011101010001001000010110 #
0g
0T
1U
0s
1p
0_
0R
0J
0I
0>
1?
1;
0:
0E
0F
0N
0[
1l
0o
1Q
0P
0c
0L
0B
0+
0,
#156000
b10000 &
b10000 '
#160000
0!
#165000
1!
b1010011101100100011000110100 "
b110000010101001100000011100 #
1g
0|
0z
1{
0p
1^
1\
1T
0U
1K
1@
1<
1G
0Q
1P
1X
1Z
0l
1w
0v
0x
1c
0t
1V
1L
18
1*
1,
1-
00
0(
0$
#166000
0%
b10001 &
b10001 '
#170000
0!
#175000
1!
b1101000101011111011011010111 "
b10110101000011101111101010 #
0h
1i
1R
1z
0{
1r
1q
0g
0^
0\
1]
1H
0?
0;
1D
1Y
0X
0Z
0c
1m
1n
0w
1v
1N
1e
0d
0`
1j
0V
1B
1+
0-
1/
0.
#176000
b10010 &
b10010 '
#180000
0!
#185000
1!
b1001101000110010111000011000 "
b1001001011001001001000 #
0z
0R
1S
0H
0r
1h
0i
1^
1\
0]
0T
1J
0K
0@
1A
1?
1;
1=
0<
0G
1F
0P
0Y
1X
1Z
0e
1d
0n
0D
1O
0N
0v
0j
1`
1V
0L
08
19
11
0*
0,
1-
1.
0/
#186000
b10011 &
b10011 '
#190000
0!
#195000
1!
b1100100001001110110101111111 "
b110101010101100100100001 #
1r
0\
1{
1p
0q
0h
1i
1f
0^
0J
0A
0?
0;
0=
0F
0Z
1b
1e
0d
0m
1l
1w
0X
1n
1j
0V
0B
09
01
0+
0-
1/
#196000
b10100 &
b10100 '
#200000
0!
#205000
1!
b1010010000111001001001011001 "
b11100100011110111011000111 #
1J
1z
0{
0f
1^
1\
1T
1>
1:
1P
1X
1Z
0b
0w
1v
1F
1B
0`
1V
1L
1,
1-
0.
1+
#206000
b10101 &
b10101 '
#210000
0!
#215000
1!
b1000101101110110110111101010 "
b1011100110110001100111011 #
1g
1A
0r
0p
1q
0i
0^
1_
0\
1]
0T
1R
0S
0J
1H
1D
0F
0O
1N
0P
1Y
0X
1[
0Z
0e
1m
0l
0n
1=
1c
18
0j
0V
1W
0L
0B
0+
0,
14
0-
0/
1*
#216000
b10110 &
b10110 '
#220000
0!
#225000
1!
b110111001010001101001111001 "
b1110111010110000000100000111 #
1h
0A
1|
0z
1{
1s
1f
0g
0]
0R
0H
0D
0N
0Y
0c
1b
1o
1w
0v
1x
0=
1d
08
1t
1k
1`
0W
04
1.
16
10
0*
1(
1$
#226000
1%
b10111 &
b10111 '
#230000
0!
#235000
1!
b101010001011011001010111101 "
b101100110111101011100000 #
0|
0h
1S
0>
0{
1r
0s
1p
0q
0_
1]
1T
1J
1F
1P
1Y
0[
0m
1l
0o
1n
0w
0:
1O
0d
0x
0t
0`
1j
0k
1L
1B
1+
1,
06
1/
0.
00
0(
0$
#236000
0%
b11000 &
b11000 '
#240000
0!
#245000
1!
b1111110101110111001001100110 "
b101000010100010101010011100 #
1h
0]
0r
0p
0f
1@
1<
0b
0l
0n
0Y
1d
0j
1`
18
1*
1.
0/
#246000
b11001 &
b11001 '
#250000
0!
#255000
1!
b1100001010011000111001 "
b1111100101100110000010011101 #
0S
1|
1z
1r
1f
1]
0T
1?
1;
0P
1Y
1b
1n
1v
1x
0O
1t
1j
0L
0,
1/
10
1(
1$
#256000
1%
b11010 &
b11010 '
#260000
0!
#265000
1!
b1101001100010100110011100110 "
b101001101000010000001001011 #
0r
1s
1q
0|
0z
1{
0f
1\
0]
1S
0J
1>
0?
0;
1:
0F
1O
0Y
1X
0b
1w
0v
0x
1m
1o
0n
0j
1k
0t
0B
0+
00
16
0/
0(
0$
#266000
0%
b11011 &
b11011 '
#270000
0!
#275000
1!
b10011110100011100100101000 "
b110001111101101110100000000 #
1|
0s
1g
1^
0\
1T
1K
0@
0>
1?
1;
0:
0<
1G
1P
0X
1Z
1c
0o
1x
1t
0k
1V
1L
08
0*
1,
1-
06
10
1(
1$
#276000
1%
b11100 &
b11100 '
#280000
0!
#285000
1!
b1100011000000101101001001110 "
b100111110010110100101101001 #
1r
0T
1U
0|
1p
0q
1f
0g
0^
1_
1\
0S
1H
0?
0;
1D
0O
1X
1[
0Z
0c
1b
0m
1l
0x
1Q
0P
1n
0L
0t
1j
1B
1+
1/
00
0,
0(
0$
#286000
0%
b11101 &
b11101 '
#290000
0!
#295000
1!
b1110000100101000110001101001 "
b1110001000010111110101110000 #
1}
0h
1i
0r
1s
0f
0_
1R
1N
0[
0b
1o
0n
1e
0d
1y
1u
0`
0V
1L
1,
0-
0.
17
1(
1$
#296000
1%
b11110 &
b11110 '
#300000
0!
#305000
1!
b100101001000111010000001100 "
b1101111000101111010110011111 #
1|
0}
1z
0{
1r
0s
0p
1q
0i
1f
1^
0\
1]
1J
0K
1A
1>
1:
1=
0G
1F
1Y
0X
1Z
1b
0e
1m
0l
0o
1n
0w
1v
0y
1x
1t
0u
1V
18
1*
1-
07
10
#306000
b11111 &
b11111 '
#310000
0!
#315000
1!
b1110101110100111000101001001 "
b1001100001110110000110111110 #
0r
1s
0^
1_
0]
0|
0z
0q
0R
1S
1@
0A
0=
1<
1O
0N
0m
0v
0x
0Y
1[
0Z
1o
0n
0j
0V
0t
0L
1M
13
0,
00
0-
0/
0(
0$
#316000
0%
b100000 &
b100000 '
#320000
0!
#325000
1!
b11111110000010001000010101 "
b10110010111101000101101101 #
1i
0>
1?
1}
1^
0_
0S
0O
0[
1Z
1y
1;
0:
1e
1`
1V
0M
03
1-
1.
#326000
b100001 &
b100001 '
#330000
0!
#335000
1!
b11110100101101001101111111 "
b1011001001001101111110000100 #
1|
0}
1{
0s
1T
0U
1p
1h
0i
0f
0^
1_
1]
1S
0H
0@
0?
0;
0<
0D
1O
1Y
1[
0Z
0b
0e
1d
1l
0Q
1P
0o
1w
0y
1x
1t
1L
0V
1W
08
0*
14
0-
1,
10
1(
1$
#336000
1%
b100010 &
b100010 '
#340000
0!
#345000
1!
b11101000101001111100011110 "
b10100000001101100001101000 #
0|
1}
0{
0h
1i
0S
1s
0p
1^
0_
0T
1H
1D
0P
0[
1Z
0l
1o
0O
1e
0d
0w
1y
0x
0t
0`
1V
0W
0L
0,
04
1-
0.
00
0(
0$
#346000
0%
b100011 &
b100011 '
#350000
0!
#355000
1!
b1011011001000000001001001111 "
b101100101011000100010001110 #
1A
0}
1r
0s
1f
1T
0H
1I
1E
0D
1P
1b
0o
1n
0y
1=
1j
1`
1L
1,
1.
1/
#356000
b100100 &
b100100 '
#360000
0!
#365000
1!
b100000100000001000100010001 "
b10000110111000110110100 #
0T
1U
1{
1\
0]
1S
1H
0I
1@
0A
0=
1<
0E
1D
1O
0Y
1X
1w
1Q
0P
0L
1M
18
1*
13
0,
#366000
b100101 &
b100101 '
#370000
0!
#375000
1!
b1010110011011111100100101000 "
b1011011001010010011100010111 #
1R
0S
0J
1K
1}
1z
0{
0r
1p
0i
0f
1g
0^
0\
0U
0H
0@
1>
1:
0<
0D
0Q
0X
0Z
1c
0b
0e
1l
0n
0w
1v
1y
1G
0F
0O
1N
1t
0j
0`
0V
0M
0B
08
0*
0+
03
0-
0.
0/
10
1(
1$
#376000
1%
b100110 &
b100110 '
#380000
0!
#385000
1!
b1010100110111000011101110111 "
b110110010001101111101000011 #
0}
0z
1{
1r
0p
1i
0g
1^
1\
1T
0R
1S
0>
1?
1;
0:
1O
0N
1P
1X
1Z
0c
1e
0l
1n
1w
0v
0y
0t
1j
1V
1L
1,
1-
1/
00
0(
0$
#386000
0%
b100111 &
b100111 '
#390000
0!
#395000
1!
b1101110011110011000110110010 "
b1011011001010001011110011101 #
1z
0{
0r
1p
0i
0^
1_
0\
1R
0S
1@
0?
0;
1<
0O
1N
0X
1[
0Z
0e
1l
0n
0w
1v
0j
0V
18
1*
0-
0/
#396000
b101000 &
b101000 '
#400000
0!
#405000
1!
b101110101011001110100000000 "
b11110010101000011010100001 #
1s
0@
1A
0p
1h
1f
0T
1J
0K
1H
1>
1:
1D
0G
1F
0P
1b
1d
0l
1=
0<
1o
1`
0L
1B
1+
0,
1.
#406000
b101001 &
b101001 '
#410000
0!
#415000
1!
b1110100111110100000101 "
b110101111010111011010100101 #
1|
1r
0s
1q
0f
1]
0>
1?
1;
0:
1Y
0b
1m
0o
1n
1x
1t
1j
1W
08
19
11
0*
14
1/
10
1(
1$
#416000
1%
b101010 &
b101010 '
#420000
0!
#425000
1!
b1101011101111100111110101001 "
b100010010110001001000101010 #
0q
1>
0?
0|
0z
0r
1s
1g
0_
1\
0]
0R
0J
0H
1I
1E
0D
0F
0N
0Y
1X
0[
1c
1o
0n
0v
0x
0;
1:
0m
18
09
0t
0j
0W
0B
0+
04
0/
00
01
1*
0(
0$
#426000
0%
b101011 &
b101011 '
#430000
0!
#435000
1!
b1001110110111010011111011100 "
b1001001101100001011000111011 #
1{
0g
1}
0s
1p
0h
0\
1U
1H
0I
0A
0=
0E
1D
1Q
0X
0d
1l
0o
1y
0c
1w
1u
0`
08
0*
0.
17
#436000
b101100 &
b101100 '
#440000
0!
#445000
1!
b100000001000111010011011110 "
b1011111111001001010110111111 #
1A
1|
0}
1z
0{
1r
1h
1g
1^
1R
1N
1Z
1c
1d
1n
0w
1v
0y
1x
1=
18
1t
0u
1j
1`
1V
1L
1,
1-
1.
1/
07
10
1*
1(
1$
#446000
1%
b101101 &
b101101 '
#450000
0!
#455000
1!
b1010000000000001011111100001 "
b1100101011001111011010110110 #
0z
1\
0R
1@
0A
0=
1<
0N
1X
0v
0L
0,
#456000
b101110 &
b101110 '
#460000
0!
#465000
1!
b1011010100100011010001100110 "
b1000011000111110000101101001 #
0|
1}
0h
1i
0U
0H
1I
0r
1s
1f
0g
0\
1R
1K
0>
0:
1G
1N
0X
0c
1b
1o
0n
1E
0D
0Q
1e
0d
1y
0x
0t
1C
12
00
0(
0$
#466000
0%
b101111 &
b101111 '
#470000
0!
#475000
1!
b1010100111101111011001011111 "
b100111010000100101101001100 #
0}
0f
1T
1r
0s
0i
0^
0I
0@
1A
1=
0<
0E
0Z
0e
0o
1n
1P
0b
0y
1L
0`
0V
0C
08
0*
02
0-
0.
1,
#476000
b110000 &
b110000 '
#480000
0!
#485000
1!
b1110001010110100001011011100 "
b100100011111000110000000000 #
0R
0A
0p
1h
1g
1^
1]
0K
1?
1;
0G
1Y
1Z
1c
1d
0l
0=
0N
1`
1V
1-
1.
#486000
b110001 &
b110001 '
#490000
0!
#495000
1!
b11111001101010110010100111 "
b111111001001110001101010011 #
1q
1|
1{
0r
1s
0h
1i
0g
0T
1R
1N
0P
0c
1e
0d
1o
0n
1w
1x
1m
1t
0j
1k
0`
0L
0,
0.
16
0/
10
1(
1$
#496000
1%
b110010 &
b110010 '
#500000
0!
#505000
1!
b11100100010101101111000110 "
b110011110101011010001110110 #
0{
1A
0s
1p
0q
1h
0i
1f
1\
0]
0R
1H
1D
0N
0Y
1X
1b
0e
1d
0m
1l
0o
1=
0w
19
0k
1`
1.
06
11
#506000
b110011 &
b110011 '
#510000
0!
#515000
1!
b1001010000010101010101110000 "
b1111001100011000011111000 #
0^
0|
1{
1r
1J
0H
1I
1@
0A
0=
1<
1E
0D
1F
1n
1w
0x
0Z
0V
0t
1j
1B
18
09
01
1*
1+
1/
00
0-
0(
0$
#516000
0%
b110100 &
b110100 '
#520000
0!
#525000
1!
b1101101001001111100000110010 "
b110001110100001000111010101 #
1z
0{
0I
0r
0\
1R
0?
0;
1N
0X
0n
0E
0w
1v
0j
0/
#526000
b110101 &
b110101 '
#530000
0!
#535000
1!
b1111111101000110001000001001 "
b1111101101000001100001101000 #
1}
0h
1i
0f
1g
0z
1{
0p
1q
1T
0R
1H
0@
1A
1=
0<
1D
0N
1P
1m
0l
1w
0v
1c
0b
1e
0d
1y
0`
1a
1u
1L
08
0*
1,
17
15
0.
#536000
b110110 &
b110110 '
#540000
0!
#545000
1!
b111001010110100011000011001 "
b1010111111110111001111011100 #
0{
1_
1R
1@
0A
1|
0}
1r
1p
0q
1h
0i
1\
0T
0H
1I
1E
0D
0P
1X
0e
1d
0m
1l
1n
0y
1x
0=
1<
1N
1[
0w
18
1t
0u
1j
1`
0a
1V
0L
0,
1-
05
1.
1/
07
10
1*
1(
1$
#546000
1%
b110111 &
b110111 '
#550000
0!
#555000
1!
b1101000001110101110110001111 "
b11011110100100101011000111 #
0g
0|
1z
0\
0@
1?
1;
0<
0X
1v
0x
0c
0t
0V
08
0*
0-
00
0(
0$
#556000
0%
b111000 &
b111000 '
#560000
0!
#565000
1!
b1010111111101101010000011101 "
b1110111100010111110011101110 #
1\
1A
1|
0z
1{
0r
1s
0p
1q
0h
0_
1T
0R
1S
1H
0I
1>
0?
0;
1:
0E
1D
1O
0N
1P
0[
0d
1m
0l
1o
0n
1w
0v
1x
1=
1X
1t
0j
1k
0`
1L
18
1*
1,
0.
16
0/
10
1(
1$
#566000
1%
b111001 &
b111001 '
#570000
0!
#575000
1!
b1001000000010100011111110010 "
b10110011100000101101100011 #
0|
1z
0{
1r
0s
1h
1f
0\
1]
0J
0H
0D
0F
1Y
0X
1b
1d
0o
1n
0w
1v
0x
0t
1j
0k
1`
0B
0+
1.
06
1/
00
0(
0$
#576000
0%
b111010 &
b111010 '
#580000
0!
#585000
1!
b100101000001001011000100000 "
b101100001100001001111000101 #
0T
1@
0A
1}
0r
1s
0q
1R
0S
1J
1F
0O
1N
0m
1o
0n
1y
0=
1<
0P
1t
0j
0L
1B
1+
0,
0/
10
1(
1$
#586000
1%
b111011 &
b111011 '
#590000
0!
#595000
1!
b1011100000010101000111010010 "
b10111101010010000101101011 #
1r
0s
1\
0]
0}
0z
1p
0f
1g
1U
0R
1S
0J
1H
1D
0F
1O
0N
1Q
1c
0b
1l
0v
0y
0Y
1X
0o
1n
0t
1j
1M
0B
0+
13
1/
00
0(
0$
#596000
0%
b111100 &
b111100 '
#600000
0!
#605000
1!
b1100110010101101000000001000 "
b1100011100000110100001011110 #
1T
0U
1}
1{
0r
0h
0g
1J
1F
0c
0d
0n
1w
1y
0Q
1P
1L
0M
1u
0j
0`
1B
1+
0.
0/
17
03
1,
#606000
b111101 &
b111101 '
#610000
0!
#615000
1!
b10101010110001111000101111 "
b1100101111001010001010000000 #
1h
1|
0}
0{
1s
1^
0T
0H
0@
0>
0:
0<
0D
0P
1Z
1o
0w
0y
1x
1d
1`
1t
0u
1j
1V
0L
08
0*
0,
1-
1/
07
10
1.
1(
1$
#616000
1%
b111110 &
b111110 '
#620000
0!
#625000
1!
b1111000111100011000110010110 "
b1110101110111001000110111111 #
0|
1}
1r
0s
0h
1f
0\
1U
0J
1K
1H
1@
1>
1:
1<
1D
1G
0F
1Q
0X
1b
0d
0o
1n
1y
0x
0t
0`
1M
18
1*
13
0.
00
0(
0$
#626000
0%
b111111 &
b111111 '
#630000
0!
#635000
1!
b10010101001010000111100 "
b11010101110010110001010000 #
1z
0r
1s
0^
1\
1T
0U
1J
0K
0H
0@
0>
1?
1;
0:
0<
0D
0G
1F
0Q
1P
1X
0Z
1o
0n
1v
1t
0V
1L
0M
08
0*
03
1,
0-
10
1(
1$
#636000
1%
b1000000 &
b1000000 '
#640000
0!
#645000
1!
b1101010000000000000111000 "
b1000000010011000011100001001 #
1|
0}
1i
1R
0S
0J
1K
1>
0?
0z
0s
0p
1^
0\
1]
1A
1=
1Y
0X
1Z
0l
0o
0v
0;
1:
1G
0F
0O
1N
1e
0y
1x
1`
0B
0j
1V
18
1*
1-
0/
0+
1.
#646000
b1000001 &
b1000001 '
#650000
0!
#655000
1!
b1111101100011001000100100101 "
b1111101010100110110000100001 #
1s
0|
1}
1{
1h
0i
0^
1\
0]
0R
1I
0A
0>
1?
1;
0:
0=
1E
0N
0Y
1X
0Z
0e
1d
1w
1y
0x
1o
0t
1u
0V
1C
08
0*
12
0-
17
00
0(
0$
#656000
0%
b1000010 &
b1000010 '
#660000
0!
#665000
1!
b1100101110010100111100100101 "
b1011110001011100000101101111 #
0}
1r
0s
0f
1g
1J
0K
1@
1>
0?
1z
0{
0h
1^
0\
1]
0T
0P
1Y
0X
1Z
0d
0w
1v
0;
1:
1<
0G
1F
1c
0b
0o
1n
0y
1j
1B
0C
18
0u
0`
1V
0L
0,
1-
0.
07
1*
02
1+
1/
#666000
b1000011 &
b1000011 '
#670000
0!
#675000
1!
b10100011011100000001000101 "
b11011100100111110110110011 #
0r
1f
0g
1\
0]
0@
1}
1p
0^
1T
1R
1H
0I
0E
1D
1N
1P
0Z
1l
1y
0<
0Y
1X
0c
1b
0n
08
1t
0j
0V
1L
1,
0-
0/
10
0*
1(
1$
#676000
1%
b1000100 &
b1000100 '
#680000
0!
#685000
1!
b1010000001001100001001001110 "
b1000110111111100000011011000 #
0z
1_
0\
1]
0T
1U
1r
1h
0R
0>
0:
0N
1d
1n
1Q
0P
1Y
0X
1[
0v
0t
1W
1j
1`
0L
0,
1.
1/
14
00
0(
0$
#686000
0%
b1000101 &
b1000101 '
#690000
0!
#695000
1!
b1010110001010011110101100101 "
b11100111010010100100000 #
0}
0h
0J
0r
1^
0_
0]
0U
1S
0H
1I
1E
0D
1O
0Q
0Y
0[
1Z
0n
0F
0d
0y
0`
0j
1V
0W
0B
0+
04
1-
0/
0.
#696000
b1000110 &
b1000110 '
#700000
0!
#705000
1!
b101000110111111111100011101 "
b111110011100100110111 #
1]
1>
1s
0p
1q
1h
0f
1g
0^
0S
1K
1H
0I
0E
1D
1G
0O
0Z
1c
0b
1d
1m
0l
1o
1:
1Y
1k
1`
0V
1B
1+
0-
1.
16
#706000
b1000111 &
b1000111 '
#710000
0!
#715000
1!
b1111101011011111010001110011 "
b1011111100101001011100011110 #
0]
1{
1r
0s
1p
0q
0h
1f
0g
1U
1R
0K
0H
1@
0>
0:
1<
0D
0G
1N
1Q
0c
1b
0d
0m
1l
0o
1n
1w
0Y
1j
0k
0`
1L
0B
18
1*
0+
1,
0.
06
1/
#716000
b1001000 &
b1001000 '
#720000
0!
#725000
1!
b10011011001000100001101111 "
b100010100010011001111111100 #
0p
1J
1|
0{
0r
1s
1\
0U
1H
0@
1A
1=
0<
1D
0Q
1X
1o
0n
0w
1x
1F
0l
1t
0j
0L
1B
08
0*
1+
0,
0/
10
1(
1$
#726000
1%
b1001001 &
b1001001 '
#730000
0!
#735000
1!
b1001101100110000110101001011 "
b1001011100010010010010111011 #
1?
0|
1}
1{
0s
1q
1i
0f
1_
0R
0N
1[
0b
1e
1m
0o
1w
1y
0x
1;
19
0t
1u
1V
1-
17
00
11
0(
0$
#736000
0%
b1001010 &
b1001010 '
#740000
0!
#745000
1!
b1001010000110111100101110101 "
b1000100001011110111001000010 #
0{
1h
0i
1R
0J
1K
1r
1^
0_
0\
1T
0H
0A
1>
0?
0;
1:
0=
0D
1P
0X
0[
1Z
1n
1G
0F
1N
0e
1d
0w
0u
1`
1j
1L
0B
09
01
0+
1,
1/
1.
07
#746000
b1001011 &
b1001011 '
#750000
0!
#755000
1!
b100010110010100110100011100 "
b1101101101011111101011000 #
0}
1z
1p
0q
0h
1f
1\
0T
1U
1J
0K
1I
0>
1?
1;
0:
1E
0G
1F
1Q
0P
1X
1b
0d
0m
1l
1v
0y
0`
1B
1+
0.
#756000
b1001100 &
b1001100 '
#760000
0!
#765000
1!
b1011111110101001110100100001 "
b110000011110010001111111010 #
1h
0U
0z
0r
0p
0^
1H
0I
1@
1>
0?
0;
1:
1<
0E
1D
0Z
0l
0n
0v
0Q
1d
1`
0L
0j
0V
18
1*
0-
0/
0,
1.
#766000
b1001101 &
b1001101 '
#770000
0!
#775000
1!
b1101011100110111010011011100 "
b101111111001010001100110100 #
1q
1{
1r
0f
1^
0\
0J
0@
0>
1?
1;
0:
0<
0F
0X
1Z
0b
1n
1w
1m
1j
1V
0B
08
0*
0+
1-
1/
#776000
b1001110 &
b1001110 '
#780000
0!
#785000
1!
b1101001010100011100010111101 "
b1100101000110100101110101000 #
1}
0{
0h
1f
1U
1K
0H
0?
0;
0D
1G
1Q
1b
0d
0w
1y
0`
1L
1,
0.
